// Jest Snapshot v1, https://goo.gl/fbAQLP

exports[`<BoughtInfo /> should render basic component 1`] = `
<div
  className="boughtContainer"
>
  <div
    className="infoWrap"
  >
    <span
      className="text"
    >
      You 
      bought
    </span>
    <span
      className="text priceText"
    >
      1,324
    </span>
    <span
      className="text"
    >
      x
    </span>
    <span
      className="text"
    >
      Test name
    </span>
    <span
      className="text"
    >
      from
    </span>
    <span
      className="text"
    >
      love_intent
      's
    </span>
    <span
      className="text"
    >
      bazaar
    </span>
    <span
      className="text"
    >
      for a total of
    </span>
    <span
      className="text priceText"
    >
      $
      2,083,261,040
    </span>
  </div>
  <Close
    onClose={[Function]}
  />
</div>
`;

exports[`<BoughtInfo /> should render without bazaar and user titles 1`] = `
<div
  className="boughtContainer"
>
  <div
    className="infoWrap"
  >
    <span
      className="text"
    >
      You 
      bought
    </span>
    <span
      className="text priceText"
    >
      1,324
    </span>
    <span
      className="text"
    >
      x
    </span>
    <span
      className="text"
    >
      Test name
    </span>
    <span
      className="text"
    >
      for a total of
    </span>
    <span
      className="text priceText"
    >
      $
      2,083,261,040
    </span>
  </div>
  <Close
    onClose={[Function]}
  />
</div>
`;

exports[`<BoughtInfo /> should render without close button 1`] = `
<div
  className="boughtContainer"
>
  <div
    className="infoWrap"
  >
    <span
      className="text"
    >
      You 
      bought
    </span>
    <span
      className="text priceText"
    >
      1,324
    </span>
    <span
      className="text"
    >
      x
    </span>
    <span
      className="text"
    >
      Test name
    </span>
    <span
      className="text"
    >
      from
    </span>
    <span
      className="text"
    >
      love_intent
      's
    </span>
    <span
      className="text"
    >
      bazaar
    </span>
    <span
      className="text"
    >
      for a total of
    </span>
    <span
      className="text priceText"
    >
      $
      2,083,261,040
    </span>
  </div>
  <Close
    isCloseButtonDisabled={true}
    onClose={[Function]}
  />
</div>
`;

exports[`<BoughtInfo /> should render without sold trade label 1`] = `
<div
  className="boughtContainer"
>
  <div
    className="infoWrap"
  >
    <span
      className="text"
    >
      You 
      sold
    </span>
    <span
      className="text priceText"
    >
      1,324
    </span>
    <span
      className="text"
    >
      x
    </span>
    <span
      className="text"
    >
      Test name
    </span>
    <span
      className="text"
    >
      from
    </span>
    <span
      className="text"
    >
      love_intent
      's
    </span>
    <span
      className="text"
    >
      bazaar
    </span>
    <span
      className="text"
    >
      for a total of
    </span>
    <span
      className="text priceText"
    >
      $
      2,083,261,040
    </span>
  </div>
  <Close
    onClose={[Function]}
  />
</div>
`;
