// Jest Snapshot v1, https://goo.gl/fbAQLP

exports[`<CrimeRow Global /> should render basic crime row with children crimeRow included and crime button 1`] = `
<CrimeRow
  additionalInfo={Object {}}
  attemptsTotal={0}
  button={
    Object {
      "action": [Function],
      "disabled": false,
      "label": "",
    }
  }
  className=""
  click={[Function]}
  closeOutcome={
    Object {
      "callback": [Function],
      "isActive": false,
    }
  }
  crimeID={0}
  currentRowID={0}
  customImage=""
  dlmForTitle={true}
  genre={null}
  getCurrentOutcome={[Function]}
  iconClass=""
  id={0}
  isButtonDisabled={[Function]}
  isCDSelected={false}
  isCurrentRow={false}
  isManualLayoutSetted={false}
  isRowActive={true}
  isRowNotInProgress={false}
  itemId={0}
  lastSubCrimeID={0}
  mediaType="desktop"
  moneyToCollect={0}
  nerve={0}
  nonBorder={false}
  outcome={Object {}}
  rowShouldUpdate={[Function]}
  showOutcome={false}
  spraySelected=""
  state=""
  styles={null}
  subTitle=""
  title="<span class=\\"t-hide\\">Search the </span> Trash"
  underTitle={false}
>
  <div
    className="crimeRow"
    style={Object {}}
  >
    <div
      className="topSection"
    >
      <div
        className="image"
      >
        <i
          className=""
        />
      </div>
      <div
        className="title dlm"
        dangerouslySetInnerHTML={
          Object {
            "__html": "<span class=\\"t-hide\\">Search the </span> Trash",
          }
        }
      />
      <div
        className="test-mock-children"
      >
        Time to test!
      </div>
      <div
        className="nerve dlm"
      />
      <div
        className="action"
      >
        <CrimeRowButton
          action={[Function]}
          button={
            Object {
              "action": [Function],
              "disabled": false,
              "label": "",
            }
          }
          crimeID={0}
          inProgress={false}
          isButtonDisabled={[Function]}
          isDesktop={true}
          isManualDesktop={false}
          isRowActive={true}
          mediaType="desktop"
          special=""
          styles={null}
        >
          <button
            className="torn-btn gold crimeButton"
            disabled={false}
            href="#"
            id={0}
            onClick={[Function]}
            type="button"
          />
        </CrimeRowButton>
      </div>
    </div>
    <div
      className="bottomSection"
    >
      <CSSTransition
        classNames="rowOutcome"
        in={true}
        onExit={[Function]}
        timeout={
          Object {
            "enter": 0,
            "exit": 350,
          }
        }
        unmountOnExit={true}
      >
        <Transition
          appear={false}
          enter={true}
          exit={true}
          in={true}
          mountOnEnter={false}
          onEnter={[Function]}
          onEntered={[Function]}
          onEntering={[Function]}
          onExit={[Function]}
          onExited={[Function]}
          onExiting={[Function]}
          timeout={
            Object {
              "enter": 0,
              "exit": 350,
            }
          }
          unmountOnExit={true}
        >
          <Outcome
            activeButton={[Function]}
            className=""
            closeOutcome={
              Object {
                "callback": [Function],
                "isActive": false,
              }
            }
            counter={0}
            crimeID={0}
            getCurrentOutcome={[Function]}
            getOutcomeHeight={[Function]}
            isCurrentRow={false}
            isRowActive={true}
            isRowNotInProgress={false}
            itemId={0}
            mediaType="desktop"
            outcome={Object {}}
            showOutcome={false}
            state=""
          >
            <TransitionGroup
              childFactory={[Function]}
              className="outcome"
              component="div"
              data-set={false}
            >
              <div
                className="outcome"
                data-set={false}
              />
            </TransitionGroup>
          </Outcome>
        </Transition>
      </CSSTransition>
    </div>
  </div>
</CrimeRow>
`;

exports[`<CrimeRow Global /> should render row with active button 1`] = `
<CrimeRow
  additionalInfo={Object {}}
  attemptsTotal={0}
  button={
    Object {
      "action": [Function],
      "disabled": false,
      "label": "",
    }
  }
  className=""
  click={[Function]}
  closeOutcome={
    Object {
      "callback": [Function],
      "isActive": false,
    }
  }
  crimeID={0}
  currentRowID={0}
  customImage=""
  dlmForTitle={true}
  genre={null}
  getCurrentOutcome={[Function]}
  iconClass=""
  id={0}
  isButtonDisabled={[Function]}
  isCDSelected={false}
  isCurrentRow={false}
  isManualLayoutSetted={false}
  isRowActive={true}
  isRowNotInProgress={false}
  itemId={0}
  lastSubCrimeID={0}
  mediaType="desktop"
  moneyToCollect={0}
  nerve={0}
  nonBorder={false}
  outcome={Object {}}
  rowShouldUpdate={[Function]}
  showOutcome={false}
  spraySelected=""
  state=""
  styles={null}
  subTitle=""
  title="<span class=\\"t-hide\\">Search the </span> Trash"
  underTitle={false}
>
  <div
    className="crimeRow"
    style={Object {}}
  >
    <div
      className="topSection"
    >
      <div
        className="image"
      >
        <i
          className=""
        />
      </div>
      <div
        className="title dlm"
        dangerouslySetInnerHTML={
          Object {
            "__html": "<span class=\\"t-hide\\">Search the </span> Trash",
          }
        }
      />
      <div
        className="test-mock-children"
      >
        Time to test!
      </div>
      <div
        className="nerve dlm"
      />
      <div
        className="action"
      >
        <CrimeRowButton
          action={[Function]}
          button={
            Object {
              "action": [Function],
              "disabled": false,
              "label": "",
            }
          }
          crimeID={0}
          inProgress={false}
          isButtonDisabled={[Function]}
          isDesktop={true}
          isManualDesktop={false}
          isRowActive={true}
          mediaType="desktop"
          special=""
          styles={null}
        >
          <button
            className="torn-btn gold crimeButton"
            disabled={false}
            href="#"
            id={0}
            onClick={[Function]}
            type="button"
          />
        </CrimeRowButton>
      </div>
    </div>
    <div
      className="bottomSection"
    >
      <CSSTransition
        classNames="rowOutcome"
        in={true}
        onExit={[Function]}
        timeout={
          Object {
            "enter": 0,
            "exit": 350,
          }
        }
        unmountOnExit={true}
      >
        <Transition
          appear={false}
          enter={true}
          exit={true}
          in={true}
          mountOnEnter={false}
          onEnter={[Function]}
          onEntered={[Function]}
          onEntering={[Function]}
          onExit={[Function]}
          onExited={[Function]}
          onExiting={[Function]}
          timeout={
            Object {
              "enter": 0,
              "exit": 350,
            }
          }
          unmountOnExit={true}
        >
          <Outcome
            activeButton={[Function]}
            className=""
            closeOutcome={
              Object {
                "callback": [Function],
                "isActive": false,
              }
            }
            counter={0}
            crimeID={0}
            getCurrentOutcome={[Function]}
            getOutcomeHeight={[Function]}
            isCurrentRow={false}
            isRowActive={true}
            isRowNotInProgress={false}
            itemId={0}
            mediaType="desktop"
            outcome={Object {}}
            showOutcome={false}
            state=""
          >
            <TransitionGroup
              childFactory={[Function]}
              className="outcome"
              component="div"
              data-set={false}
            >
              <div
                className="outcome"
                data-set={false}
              />
            </TransitionGroup>
          </Outcome>
        </Transition>
      </CSSTransition>
    </div>
  </div>
</CrimeRow>
`;

exports[`<CrimeRow Global /> should render row with disable button 1`] = `
<CrimeRow
  additionalInfo={Object {}}
  attemptsTotal={0}
  button={
    Object {
      "action": [Function],
      "disabled": true,
      "label": "",
    }
  }
  className=""
  click={[Function]}
  closeOutcome={
    Object {
      "callback": [Function],
      "isActive": false,
    }
  }
  crimeID={0}
  currentRowID={0}
  customImage=""
  dlmForTitle={true}
  genre={null}
  getCurrentOutcome={[Function]}
  iconClass=""
  id={0}
  isButtonDisabled={[Function]}
  isCDSelected={false}
  isCurrentRow={false}
  isManualLayoutSetted={false}
  isRowActive={true}
  isRowNotInProgress={false}
  itemId={0}
  lastSubCrimeID={0}
  mediaType="desktop"
  moneyToCollect={0}
  nerve={0}
  nonBorder={false}
  outcome={Object {}}
  rowShouldUpdate={[Function]}
  showOutcome={false}
  spraySelected=""
  state=""
  styles={null}
  subTitle=""
  title="<span class=\\"t-hide\\">Search the </span> Trash"
  underTitle={false}
>
  <div
    className="crimeRow"
    style={Object {}}
  >
    <div
      className="topSection"
    >
      <div
        className="image"
      >
        <i
          className=""
        />
      </div>
      <div
        className="title dlm"
        dangerouslySetInnerHTML={
          Object {
            "__html": "<span class=\\"t-hide\\">Search the </span> Trash",
          }
        }
      />
      <div
        className="test-mock-children"
      >
        Time to test!
      </div>
      <div
        className="nerve dlm"
      />
      <div
        className="action"
      >
        <CrimeRowButton
          action={[Function]}
          button={
            Object {
              "action": [Function],
              "disabled": true,
              "label": "",
            }
          }
          crimeID={0}
          inProgress={false}
          isButtonDisabled={[Function]}
          isDesktop={true}
          isManualDesktop={false}
          isRowActive={true}
          mediaType="desktop"
          special=""
          styles={null}
        >
          <button
            className="torn-btn gold crimeButton"
            disabled={true}
            href="#"
            id={0}
            onClick={[Function]}
            type="button"
          />
        </CrimeRowButton>
      </div>
    </div>
    <div
      className="bottomSection"
    >
      <CSSTransition
        classNames="rowOutcome"
        in={true}
        onExit={[Function]}
        timeout={
          Object {
            "enter": 0,
            "exit": 350,
          }
        }
        unmountOnExit={true}
      >
        <Transition
          appear={false}
          enter={true}
          exit={true}
          in={true}
          mountOnEnter={false}
          onEnter={[Function]}
          onEntered={[Function]}
          onEntering={[Function]}
          onExit={[Function]}
          onExited={[Function]}
          onExiting={[Function]}
          timeout={
            Object {
              "enter": 0,
              "exit": 350,
            }
          }
          unmountOnExit={true}
        >
          <Outcome
            activeButton={[Function]}
            className=""
            closeOutcome={
              Object {
                "callback": [Function],
                "isActive": false,
              }
            }
            counter={0}
            crimeID={0}
            getCurrentOutcome={[Function]}
            getOutcomeHeight={[Function]}
            isCurrentRow={false}
            isRowActive={true}
            isRowNotInProgress={false}
            itemId={0}
            mediaType="desktop"
            outcome={Object {}}
            showOutcome={false}
            state=""
          >
            <TransitionGroup
              childFactory={[Function]}
              className="outcome"
              component="div"
              data-set={false}
            >
              <div
                className="outcome"
                data-set={false}
              />
            </TransitionGroup>
          </Outcome>
        </Transition>
      </CSSTransition>
    </div>
  </div>
</CrimeRow>
`;

exports[`<CrimeRow Global /> should render row with inProgress === true button 1`] = `
<CrimeRow
  additionalInfo={Object {}}
  attemptsTotal={0}
  button={
    Object {
      "action": [Function],
      "disabled": false,
      "label": "",
    }
  }
  className=""
  click={[Function]}
  closeOutcome={
    Object {
      "callback": [Function],
      "isActive": false,
    }
  }
  crimeID={0}
  currentRowID={0}
  customImage=""
  dlmForTitle={true}
  genre={null}
  getCurrentOutcome={[Function]}
  iconClass=""
  id={0}
  isButtonDisabled={[Function]}
  isCDSelected={false}
  isCurrentRow={false}
  isManualLayoutSetted={false}
  isRowActive={true}
  isRowNotInProgress={false}
  itemId={0}
  lastSubCrimeID={0}
  mediaType="desktop"
  moneyToCollect={0}
  nerve={0}
  nonBorder={false}
  outcome={Object {}}
  rowShouldUpdate={[Function]}
  showOutcome={false}
  spraySelected=""
  state=""
  styles={null}
  subTitle=""
  title="<span class=\\"t-hide\\">Search the </span> Trash"
  underTitle={false}
>
  <div
    className="crimeRow"
    style={Object {}}
  >
    <div
      className="topSection"
    >
      <div
        className="image"
      >
        <i
          className=""
        />
      </div>
      <div
        className="title dlm"
        dangerouslySetInnerHTML={
          Object {
            "__html": "<span class=\\"t-hide\\">Search the </span> Trash",
          }
        }
      />
      <div
        className="test-mock-children"
      >
        Time to test!
      </div>
      <div
        className="nerve dlm"
      />
      <div
        className="action"
      >
        <CrimeRowButton
          action={[Function]}
          button={
            Object {
              "action": [Function],
              "disabled": false,
              "label": "",
            }
          }
          crimeID={0}
          inProgress={true}
          isButtonDisabled={[Function]}
          isDesktop={true}
          isManualDesktop={false}
          isRowActive={true}
          mediaType="desktop"
          special=""
          styles={null}
        >
          <div
            className="pseudoBtnGoldContainer"
          >
            <AnimationLoad
              animationDuaration={null}
              dotsColor="black"
              dotsCount={7}
              isAdaptive={true}
            >
              <div
                className="loader loader_7 adoptiveLoader"
              >
                <div
                  className="loaderPoint loaderPoint_0 black"
                  key="0"
                  style={
                    Object {
                      "animationDuration": null,
                      "animationName": "black",
                    }
                  }
                />
                <div
                  className="loaderPoint loaderPoint_1 black"
                  key="1"
                  style={
                    Object {
                      "animationDuration": null,
                      "animationName": "black",
                    }
                  }
                />
                <div
                  className="loaderPoint loaderPoint_2 black"
                  key="2"
                  style={
                    Object {
                      "animationDuration": null,
                      "animationName": "black",
                    }
                  }
                />
                <div
                  className="loaderPoint loaderPoint_3 black"
                  key="3"
                  style={
                    Object {
                      "animationDuration": null,
                      "animationName": "black",
                    }
                  }
                />
                <div
                  className="loaderPoint loaderPoint_4 black"
                  key="4"
                  style={
                    Object {
                      "animationDuration": null,
                      "animationName": "black",
                    }
                  }
                />
                <div
                  className="loaderPoint loaderPoint_5 black"
                  key="5"
                  style={
                    Object {
                      "animationDuration": null,
                      "animationName": "black",
                    }
                  }
                />
                <div
                  className="loaderPoint loaderPoint_6 black"
                  key="6"
                  style={
                    Object {
                      "animationDuration": null,
                      "animationName": "black",
                    }
                  }
                />
              </div>
            </AnimationLoad>
          </div>
        </CrimeRowButton>
      </div>
    </div>
    <div
      className="bottomSection"
    >
      <CSSTransition
        classNames="rowOutcome"
        in={true}
        onExit={[Function]}
        timeout={
          Object {
            "enter": 0,
            "exit": 350,
          }
        }
        unmountOnExit={true}
      >
        <Transition
          appear={false}
          enter={true}
          exit={true}
          in={true}
          mountOnEnter={false}
          onEnter={[Function]}
          onEntered={[Function]}
          onEntering={[Function]}
          onExit={[Function]}
          onExited={[Function]}
          onExiting={[Function]}
          timeout={
            Object {
              "enter": 0,
              "exit": 350,
            }
          }
          unmountOnExit={true}
        >
          <Outcome
            activeButton={[Function]}
            className=""
            closeOutcome={
              Object {
                "callback": [Function],
                "isActive": false,
              }
            }
            counter={0}
            crimeID={0}
            getCurrentOutcome={[Function]}
            getOutcomeHeight={[Function]}
            isCurrentRow={false}
            isRowActive={true}
            isRowNotInProgress={false}
            itemId={0}
            mediaType="desktop"
            outcome={Object {}}
            showOutcome={false}
            state=""
          >
            <TransitionGroup
              childFactory={[Function]}
              className="outcome"
              component="div"
              data-set={false}
            >
              <div
                className="outcome"
                data-set={false}
              />
            </TransitionGroup>
          </Outcome>
        </Transition>
      </CSSTransition>
    </div>
  </div>
</CrimeRow>
`;

exports[`<CrimeRow Global /> should render row with inProgress === true button 2`] = `
<CrimeRow
  additionalInfo={Object {}}
  attemptsTotal={0}
  button={
    Object {
      "action": [Function],
      "disabled": false,
      "label": "",
    }
  }
  className=""
  click={[Function]}
  closeOutcome={
    Object {
      "callback": [Function],
      "isActive": false,
    }
  }
  crimeID={0}
  currentRowID={0}
  customImage=""
  dlmForTitle={true}
  genre={null}
  getCurrentOutcome={[Function]}
  iconClass=""
  id={0}
  isButtonDisabled={[Function]}
  isCDSelected={false}
  isCurrentRow={false}
  isManualLayoutSetted={false}
  isRowActive={true}
  isRowNotInProgress={false}
  itemId={0}
  lastSubCrimeID={0}
  mediaType="desktop"
  moneyToCollect={0}
  nerve={0}
  nonBorder={false}
  outcome={Object {}}
  rowShouldUpdate={[Function]}
  showOutcome={false}
  spraySelected=""
  state=""
  styles={null}
  subTitle=""
  title="<span class=\\"t-hide\\">Search the </span> Trash"
  underTitle={false}
>
  <div
    className="crimeRow"
    style={Object {}}
  >
    <div
      className="topSection"
    >
      <div
        className="image"
      >
        <i
          className=""
        />
      </div>
      <div
        className="title dlm"
        dangerouslySetInnerHTML={
          Object {
            "__html": "<span class=\\"t-hide\\">Search the </span> Trash",
          }
        }
      />
      <div
        className="test-mock-children"
      >
        Time to test!
      </div>
      <div
        className="nerve dlm"
      />
      <div
        className="action"
      >
        <CrimeRowButton
          action={[Function]}
          button={
            Object {
              "action": [Function],
              "disabled": false,
              "label": "",
            }
          }
          crimeID={0}
          inProgress={true}
          isButtonDisabled={[Function]}
          isDesktop={true}
          isManualDesktop={false}
          isRowActive={true}
          mediaType="desktop"
          special=""
          styles={null}
        >
          <div
            className="pseudoBtnGoldContainer"
          >
            <AnimationLoad
              animationDuaration={null}
              dotsColor="black"
              dotsCount={7}
              isAdaptive={true}
            >
              <div
                className="loader loader_7 adoptiveLoader"
              >
                <div
                  className="loaderPoint loaderPoint_0 black"
                  key="0"
                  style={
                    Object {
                      "animationDuration": null,
                      "animationName": "black",
                    }
                  }
                />
                <div
                  className="loaderPoint loaderPoint_1 black"
                  key="1"
                  style={
                    Object {
                      "animationDuration": null,
                      "animationName": "black",
                    }
                  }
                />
                <div
                  className="loaderPoint loaderPoint_2 black"
                  key="2"
                  style={
                    Object {
                      "animationDuration": null,
                      "animationName": "black",
                    }
                  }
                />
                <div
                  className="loaderPoint loaderPoint_3 black"
                  key="3"
                  style={
                    Object {
                      "animationDuration": null,
                      "animationName": "black",
                    }
                  }
                />
                <div
                  className="loaderPoint loaderPoint_4 black"
                  key="4"
                  style={
                    Object {
                      "animationDuration": null,
                      "animationName": "black",
                    }
                  }
                />
                <div
                  className="loaderPoint loaderPoint_5 black"
                  key="5"
                  style={
                    Object {
                      "animationDuration": null,
                      "animationName": "black",
                    }
                  }
                />
                <div
                  className="loaderPoint loaderPoint_6 black"
                  key="6"
                  style={
                    Object {
                      "animationDuration": null,
                      "animationName": "black",
                    }
                  }
                />
              </div>
            </AnimationLoad>
          </div>
        </CrimeRowButton>
      </div>
    </div>
    <div
      className="bottomSection"
    >
      <CSSTransition
        classNames="rowOutcome"
        in={true}
        onExit={[Function]}
        timeout={
          Object {
            "enter": 0,
            "exit": 350,
          }
        }
        unmountOnExit={true}
      >
        <Transition
          appear={false}
          enter={true}
          exit={true}
          in={true}
          mountOnEnter={false}
          onEnter={[Function]}
          onEntered={[Function]}
          onEntering={[Function]}
          onExit={[Function]}
          onExited={[Function]}
          onExiting={[Function]}
          timeout={
            Object {
              "enter": 0,
              "exit": 350,
            }
          }
          unmountOnExit={true}
        >
          <Outcome
            activeButton={[Function]}
            className=""
            closeOutcome={
              Object {
                "callback": [Function],
                "isActive": false,
              }
            }
            counter={0}
            crimeID={0}
            getCurrentOutcome={[Function]}
            getOutcomeHeight={[Function]}
            isCurrentRow={false}
            isRowActive={true}
            isRowNotInProgress={false}
            itemId={0}
            mediaType="desktop"
            outcome={Object {}}
            showOutcome={false}
            state=""
          >
            <TransitionGroup
              childFactory={[Function]}
              className="outcome"
              component="div"
              data-set={false}
            >
              <div
                className="outcome"
                data-set={false}
              />
            </TransitionGroup>
          </Outcome>
        </Transition>
      </CSSTransition>
    </div>
  </div>
</CrimeRow>
`;

exports[`<CrimeRow Global /> should render row with outcome result 1`] = `
<CrimeRow
  additionalInfo={Object {}}
  attemptsTotal={0}
  button={
    Object {
      "action": [Function],
      "disabled": false,
      "label": "",
    }
  }
  className=""
  click={[Function]}
  closeOutcome={
    Object {
      "callback": [Function],
      "isActive": false,
    }
  }
  crimeID={0}
  currentRowID={0}
  customImage=""
  dlmForTitle={true}
  genre={null}
  getCurrentOutcome={[Function]}
  iconClass=""
  id={0}
  isButtonDisabled={[Function]}
  isCDSelected={false}
  isCurrentRow={false}
  isManualLayoutSetted={false}
  isRowActive={true}
  isRowNotInProgress={false}
  itemId={0}
  lastSubCrimeID={0}
  mediaType="desktop"
  moneyToCollect={0}
  nerve={0}
  nonBorder={false}
  outcome={
    Object {
      "outcomeDesc": "$36!",
      "result": "success",
      "rewardsGive": Object {
        "itemsRewards": null,
        "userRewards": Object {
          "money": 36,
        },
      },
      "story": Array [
        "You search around the Post Office trash can.",
        "You find a handful of greasy dollar bills!",
      ],
    }
  }
  rowShouldUpdate={[Function]}
  showOutcome={true}
  spraySelected=""
  state=""
  styles={null}
  subTitle=""
  title="<span class=\\"t-hide\\">Search the </span> Trash"
  underTitle={false}
>
  <div
    className="crimeRow"
    style={Object {}}
  >
    <div
      className="topSection"
    >
      <div
        className="image"
      >
        <i
          className=""
        />
      </div>
      <div
        className="title dlm"
        dangerouslySetInnerHTML={
          Object {
            "__html": "<span class=\\"t-hide\\">Search the </span> Trash",
          }
        }
      />
      <div
        className="test-mock-children"
      >
        Time to test!
      </div>
      <div
        className="nerve dlm"
      />
      <div
        className="action"
      >
        <CrimeRowButton
          action={[Function]}
          button={
            Object {
              "action": [Function],
              "disabled": false,
              "label": "",
            }
          }
          crimeID={0}
          inProgress={false}
          isButtonDisabled={[Function]}
          isDesktop={true}
          isManualDesktop={false}
          isRowActive={true}
          mediaType="desktop"
          special=""
          styles={null}
        >
          <button
            className="torn-btn gold crimeButton"
            disabled={false}
            href="#"
            id={0}
            onClick={[Function]}
            type="button"
          />
        </CrimeRowButton>
      </div>
    </div>
    <div
      className="bottomSection"
    >
      <CSSTransition
        classNames="rowOutcome"
        in={true}
        onExit={[Function]}
        timeout={
          Object {
            "enter": 0,
            "exit": 350,
          }
        }
        unmountOnExit={true}
      >
        <Transition
          appear={false}
          enter={true}
          exit={true}
          in={true}
          mountOnEnter={false}
          onEnter={[Function]}
          onEntered={[Function]}
          onEntering={[Function]}
          onExit={[Function]}
          onExited={[Function]}
          onExiting={[Function]}
          timeout={
            Object {
              "enter": 0,
              "exit": 350,
            }
          }
          unmountOnExit={true}
        >
          <Outcome
            activeButton={[Function]}
            className=""
            closeOutcome={
              Object {
                "callback": [Function],
                "isActive": false,
              }
            }
            counter={0}
            crimeID={0}
            getCurrentOutcome={[Function]}
            getOutcomeHeight={[Function]}
            isCurrentRow={false}
            isRowActive={true}
            isRowNotInProgress={false}
            itemId={0}
            mediaType="desktop"
            outcome={
              Object {
                "outcomeDesc": "$36!",
                "result": "success",
                "rewardsGive": Object {
                  "itemsRewards": null,
                  "userRewards": Object {
                    "money": 36,
                  },
                },
                "story": Array [
                  "You search around the Post Office trash can.",
                  "You find a handful of greasy dollar bills!",
                ],
              }
            }
            showOutcome={true}
            state=""
          >
            <TransitionGroup
              childFactory={[Function]}
              className="outcome"
              component="div"
              data-set={false}
            >
              <div
                className="outcome"
                data-set={false}
              >
                <CSSTransition
                  classNames="newRowOutcome"
                  in={true}
                  key=".$0"
                  onEntered={[Function]}
                  onEntering={[Function]}
                  onExit={[Function]}
                  onExited={[Function]}
                  timeout={
                    Object {
                      "enter": 500,
                      "exit": 500,
                    }
                  }
                  unmountOnExit={true}
                >
                  <Transition
                    appear={false}
                    enter={true}
                    exit={true}
                    in={true}
                    mountOnEnter={false}
                    onEnter={[Function]}
                    onEntered={[Function]}
                    onEntering={[Function]}
                    onExit={[Function]}
                    onExited={[Function]}
                    onExiting={[Function]}
                    timeout={
                      Object {
                        "enter": 500,
                        "exit": 500,
                      }
                    }
                    unmountOnExit={true}
                  >
                    <div
                      className="outcomeContainer jailed"
                      style={
                        Object {
                          "zIndex": 0,
                        }
                      }
                    >
                      <OutcomeContainer
                        close={
                          Object {
                            "callback": [Function],
                            "isActive": false,
                            "setHeight": [Function],
                          }
                        }
                        mediaType="desktop"
                        outcome={
                          Object {
                            "outcomeDesc": "$36!",
                            "result": "success",
                            "rewardsGive": Object {
                              "itemsRewards": null,
                              "userRewards": Object {
                                "money": 36,
                              },
                            },
                            "story": Array [
                              "You search around the Post Office trash can.",
                              "You find a handful of greasy dollar bills!",
                            ],
                          }
                        }
                        status=""
                      >
                        <div
                          className="outcomeWrap "
                        >
                          <div
                            className="story"
                          >
                            <p
                              dangerouslySetInnerHTML={
                                Object {
                                  "__html": "You search around the Post Office trash can.",
                                }
                              }
                              key="0"
                            />
                            <p
                              dangerouslySetInnerHTML={
                                Object {
                                  "__html": "You find a handful of greasy dollar bills!",
                                }
                              }
                              key="1"
                            />
                          </div>
                          <div
                            className="result"
                          >
                            <span
                              className="mainText"
                            >
                              success
                            </span>
                            <span
                              className="infoText  "
                            >
                              $36!
                            </span>
                            <div
                              className="rewardsWrap"
                            >
                              <div
                                className="moneyRewards"
                              >
                                <span>
                                  Money reward: 
                                  36
                                </span>
                              </div>
                            </div>
                          </div>
                        </div>
                      </OutcomeContainer>
                    </div>
                  </Transition>
                </CSSTransition>
              </div>
            </TransitionGroup>
          </Outcome>
        </Transition>
      </CSSTransition>
    </div>
  </div>
</CrimeRow>
`;

exports[`<CrimeRow Global /> should render row with outcome result 2`] = `
<CrimeRow
  additionalInfo={Object {}}
  attemptsTotal={0}
  button={
    Object {
      "action": [Function],
      "disabled": false,
      "label": "",
    }
  }
  className=""
  click={[Function]}
  closeOutcome={
    Object {
      "callback": [Function],
      "isActive": false,
    }
  }
  crimeID={0}
  currentRowID={0}
  customImage=""
  dlmForTitle={true}
  genre={null}
  getCurrentOutcome={[Function]}
  iconClass=""
  id={0}
  isButtonDisabled={[Function]}
  isCDSelected={false}
  isCurrentRow={false}
  isManualLayoutSetted={false}
  isRowActive={true}
  isRowNotInProgress={false}
  itemId={0}
  lastSubCrimeID={0}
  mediaType="desktop"
  moneyToCollect={0}
  nerve={0}
  nonBorder={false}
  outcome={
    Object {
      "outcomeDesc": "$36!",
      "result": "success",
      "rewardsGive": Object {
        "itemsRewards": null,
        "userRewards": Object {
          "money": 36,
        },
      },
      "story": Array [
        "You search around the Post Office trash can.",
        "You find a handful of greasy dollar bills!",
      ],
    }
  }
  rowShouldUpdate={[Function]}
  showOutcome={true}
  spraySelected=""
  state=""
  styles={null}
  subTitle=""
  title="<span class=\\"t-hide\\">Search the </span> Trash"
  underTitle={false}
>
  <div
    className="crimeRow"
    style={Object {}}
  >
    <div
      className="topSection"
    >
      <div
        className="image"
      >
        <i
          className=""
        />
      </div>
      <div
        className="title dlm"
        dangerouslySetInnerHTML={
          Object {
            "__html": "<span class=\\"t-hide\\">Search the </span> Trash",
          }
        }
      />
      <div
        className="test-mock-children"
      >
        Time to test!
      </div>
      <div
        className="nerve dlm"
      />
      <div
        className="action"
      >
        <CrimeRowButton
          action={[Function]}
          button={
            Object {
              "action": [Function],
              "disabled": false,
              "label": "",
            }
          }
          crimeID={0}
          inProgress={false}
          isButtonDisabled={[Function]}
          isDesktop={true}
          isManualDesktop={false}
          isRowActive={true}
          mediaType="desktop"
          special=""
          styles={null}
        >
          <button
            className="torn-btn gold crimeButton"
            disabled={false}
            href="#"
            id={0}
            onClick={[Function]}
            type="button"
          />
        </CrimeRowButton>
      </div>
    </div>
    <div
      className="bottomSection"
    >
      <CSSTransition
        classNames="rowOutcome"
        in={true}
        onExit={[Function]}
        timeout={
          Object {
            "enter": 0,
            "exit": 350,
          }
        }
        unmountOnExit={true}
      >
        <Transition
          appear={false}
          enter={true}
          exit={true}
          in={true}
          mountOnEnter={false}
          onEnter={[Function]}
          onEntered={[Function]}
          onEntering={[Function]}
          onExit={[Function]}
          onExited={[Function]}
          onExiting={[Function]}
          timeout={
            Object {
              "enter": 0,
              "exit": 350,
            }
          }
          unmountOnExit={true}
        >
          <Outcome
            activeButton={[Function]}
            className=""
            closeOutcome={
              Object {
                "callback": [Function],
                "isActive": false,
              }
            }
            counter={0}
            crimeID={0}
            getCurrentOutcome={[Function]}
            getOutcomeHeight={[Function]}
            isCurrentRow={false}
            isRowActive={true}
            isRowNotInProgress={false}
            itemId={0}
            mediaType="desktop"
            outcome={
              Object {
                "outcomeDesc": "$36!",
                "result": "success",
                "rewardsGive": Object {
                  "itemsRewards": null,
                  "userRewards": Object {
                    "money": 36,
                  },
                },
                "story": Array [
                  "You search around the Post Office trash can.",
                  "You find a handful of greasy dollar bills!",
                ],
              }
            }
            showOutcome={true}
            state=""
          >
            <TransitionGroup
              childFactory={[Function]}
              className="outcome"
              component="div"
              data-set={false}
            >
              <div
                className="outcome"
                data-set={false}
              >
                <CSSTransition
                  classNames="newRowOutcome"
                  in={true}
                  key=".$0"
                  onEntered={[Function]}
                  onEntering={[Function]}
                  onExit={[Function]}
                  onExited={[Function]}
                  timeout={
                    Object {
                      "enter": 500,
                      "exit": 500,
                    }
                  }
                  unmountOnExit={true}
                >
                  <Transition
                    appear={false}
                    enter={true}
                    exit={true}
                    in={true}
                    mountOnEnter={false}
                    onEnter={[Function]}
                    onEntered={[Function]}
                    onEntering={[Function]}
                    onExit={[Function]}
                    onExited={[Function]}
                    onExiting={[Function]}
                    timeout={
                      Object {
                        "enter": 500,
                        "exit": 500,
                      }
                    }
                    unmountOnExit={true}
                  >
                    <div
                      className="outcomeContainer jailed"
                      style={
                        Object {
                          "zIndex": 0,
                        }
                      }
                    >
                      <OutcomeContainer
                        close={
                          Object {
                            "callback": [Function],
                            "isActive": false,
                            "setHeight": [Function],
                          }
                        }
                        mediaType="desktop"
                        outcome={
                          Object {
                            "outcomeDesc": "$36!",
                            "result": "success",
                            "rewardsGive": Object {
                              "itemsRewards": null,
                              "userRewards": Object {
                                "money": 36,
                              },
                            },
                            "story": Array [
                              "You search around the Post Office trash can.",
                              "You find a handful of greasy dollar bills!",
                            ],
                          }
                        }
                        status=""
                      >
                        <div
                          className="outcomeWrap "
                        >
                          <div
                            className="story"
                          >
                            <p
                              dangerouslySetInnerHTML={
                                Object {
                                  "__html": "You search around the Post Office trash can.",
                                }
                              }
                              key="0"
                            />
                            <p
                              dangerouslySetInnerHTML={
                                Object {
                                  "__html": "You find a handful of greasy dollar bills!",
                                }
                              }
                              key="1"
                            />
                          </div>
                          <div
                            className="result"
                          >
                            <span
                              className="mainText"
                            >
                              success
                            </span>
                            <span
                              className="infoText  "
                            >
                              $36!
                            </span>
                            <div
                              className="rewardsWrap"
                            >
                              <div
                                className="moneyRewards"
                              >
                                <span>
                                  Money reward: 
                                  36
                                </span>
                              </div>
                            </div>
                          </div>
                        </div>
                      </OutcomeContainer>
                    </div>
                  </Transition>
                </CSSTransition>
              </div>
            </TransitionGroup>
          </Outcome>
        </Transition>
      </CSSTransition>
    </div>
  </div>
</CrimeRow>
`;
