// Jest Snapshot v1, https://goo.gl/fbAQLP

exports[`<DropDownPanel /> should render DropDown component with activated DropDown 1`] = `
<DropDownPanel
  arrowToShow={[Function]}
  dropDownPanelToHide={[Function]}
  expanded={true}
  mediaType="desktop"
  panelItems={Array []}
  toggleArrowsToShow={[Function]}
  toggleDropDownToShow={[Function]}
>
  <div
    aria-label="Panel Log DropDown Handler"
    className="panelWrap"
    onMouseDown={[Function]}
    onMouseUp={[Function]}
    role="button"
    tabIndex={0}
  >
    <div
      className="panelWrapInner"
    >
      <CSSTransition
        classNames="dropDown"
        in={true}
        timeout={
          Object {
            "enter": 350,
            "exit": 350,
          }
        }
      >
        <Transition
          appear={false}
          enter={true}
          exit={true}
          in={true}
          mountOnEnter={false}
          onEnter={[Function]}
          onEntered={[Function]}
          onEntering={[Function]}
          onExit={[Function]}
          onExited={[Function]}
          onExiting={[Function]}
          timeout={
            Object {
              "enter": 350,
              "exit": 350,
            }
          }
          unmountOnExit={false}
        >
          <div
            className="supportAnimWrap"
          >
            <div
              className="panelContent open"
            >
              <div>
                TEST
              </div>
            </div>
            <div
              className="arrow"
            />
          </div>
        </Transition>
      </CSSTransition>
    </div>
  </div>
</DropDownPanel>
`;

exports[`<DropDownPanel /> should render DropDown component with deactivated DropDown 1`] = `
<DropDownPanel
  arrowToShow={[Function]}
  dropDownPanelToHide={[Function]}
  expanded={false}
  mediaType="desktop"
  panelItems={Array []}
  toggleArrowsToShow={[Function]}
  toggleDropDownToShow={[Function]}
>
  <div
    aria-label="Panel Log DropDown Handler"
    className="panelWrap"
    onMouseDown={[Function]}
    onMouseUp={[Function]}
    role="button"
    tabIndex={0}
  >
    <div
      className="panelWrapInner"
    >
      <CSSTransition
        classNames="dropDown"
        in={false}
        timeout={
          Object {
            "enter": 350,
            "exit": 350,
          }
        }
      >
        <Transition
          appear={false}
          enter={true}
          exit={true}
          in={false}
          mountOnEnter={false}
          onEnter={[Function]}
          onEntered={[Function]}
          onEntering={[Function]}
          onExit={[Function]}
          onExited={[Function]}
          onExiting={[Function]}
          timeout={
            Object {
              "enter": 350,
              "exit": 350,
            }
          }
          unmountOnExit={false}
        >
          <div
            className="supportAnimWrap"
          >
            <div
              className="panelContent closed"
            >
              <div>
                TEST
              </div>
            </div>
            <div
              className="arrow"
            />
          </div>
        </Transition>
      </CSSTransition>
    </div>
  </div>
</DropDownPanel>
`;
