// Jest Snapshot v1, https://goo.gl/fbAQLP

exports[`<Manage /> should render 1`] = `
<form
  onSubmit={[Function]}
>
  <Panel
    className="items"
  >
    <PanelHeader>
      Manage your Bazaar
    </PanelHeader>
    <div
      aria-label="Confirmation section"
      aria-level={5}
      className="confirmation"
      role="heading"
    >
      <TornBtn
        className=""
        color="silver"
        disabled={true}
      >
        SAVE CHANGES
      </TornBtn>
      <button
        className="undo"
        onClick={[Function]}
        type="button"
      >
        Undo changes
      </button>
    </div>
    <ul
      className="cellsHeader"
      role="row"
    >
      <li
        aria-level={5}
        className="name"
        role="heading"
      >
        Name
      </li>
      <li
        className="details"
      >
        Details
      </li>
      <li
        className="rrp"
      >
        RRP
      </li>
      <li
        className="remove"
      >
        Remove
      </li>
      <li
        className="price"
      >
        Price (PU)
      </li>
    </ul>
    <sortableList
      axis="y"
      distance={0}
      getHelperDimensions={[Function]}
      hideSortableGhost={true}
      lockOffset="50%"
      lockToContainerEdges={false}
      onSortEnd={[Function]}
      pressDelay={0}
      pressThreshold={5}
      shouldCancelStart={[Function]}
      transitionDuration={300}
      useDragHandle={true}
      useWindowAsScrollContainer={true}
    >
      <WindowScroller
        onResize={[Function]}
        onScroll={[Function]}
        scrollElement={[Window]}
        scrollingResetTimeInterval={500}
        serverHeight={0}
        serverWidth={0}
      >
        <Component />
      </WindowScroller>
    </sortableList>
  </Panel>
</form>
`;

exports[`<Manage /> should render on mobile 1`] = `
<form
  onSubmit={[Function]}
>
  <Panel
    className="items"
  >
    <PanelHeader>
      Manage your Bazaar
    </PanelHeader>
    <div
      aria-label="Confirmation section"
      aria-level={5}
      className="confirmation"
      role="heading"
    >
      <TornBtn
        className=""
        color="silver"
        disabled={true}
      >
        SAVE CHANGES
      </TornBtn>
      <button
        className="undo"
        onClick={[Function]}
        type="button"
      >
        Undo changes
      </button>
    </div>
    <ul
      className="cellsHeader"
      role="row"
    >
      <li
        aria-level={5}
        className="manage"
        role="heading"
      >
        Manage items
      </li>
    </ul>
    <sortableList
      axis="y"
      distance={0}
      getHelperDimensions={[Function]}
      hideSortableGhost={true}
      lockOffset="50%"
      lockToContainerEdges={false}
      onSortEnd={[Function]}
      pressDelay={0}
      pressThreshold={5}
      shouldCancelStart={[Function]}
      transitionDuration={300}
      useDragHandle={true}
      useWindowAsScrollContainer={true}
    >
      <WindowScroller
        onResize={[Function]}
        onScroll={[Function]}
        scrollElement={[Window]}
        scrollingResetTimeInterval={500}
        serverHeight={0}
        serverWidth={0}
      >
        <Component />
      </WindowScroller>
    </sortableList>
  </Panel>
</form>
`;

exports[`<Manage /> should render when bazaar doesn't exists 1`] = `""`;

exports[`<Manage /> should render when is loading more 1`] = `
<form
  onSubmit={[Function]}
>
  <Panel
    className="items"
  >
    <PanelHeader>
      Manage your Bazaar
    </PanelHeader>
    <div
      aria-label="Confirmation section"
      aria-level={5}
      className="confirmation"
      role="heading"
    >
      <TornBtn
        className=""
        color="silver"
        disabled={true}
      >
        SAVE CHANGES
      </TornBtn>
      <button
        className="undo"
        onClick={[Function]}
        type="button"
      >
        Undo changes
      </button>
    </div>
    <ul
      className="cellsHeader"
      role="row"
    >
      <li
        aria-level={5}
        className="name"
        role="heading"
      >
        Name
      </li>
      <li
        className="details"
      >
        Details
      </li>
      <li
        className="rrp"
      >
        RRP
      </li>
      <li
        className="remove"
      >
        Remove
      </li>
      <li
        className="price"
      >
        Price (PU)
      </li>
    </ul>
    <sortableList
      axis="y"
      distance={0}
      getHelperDimensions={[Function]}
      hideSortableGhost={true}
      lockOffset="50%"
      lockToContainerEdges={false}
      onSortEnd={[Function]}
      pressDelay={0}
      pressThreshold={5}
      shouldCancelStart={[Function]}
      transitionDuration={300}
      useDragHandle={true}
      useWindowAsScrollContainer={true}
    >
      <WindowScroller
        onResize={[Function]}
        onScroll={[Function]}
        scrollElement={[Window]}
        scrollingResetTimeInterval={500}
        serverHeight={0}
        serverWidth={0}
      >
        <Component />
      </WindowScroller>
    </sortableList>
    <LoadingIndicator />
  </Panel>
</form>
`;

exports[`<Manage /> should render when user isn't available 1`] = `""`;
