// Jest Snapshot v1, https://goo.gl/fbAQLP

exports[`<Manage /> methods should _activateItemView method activate view 1`] = `
[MockFunction] {
  "calls": Array [
    Array [
      "388-4384562992",
    ],
  ],
  "results": Array [
    Object {
      "type": "return",
      "value": undefined,
    },
  ],
}
`;

exports[`<Manage /> methods should _activateItemView method activate view 2`] = `
[MockFunction] {
  "calls": Array [
    Array [],
  ],
  "results": Array [
    Object {
      "type": "return",
      "value": undefined,
    },
  ],
}
`;

exports[`<Manage /> methods should _activateItemView method activate view 3`] = `
<form
  onSubmit={[Function]}
>
  <Panel
    className="items"
  >
    <PanelHeader>
      Manage your Bazaar
    </PanelHeader>
    <div
      aria-label="Confirmation section"
      aria-level={5}
      className="confirmation"
      role="heading"
    >
      <TornBtn
        className=""
        color="silver"
        disabled={true}
      >
        SAVE CHANGES
      </TornBtn>
      <button
        className="undo"
        onClick={[Function]}
        type="button"
      >
        Undo changes
      </button>
    </div>
    <ul
      className="cellsHeader"
      role="row"
    >
      <li
        aria-level={5}
        className="name"
        role="heading"
      >
        Name
      </li>
      <li
        className="details"
      >
        Details
      </li>
      <li
        className="rrp"
      >
        RRP
      </li>
      <li
        className="remove"
      >
        Remove
      </li>
      <li
        className="price"
      >
        Price (PU)
      </li>
    </ul>
    <sortableList
      axis="y"
      distance={0}
      getHelperDimensions={[Function]}
      hideSortableGhost={true}
      lockOffset="50%"
      lockToContainerEdges={false}
      onSortEnd={[Function]}
      pressDelay={0}
      pressThreshold={5}
      shouldCancelStart={[Function]}
      transitionDuration={300}
      useDragHandle={true}
      useWindowAsScrollContainer={true}
    >
      <WindowScroller
        onResize={[Function]}
        onScroll={[Function]}
        scrollElement={[Window]}
        scrollingResetTimeInterval={500}
        serverHeight={0}
        serverWidth={0}
      >
        <Component />
      </WindowScroller>
    </sortableList>
  </Panel>
</form>
`;

exports[`<Manage /> methods should _activateItemView method deactivate view 1`] = `
[MockFunction] {
  "calls": Array [
    Array [
      null,
    ],
  ],
  "results": Array [
    Object {
      "type": "return",
      "value": undefined,
    },
  ],
}
`;

exports[`<Manage /> methods should _activateItemView method deactivate view 2`] = `
[MockFunction] {
  "calls": Array [
    Array [],
  ],
  "results": Array [
    Object {
      "type": "return",
      "value": undefined,
    },
  ],
}
`;

exports[`<Manage /> methods should _activateItemView method deactivate view 3`] = `
<form
  onSubmit={[Function]}
>
  <Panel
    className="items"
  >
    <PanelHeader>
      Manage your Bazaar
    </PanelHeader>
    <div
      aria-label="Confirmation section"
      aria-level={5}
      className="confirmation"
      role="heading"
    >
      <TornBtn
        className=""
        color="silver"
        disabled={true}
      >
        SAVE CHANGES
      </TornBtn>
      <button
        className="undo"
        onClick={[Function]}
        type="button"
      >
        Undo changes
      </button>
    </div>
    <ul
      className="cellsHeader"
      role="row"
    >
      <li
        aria-level={5}
        className="name"
        role="heading"
      >
        Name
      </li>
      <li
        className="details"
      >
        Details
      </li>
      <li
        className="rrp"
      >
        RRP
      </li>
      <li
        className="remove"
      >
        Remove
      </li>
      <li
        className="price"
      >
        Price (PU)
      </li>
    </ul>
    <sortableList
      axis="y"
      distance={0}
      getHelperDimensions={[Function]}
      hideSortableGhost={true}
      lockOffset="50%"
      lockToContainerEdges={false}
      onSortEnd={[Function]}
      pressDelay={0}
      pressThreshold={5}
      shouldCancelStart={[Function]}
      transitionDuration={300}
      useDragHandle={true}
      useWindowAsScrollContainer={true}
    >
      <WindowScroller
        onResize={[Function]}
        onScroll={[Function]}
        scrollElement={[Window]}
        scrollingResetTimeInterval={500}
        serverHeight={0}
        serverWidth={0}
      >
        <Component />
      </WindowScroller>
    </sortableList>
  </Panel>
</form>
`;

exports[`<Manage /> methods should _bindListBugFixer method works 1`] = `[MockFunction]`;

exports[`<Manage /> methods should _bindListBugFixer method works 2`] = `
<form
  onSubmit={[Function]}
>
  <Panel
    className="items"
  >
    <PanelHeader>
      Manage your Bazaar
    </PanelHeader>
    <div
      aria-label="Confirmation section"
      aria-level={5}
      className="confirmation"
      role="heading"
    >
      <TornBtn
        className=""
        color="silver"
        disabled={true}
      >
        SAVE CHANGES
      </TornBtn>
      <button
        className="undo"
        onClick={[Function]}
        type="button"
      >
        Undo changes
      </button>
    </div>
    <ul
      className="cellsHeader"
      role="row"
    >
      <li
        aria-level={5}
        className="name"
        role="heading"
      >
        Name
      </li>
      <li
        className="details"
      >
        Details
      </li>
      <li
        className="rrp"
      >
        RRP
      </li>
      <li
        className="remove"
      >
        Remove
      </li>
      <li
        className="price"
      >
        Price (PU)
      </li>
    </ul>
    <sortableList
      axis="y"
      distance={0}
      getHelperDimensions={[Function]}
      hideSortableGhost={true}
      lockOffset="50%"
      lockToContainerEdges={false}
      onSortEnd={[Function]}
      pressDelay={0}
      pressThreshold={5}
      shouldCancelStart={[Function]}
      transitionDuration={300}
      useDragHandle={true}
      useWindowAsScrollContainer={true}
    >
      <WindowScroller
        onResize={[Function]}
        onScroll={[Function]}
        scrollElement={[Window]}
        scrollingResetTimeInterval={500}
        serverHeight={0}
        serverWidth={0}
      >
        <Component />
      </WindowScroller>
    </sortableList>
  </Panel>
</form>
`;

exports[`<Manage /> methods should _deactivateItemView method works correctly 1`] = `
[MockFunction] {
  "calls": Array [
    Array [
      null,
    ],
  ],
  "results": Array [
    Object {
      "type": "return",
      "value": undefined,
    },
  ],
}
`;

exports[`<Manage /> methods should _deactivateItemView method works correctly 2`] = `
[MockFunction] {
  "calls": Array [
    Array [],
  ],
  "results": Array [
    Object {
      "type": "return",
      "value": undefined,
    },
  ],
}
`;

exports[`<Manage /> methods should _deactivateItemView method works correctly 3`] = `
<form
  onSubmit={[Function]}
>
  <Panel
    className="items"
  >
    <PanelHeader>
      Manage your Bazaar
    </PanelHeader>
    <div
      aria-label="Confirmation section"
      aria-level={5}
      className="confirmation"
      role="heading"
    >
      <TornBtn
        className=""
        color="silver"
        disabled={true}
      >
        SAVE CHANGES
      </TornBtn>
      <button
        className="undo"
        onClick={[Function]}
        type="button"
      >
        Undo changes
      </button>
    </div>
    <ul
      className="cellsHeader"
      role="row"
    >
      <li
        aria-level={5}
        className="name"
        role="heading"
      >
        Name
      </li>
      <li
        className="details"
      >
        Details
      </li>
      <li
        className="rrp"
      >
        RRP
      </li>
      <li
        className="remove"
      >
        Remove
      </li>
      <li
        className="price"
      >
        Price (PU)
      </li>
    </ul>
    <sortableList
      axis="y"
      distance={0}
      getHelperDimensions={[Function]}
      hideSortableGhost={true}
      lockOffset="50%"
      lockToContainerEdges={false}
      onSortEnd={[Function]}
      pressDelay={0}
      pressThreshold={5}
      shouldCancelStart={[Function]}
      transitionDuration={300}
      useDragHandle={true}
      useWindowAsScrollContainer={true}
    >
      <WindowScroller
        onResize={[Function]}
        onScroll={[Function]}
        scrollElement={[Window]}
        scrollingResetTimeInterval={500}
        serverHeight={0}
        serverWidth={0}
      >
        <Component />
      </WindowScroller>
    </sortableList>
  </Panel>
</form>
`;

exports[`<Manage /> methods should _forceUpdateGrid method works 1`] = `
[MockFunction] {
  "calls": Array [
    Array [],
  ],
  "results": Array [
    Object {
      "type": "return",
      "value": undefined,
    },
  ],
}
`;

exports[`<Manage /> methods should _forceUpdateGrid method works 2`] = `
<form
  onSubmit={[Function]}
>
  <Panel
    className="items"
  >
    <PanelHeader>
      Manage your Bazaar
    </PanelHeader>
    <div
      aria-label="Confirmation section"
      aria-level={5}
      className="confirmation"
      role="heading"
    >
      <TornBtn
        className=""
        color="silver"
        disabled={true}
      >
        SAVE CHANGES
      </TornBtn>
      <button
        className="undo"
        onClick={[Function]}
        type="button"
      >
        Undo changes
      </button>
    </div>
    <ul
      className="cellsHeader"
      role="row"
    >
      <li
        aria-level={5}
        className="name"
        role="heading"
      >
        Name
      </li>
      <li
        className="details"
      >
        Details
      </li>
      <li
        className="rrp"
      >
        RRP
      </li>
      <li
        className="remove"
      >
        Remove
      </li>
      <li
        className="price"
      >
        Price (PU)
      </li>
    </ul>
    <sortableList
      axis="y"
      distance={0}
      getHelperDimensions={[Function]}
      hideSortableGhost={true}
      lockOffset="50%"
      lockToContainerEdges={false}
      onSortEnd={[Function]}
      pressDelay={0}
      pressThreshold={5}
      shouldCancelStart={[Function]}
      transitionDuration={300}
      useDragHandle={true}
      useWindowAsScrollContainer={true}
    >
      <WindowScroller
        onResize={[Function]}
        onScroll={[Function]}
        scrollElement={[Window]}
        scrollingResetTimeInterval={500}
        serverHeight={0}
        serverWidth={0}
      >
        <Component />
      </WindowScroller>
    </sortableList>
  </Panel>
</form>
`;

exports[`<Manage /> methods should _getRowData method works correctly 1`] = `
<form
  onSubmit={[Function]}
>
  <Panel
    className="items"
  >
    <PanelHeader>
      Manage your Bazaar
    </PanelHeader>
    <div
      aria-label="Confirmation section"
      aria-level={5}
      className="confirmation"
      role="heading"
    >
      <TornBtn
        className=""
        color="silver"
        disabled={true}
      >
        SAVE CHANGES
      </TornBtn>
      <button
        className="undo"
        onClick={[Function]}
        type="button"
      >
        Undo changes
      </button>
    </div>
    <ul
      className="cellsHeader"
      role="row"
    >
      <li
        aria-level={5}
        className="name"
        role="heading"
      >
        Name
      </li>
      <li
        className="details"
      >
        Details
      </li>
      <li
        className="rrp"
      >
        RRP
      </li>
      <li
        className="remove"
      >
        Remove
      </li>
      <li
        className="price"
      >
        Price (PU)
      </li>
    </ul>
    <sortableList
      axis="y"
      distance={0}
      getHelperDimensions={[Function]}
      hideSortableGhost={true}
      lockOffset="50%"
      lockToContainerEdges={false}
      onSortEnd={[Function]}
      pressDelay={0}
      pressThreshold={5}
      shouldCancelStart={[Function]}
      transitionDuration={300}
      useDragHandle={true}
      useWindowAsScrollContainer={true}
    >
      <WindowScroller
        onResize={[Function]}
        onScroll={[Function]}
        scrollElement={[Window]}
        scrollingResetTimeInterval={500}
        serverHeight={0}
        serverWidth={0}
      >
        <Component />
      </WindowScroller>
    </sortableList>
  </Panel>
</form>
`;

exports[`<Manage /> methods should _getRowHeight method return default height 1`] = `
<form
  onSubmit={[Function]}
>
  <Panel
    className="items"
  >
    <PanelHeader>
      Manage your Bazaar
    </PanelHeader>
    <div
      aria-label="Confirmation section"
      aria-level={5}
      className="confirmation"
      role="heading"
    >
      <TornBtn
        className=""
        color="silver"
        disabled={true}
      >
        SAVE CHANGES
      </TornBtn>
      <button
        className="undo"
        onClick={[Function]}
        type="button"
      >
        Undo changes
      </button>
    </div>
    <ul
      className="cellsHeader"
      role="row"
    >
      <li
        aria-level={5}
        className="name"
        role="heading"
      >
        Name
      </li>
      <li
        className="details"
      >
        Details
      </li>
      <li
        className="rrp"
      >
        RRP
      </li>
      <li
        className="remove"
      >
        Remove
      </li>
      <li
        className="price"
      >
        Price (PU)
      </li>
    </ul>
    <sortableList
      axis="y"
      distance={0}
      getHelperDimensions={[Function]}
      hideSortableGhost={true}
      lockOffset="50%"
      lockToContainerEdges={false}
      onSortEnd={[Function]}
      pressDelay={0}
      pressThreshold={5}
      shouldCancelStart={[Function]}
      transitionDuration={300}
      useDragHandle={true}
      useWindowAsScrollContainer={true}
    >
      <WindowScroller
        onResize={[Function]}
        onScroll={[Function]}
        scrollElement={[Window]}
        scrollingResetTimeInterval={500}
        serverHeight={0}
        serverWidth={0}
      >
        <Component />
      </WindowScroller>
    </sortableList>
  </Panel>
</form>
`;

exports[`<Manage /> methods should _getRowHeight method return with mobile menu height on desktop 1`] = `
<form
  onSubmit={[Function]}
>
  <Panel
    className="items"
  >
    <PanelHeader>
      Manage your Bazaar
    </PanelHeader>
    <div
      aria-label="Confirmation section"
      aria-level={5}
      className="confirmation"
      role="heading"
    >
      <TornBtn
        className=""
        color="silver"
        disabled={true}
      >
        SAVE CHANGES
      </TornBtn>
      <button
        className="undo"
        onClick={[Function]}
        type="button"
      >
        Undo changes
      </button>
    </div>
    <ul
      className="cellsHeader"
      role="row"
    >
      <li
        aria-level={5}
        className="name"
        role="heading"
      >
        Name
      </li>
      <li
        className="details"
      >
        Details
      </li>
      <li
        className="rrp"
      >
        RRP
      </li>
      <li
        className="remove"
      >
        Remove
      </li>
      <li
        className="price"
      >
        Price (PU)
      </li>
    </ul>
    <sortableList
      axis="y"
      distance={0}
      getHelperDimensions={[Function]}
      hideSortableGhost={true}
      lockOffset="50%"
      lockToContainerEdges={false}
      onSortEnd={[Function]}
      pressDelay={0}
      pressThreshold={5}
      shouldCancelStart={[Function]}
      transitionDuration={300}
      useDragHandle={true}
      useWindowAsScrollContainer={true}
    >
      <WindowScroller
        onResize={[Function]}
        onScroll={[Function]}
        scrollElement={[Window]}
        scrollingResetTimeInterval={500}
        serverHeight={0}
        serverWidth={0}
      >
        <Component />
      </WindowScroller>
    </sortableList>
  </Panel>
</form>
`;

exports[`<Manage /> methods should _getRowHeight method return with mobile menu height on mobile 1`] = `
<form
  onSubmit={[Function]}
>
  <Panel
    className="items"
  >
    <PanelHeader>
      Manage your Bazaar
    </PanelHeader>
    <div
      aria-label="Confirmation section"
      aria-level={5}
      className="confirmation"
      role="heading"
    >
      <TornBtn
        className=""
        color="silver"
        disabled={true}
      >
        SAVE CHANGES
      </TornBtn>
      <button
        className="undo"
        onClick={[Function]}
        type="button"
      >
        Undo changes
      </button>
    </div>
    <ul
      className="cellsHeader"
      role="row"
    >
      <li
        aria-level={5}
        className="manage"
        role="heading"
      >
        Manage items
      </li>
    </ul>
    <sortableList
      axis="y"
      distance={0}
      getHelperDimensions={[Function]}
      hideSortableGhost={true}
      lockOffset="50%"
      lockToContainerEdges={false}
      onSortEnd={[Function]}
      pressDelay={0}
      pressThreshold={5}
      shouldCancelStart={[Function]}
      transitionDuration={300}
      useDragHandle={true}
      useWindowAsScrollContainer={true}
    >
      <WindowScroller
        onResize={[Function]}
        onScroll={[Function]}
        scrollElement={[Window]}
        scrollingResetTimeInterval={500}
        serverHeight={0}
        serverWidth={0}
      >
        <Component />
      </WindowScroller>
    </sortableList>
  </Panel>
</form>
`;

exports[`<Manage /> methods should _getRowHeight method return with view height 1`] = `
<form
  onSubmit={[Function]}
>
  <Panel
    className="items"
  >
    <PanelHeader>
      Manage your Bazaar
    </PanelHeader>
    <div
      aria-label="Confirmation section"
      aria-level={5}
      className="confirmation"
      role="heading"
    >
      <TornBtn
        className=""
        color="silver"
        disabled={true}
      >
        SAVE CHANGES
      </TornBtn>
      <button
        className="undo"
        onClick={[Function]}
        type="button"
      >
        Undo changes
      </button>
    </div>
    <ul
      className="cellsHeader"
      role="row"
    >
      <li
        aria-level={5}
        className="name"
        role="heading"
      >
        Name
      </li>
      <li
        className="details"
      >
        Details
      </li>
      <li
        className="rrp"
      >
        RRP
      </li>
      <li
        className="remove"
      >
        Remove
      </li>
      <li
        className="price"
      >
        Price (PU)
      </li>
    </ul>
    <sortableList
      axis="y"
      distance={0}
      getHelperDimensions={[Function]}
      hideSortableGhost={true}
      lockOffset="50%"
      lockToContainerEdges={false}
      onSortEnd={[Function]}
      pressDelay={0}
      pressThreshold={5}
      shouldCancelStart={[Function]}
      transitionDuration={300}
      useDragHandle={true}
      useWindowAsScrollContainer={true}
    >
      <WindowScroller
        onResize={[Function]}
        onScroll={[Function]}
        scrollElement={[Window]}
        scrollingResetTimeInterval={500}
        serverHeight={0}
        serverWidth={0}
      >
        <Component />
      </WindowScroller>
    </sortableList>
  </Panel>
</form>
`;

exports[`<Manage /> methods should _getRowHeight method return without view height 1`] = `
<form
  onSubmit={[Function]}
>
  <Panel
    className="items"
  >
    <PanelHeader>
      Manage your Bazaar
    </PanelHeader>
    <div
      aria-label="Confirmation section"
      aria-level={5}
      className="confirmation"
      role="heading"
    >
      <TornBtn
        className=""
        color="silver"
        disabled={true}
      >
        SAVE CHANGES
      </TornBtn>
      <button
        className="undo"
        onClick={[Function]}
        type="button"
      >
        Undo changes
      </button>
    </div>
    <ul
      className="cellsHeader"
      role="row"
    >
      <li
        aria-level={5}
        className="name"
        role="heading"
      >
        Name
      </li>
      <li
        className="details"
      >
        Details
      </li>
      <li
        className="rrp"
      >
        RRP
      </li>
      <li
        className="remove"
      >
        Remove
      </li>
      <li
        className="price"
      >
        Price (PU)
      </li>
    </ul>
    <sortableList
      axis="y"
      distance={0}
      getHelperDimensions={[Function]}
      hideSortableGhost={true}
      lockOffset="50%"
      lockToContainerEdges={false}
      onSortEnd={[Function]}
      pressDelay={0}
      pressThreshold={5}
      shouldCancelStart={[Function]}
      transitionDuration={300}
      useDragHandle={true}
      useWindowAsScrollContainer={true}
    >
      <WindowScroller
        onResize={[Function]}
        onScroll={[Function]}
        scrollElement={[Window]}
        scrollingResetTimeInterval={500}
        serverHeight={0}
        serverWidth={0}
      >
        <Component />
      </WindowScroller>
    </sortableList>
  </Panel>
</form>
`;

exports[`<Manage /> methods should _isRowLoaded method works correctly 1`] = `
<form
  onSubmit={[Function]}
>
  <Panel
    className="items"
  >
    <PanelHeader>
      Manage your Bazaar
    </PanelHeader>
    <div
      aria-label="Confirmation section"
      aria-level={5}
      className="confirmation"
      role="heading"
    >
      <TornBtn
        className=""
        color="silver"
        disabled={true}
      >
        SAVE CHANGES
      </TornBtn>
      <button
        className="undo"
        onClick={[Function]}
        type="button"
      >
        Undo changes
      </button>
    </div>
    <ul
      className="cellsHeader"
      role="row"
    >
      <li
        aria-level={5}
        className="name"
        role="heading"
      >
        Name
      </li>
      <li
        className="details"
      >
        Details
      </li>
      <li
        className="rrp"
      >
        RRP
      </li>
      <li
        className="remove"
      >
        Remove
      </li>
      <li
        className="price"
      >
        Price (PU)
      </li>
    </ul>
    <sortableList
      axis="y"
      distance={0}
      getHelperDimensions={[Function]}
      hideSortableGhost={true}
      lockOffset="50%"
      lockToContainerEdges={false}
      onSortEnd={[Function]}
      pressDelay={0}
      pressThreshold={5}
      shouldCancelStart={[Function]}
      transitionDuration={300}
      useDragHandle={true}
      useWindowAsScrollContainer={true}
    >
      <WindowScroller
        onResize={[Function]}
        onScroll={[Function]}
        scrollElement={[Window]}
        scrollingResetTimeInterval={500}
        serverHeight={0}
        serverWidth={0}
      >
        <Component />
      </WindowScroller>
    </sortableList>
  </Panel>
</form>
`;

exports[`<Manage /> methods should _loadMoreRows method works correctly 1`] = `
[MockFunction] {
  "calls": Array [
    Array [],
  ],
  "results": Array [
    Object {
      "type": "return",
      "value": undefined,
    },
  ],
}
`;

exports[`<Manage /> methods should _loadMoreRows method works correctly 2`] = `
<form
  onSubmit={[Function]}
>
  <Panel
    className="items"
  >
    <PanelHeader>
      Manage your Bazaar
    </PanelHeader>
    <div
      aria-label="Confirmation section"
      aria-level={5}
      className="confirmation"
      role="heading"
    >
      <TornBtn
        className=""
        color="silver"
        disabled={true}
      >
        SAVE CHANGES
      </TornBtn>
      <button
        className="undo"
        onClick={[Function]}
        type="button"
      >
        Undo changes
      </button>
    </div>
    <ul
      className="cellsHeader"
      role="row"
    >
      <li
        aria-level={5}
        className="name"
        role="heading"
      >
        Name
      </li>
      <li
        className="details"
      >
        Details
      </li>
      <li
        className="rrp"
      >
        RRP
      </li>
      <li
        className="remove"
      >
        Remove
      </li>
      <li
        className="price"
      >
        Price (PU)
      </li>
    </ul>
    <sortableList
      axis="y"
      distance={0}
      getHelperDimensions={[Function]}
      hideSortableGhost={true}
      lockOffset="50%"
      lockToContainerEdges={false}
      onSortEnd={[Function]}
      pressDelay={0}
      pressThreshold={5}
      shouldCancelStart={[Function]}
      transitionDuration={300}
      useDragHandle={true}
      useWindowAsScrollContainer={true}
    >
      <WindowScroller
        onResize={[Function]}
        onScroll={[Function]}
        scrollElement={[Window]}
        scrollingResetTimeInterval={500}
        serverHeight={0}
        serverWidth={0}
      >
        <Component />
      </WindowScroller>
    </sortableList>
  </Panel>
</form>
`;

exports[`<Manage /> methods should _onItemRemove method works correctly 1`] = `
[MockFunction] {
  "calls": Array [
    Array [
      5,
      4,
    ],
  ],
  "results": Array [
    Object {
      "type": "return",
      "value": undefined,
    },
  ],
}
`;

exports[`<Manage /> methods should _onItemRemove method works correctly 2`] = `
[MockFunction] {
  "calls": Array [
    Array [],
  ],
  "results": Array [
    Object {
      "type": "return",
      "value": undefined,
    },
  ],
}
`;

exports[`<Manage /> methods should _onItemRemove method works correctly 3`] = `
<form
  onSubmit={[Function]}
>
  <Panel
    className="items"
  >
    <PanelHeader>
      Manage your Bazaar
    </PanelHeader>
    <div
      aria-label="Confirmation section"
      aria-level={5}
      className="confirmation"
      role="heading"
    >
      <TornBtn
        className=""
        color="silver"
        disabled={true}
      >
        SAVE CHANGES
      </TornBtn>
      <button
        className="undo"
        onClick={[Function]}
        type="button"
      >
        Undo changes
      </button>
    </div>
    <ul
      className="cellsHeader"
      role="row"
    >
      <li
        aria-level={5}
        className="name"
        role="heading"
      >
        Name
      </li>
      <li
        className="details"
      >
        Details
      </li>
      <li
        className="rrp"
      >
        RRP
      </li>
      <li
        className="remove"
      >
        Remove
      </li>
      <li
        className="price"
      >
        Price (PU)
      </li>
    </ul>
    <sortableList
      axis="y"
      distance={0}
      getHelperDimensions={[Function]}
      hideSortableGhost={true}
      lockOffset="50%"
      lockToContainerEdges={false}
      onSortEnd={[Function]}
      pressDelay={0}
      pressThreshold={5}
      shouldCancelStart={[Function]}
      transitionDuration={300}
      useDragHandle={true}
      useWindowAsScrollContainer={true}
    >
      <WindowScroller
        onResize={[Function]}
        onScroll={[Function]}
        scrollElement={[Window]}
        scrollingResetTimeInterval={500}
        serverHeight={0}
        serverWidth={0}
      >
        <Component />
      </WindowScroller>
    </sortableList>
  </Panel>
</form>
`;

exports[`<Manage /> methods should _onPriceChanged method works correctly 1`] = `
[MockFunction] {
  "calls": Array [
    Array [
      5,
      504,
      "504",
    ],
  ],
  "results": Array [
    Object {
      "type": "return",
      "value": undefined,
    },
  ],
}
`;

exports[`<Manage /> methods should _onPriceChanged method works correctly 2`] = `
[MockFunction] {
  "calls": Array [
    Array [],
  ],
  "results": Array [
    Object {
      "type": "return",
      "value": undefined,
    },
  ],
}
`;

exports[`<Manage /> methods should _onPriceChanged method works correctly 3`] = `
<form
  onSubmit={[Function]}
>
  <Panel
    className="items"
  >
    <PanelHeader>
      Manage your Bazaar
    </PanelHeader>
    <div
      aria-label="Confirmation section"
      aria-level={5}
      className="confirmation"
      role="heading"
    >
      <TornBtn
        className=""
        color="silver"
        disabled={true}
      >
        SAVE CHANGES
      </TornBtn>
      <button
        className="undo"
        onClick={[Function]}
        type="button"
      >
        Undo changes
      </button>
    </div>
    <ul
      className="cellsHeader"
      role="row"
    >
      <li
        aria-level={5}
        className="name"
        role="heading"
      >
        Name
      </li>
      <li
        className="details"
      >
        Details
      </li>
      <li
        className="rrp"
      >
        RRP
      </li>
      <li
        className="remove"
      >
        Remove
      </li>
      <li
        className="price"
      >
        Price (PU)
      </li>
    </ul>
    <sortableList
      axis="y"
      distance={0}
      getHelperDimensions={[Function]}
      hideSortableGhost={true}
      lockOffset="50%"
      lockToContainerEdges={false}
      onSortEnd={[Function]}
      pressDelay={0}
      pressThreshold={5}
      shouldCancelStart={[Function]}
      transitionDuration={300}
      useDragHandle={true}
      useWindowAsScrollContainer={true}
    >
      <WindowScroller
        onResize={[Function]}
        onScroll={[Function]}
        scrollElement={[Window]}
        scrollingResetTimeInterval={500}
        serverHeight={0}
        serverWidth={0}
      >
        <Component />
      </WindowScroller>
    </sortableList>
  </Panel>
</form>
`;

exports[`<Manage /> methods should _onSortEnd method works correctly 1`] = `
[MockFunction] {
  "calls": Array [
    Array [
      5,
      4,
    ],
  ],
  "results": Array [
    Object {
      "type": "return",
      "value": undefined,
    },
  ],
}
`;

exports[`<Manage /> methods should _onSortEnd method works correctly 2`] = `
[MockFunction] {
  "calls": Array [
    Array [],
  ],
  "results": Array [
    Object {
      "type": "return",
      "value": undefined,
    },
  ],
}
`;

exports[`<Manage /> methods should _onSortEnd method works correctly 3`] = `
<form
  onSubmit={[Function]}
>
  <Panel
    className="items"
  >
    <PanelHeader>
      Manage your Bazaar
    </PanelHeader>
    <div
      aria-label="Confirmation section"
      aria-level={5}
      className="confirmation"
      role="heading"
    >
      <TornBtn
        className=""
        color="silver"
        disabled={true}
      >
        SAVE CHANGES
      </TornBtn>
      <button
        className="undo"
        onClick={[Function]}
        type="button"
      >
        Undo changes
      </button>
    </div>
    <ul
      className="cellsHeader"
      role="row"
    >
      <li
        aria-level={5}
        className="name"
        role="heading"
      >
        Name
      </li>
      <li
        className="details"
      >
        Details
      </li>
      <li
        className="rrp"
      >
        RRP
      </li>
      <li
        className="remove"
      >
        Remove
      </li>
      <li
        className="price"
      >
        Price (PU)
      </li>
    </ul>
    <sortableList
      axis="y"
      distance={0}
      getHelperDimensions={[Function]}
      hideSortableGhost={true}
      lockOffset="50%"
      lockToContainerEdges={false}
      onSortEnd={[Function]}
      pressDelay={0}
      pressThreshold={5}
      shouldCancelStart={[Function]}
      transitionDuration={300}
      useDragHandle={true}
      useWindowAsScrollContainer={true}
    >
      <WindowScroller
        onResize={[Function]}
        onScroll={[Function]}
        scrollElement={[Window]}
        scrollingResetTimeInterval={500}
        serverHeight={0}
        serverWidth={0}
      >
        <Component />
      </WindowScroller>
    </sortableList>
  </Panel>
</form>
`;

exports[`<Manage /> methods should _onSubmit method works correctly 1`] = `
[MockFunction] {
  "calls": Array [
    Array [],
  ],
  "results": Array [
    Object {
      "type": "return",
      "value": undefined,
    },
  ],
}
`;

exports[`<Manage /> methods should _onSubmit method works correctly 2`] = `
<form
  onSubmit={[Function]}
>
  <Panel
    className="items"
  >
    <PanelHeader>
      Manage your Bazaar
    </PanelHeader>
    <div
      aria-label="Confirmation section"
      aria-level={5}
      className="confirmation"
      role="heading"
    >
      <TornBtn
        className=""
        color="silver"
        disabled={true}
      >
        SAVE CHANGES
      </TornBtn>
      <button
        className="undo"
        onClick={[Function]}
        type="button"
      >
        Undo changes
      </button>
    </div>
    <ul
      className="cellsHeader"
      role="row"
    >
      <li
        aria-level={5}
        className="name"
        role="heading"
      >
        Name
      </li>
      <li
        className="details"
      >
        Details
      </li>
      <li
        className="rrp"
      >
        RRP
      </li>
      <li
        className="remove"
      >
        Remove
      </li>
      <li
        className="price"
      >
        Price (PU)
      </li>
    </ul>
    <sortableList
      axis="y"
      distance={0}
      getHelperDimensions={[Function]}
      hideSortableGhost={true}
      lockOffset="50%"
      lockToContainerEdges={false}
      onSortEnd={[Function]}
      pressDelay={0}
      pressThreshold={5}
      shouldCancelStart={[Function]}
      transitionDuration={300}
      useDragHandle={true}
      useWindowAsScrollContainer={true}
    >
      <WindowScroller
        onResize={[Function]}
        onScroll={[Function]}
        scrollElement={[Window]}
        scrollingResetTimeInterval={500}
        serverHeight={0}
        serverWidth={0}
      >
        <Component />
      </WindowScroller>
    </sortableList>
  </Panel>
</form>
`;

exports[`<Manage /> methods should _onUndoChages method works correctly 1`] = `
[MockFunction] {
  "calls": Array [
    Array [],
  ],
  "results": Array [
    Object {
      "type": "return",
      "value": undefined,
    },
  ],
}
`;

exports[`<Manage /> methods should _onUndoChages method works correctly 2`] = `
[MockFunction] {
  "calls": Array [
    Array [],
  ],
  "results": Array [
    Object {
      "type": "return",
      "value": undefined,
    },
  ],
}
`;

exports[`<Manage /> methods should _onUndoChages method works correctly 3`] = `
<form
  onSubmit={[Function]}
>
  <Panel
    className="items"
  >
    <PanelHeader>
      Manage your Bazaar
    </PanelHeader>
    <div
      aria-label="Confirmation section"
      aria-level={5}
      className="confirmation"
      role="heading"
    >
      <TornBtn
        className=""
        color="silver"
        disabled={true}
      >
        SAVE CHANGES
      </TornBtn>
      <button
        className="undo"
        onClick={[Function]}
        type="button"
      >
        Undo changes
      </button>
    </div>
    <ul
      className="cellsHeader"
      role="row"
    >
      <li
        aria-level={5}
        className="name"
        role="heading"
      >
        Name
      </li>
      <li
        className="details"
      >
        Details
      </li>
      <li
        className="rrp"
      >
        RRP
      </li>
      <li
        className="remove"
      >
        Remove
      </li>
      <li
        className="price"
      >
        Price (PU)
      </li>
    </ul>
    <sortableList
      axis="y"
      distance={0}
      getHelperDimensions={[Function]}
      hideSortableGhost={true}
      lockOffset="50%"
      lockToContainerEdges={false}
      onSortEnd={[Function]}
      pressDelay={0}
      pressThreshold={5}
      shouldCancelStart={[Function]}
      transitionDuration={300}
      useDragHandle={true}
      useWindowAsScrollContainer={true}
    >
      <WindowScroller
        onResize={[Function]}
        onScroll={[Function]}
        scrollElement={[Window]}
        scrollingResetTimeInterval={500}
        serverHeight={0}
        serverWidth={0}
      >
        <Component />
      </WindowScroller>
    </sortableList>
  </Panel>
</form>
`;

exports[`<Manage /> methods should _recomputeRowHeight method works 1`] = `
[MockFunction] {
  "calls": Array [
    Array [],
  ],
  "results": Array [
    Object {
      "type": "return",
      "value": undefined,
    },
  ],
}
`;

exports[`<Manage /> methods should _recomputeRowHeight method works 2`] = `
<form
  onSubmit={[Function]}
>
  <Panel
    className="items"
  >
    <PanelHeader>
      Manage your Bazaar
    </PanelHeader>
    <div
      aria-label="Confirmation section"
      aria-level={5}
      className="confirmation"
      role="heading"
    >
      <TornBtn
        className=""
        color="silver"
        disabled={true}
      >
        SAVE CHANGES
      </TornBtn>
      <button
        className="undo"
        onClick={[Function]}
        type="button"
      >
        Undo changes
      </button>
    </div>
    <ul
      className="cellsHeader"
      role="row"
    >
      <li
        aria-level={5}
        className="name"
        role="heading"
      >
        Name
      </li>
      <li
        className="details"
      >
        Details
      </li>
      <li
        className="rrp"
      >
        RRP
      </li>
      <li
        className="remove"
      >
        Remove
      </li>
      <li
        className="price"
      >
        Price (PU)
      </li>
    </ul>
    <sortableList
      axis="y"
      distance={0}
      getHelperDimensions={[Function]}
      hideSortableGhost={true}
      lockOffset="50%"
      lockToContainerEdges={false}
      onSortEnd={[Function]}
      pressDelay={0}
      pressThreshold={5}
      shouldCancelStart={[Function]}
      transitionDuration={300}
      useDragHandle={true}
      useWindowAsScrollContainer={true}
    >
      <WindowScroller
        onResize={[Function]}
        onScroll={[Function]}
        scrollElement={[Window]}
        scrollingResetTimeInterval={500}
        serverHeight={0}
        serverWidth={0}
      >
        <Component />
      </WindowScroller>
    </sortableList>
  </Panel>
</form>
`;

exports[`<Manage /> methods should _setActiveItemMobileMenuUniqueId method works 1`] = `
[MockFunction] {
  "calls": Array [
    Array [
      "388-4384562992",
    ],
  ],
  "results": Array [
    Object {
      "type": "return",
      "value": undefined,
    },
  ],
}
`;

exports[`<Manage /> methods should _setActiveItemMobileMenuUniqueId method works 2`] = `
[MockFunction] {
  "calls": Array [
    Array [],
  ],
  "results": Array [
    Object {
      "type": "return",
      "value": undefined,
    },
  ],
}
`;

exports[`<Manage /> methods should _setActiveItemMobileMenuUniqueId method works 3`] = `
<form
  onSubmit={[Function]}
>
  <Panel
    className="items"
  >
    <PanelHeader>
      Manage your Bazaar
    </PanelHeader>
    <div
      aria-label="Confirmation section"
      aria-level={5}
      className="confirmation"
      role="heading"
    >
      <TornBtn
        className=""
        color="silver"
        disabled={true}
      >
        SAVE CHANGES
      </TornBtn>
      <button
        className="undo"
        onClick={[Function]}
        type="button"
      >
        Undo changes
      </button>
    </div>
    <ul
      className="cellsHeader"
      role="row"
    >
      <li
        aria-level={5}
        className="name"
        role="heading"
      >
        Name
      </li>
      <li
        className="details"
      >
        Details
      </li>
      <li
        className="rrp"
      >
        RRP
      </li>
      <li
        className="remove"
      >
        Remove
      </li>
      <li
        className="price"
      >
        Price (PU)
      </li>
    </ul>
    <sortableList
      axis="y"
      distance={0}
      getHelperDimensions={[Function]}
      hideSortableGhost={true}
      lockOffset="50%"
      lockToContainerEdges={false}
      onSortEnd={[Function]}
      pressDelay={0}
      pressThreshold={5}
      shouldCancelStart={[Function]}
      transitionDuration={300}
      useDragHandle={true}
      useWindowAsScrollContainer={true}
    >
      <WindowScroller
        onResize={[Function]}
        onScroll={[Function]}
        scrollElement={[Window]}
        scrollingResetTimeInterval={500}
        serverHeight={0}
        serverWidth={0}
      >
        <Component />
      </WindowScroller>
    </sortableList>
  </Panel>
</form>
`;

exports[`<Manage /> methods should _setViewHeight method works correctly 1`] = `
[MockFunction] {
  "calls": Array [
    Array [],
  ],
  "results": Array [
    Object {
      "type": "return",
      "value": undefined,
    },
  ],
}
`;

exports[`<Manage /> methods should _setViewHeight method works correctly 2`] = `
<form
  onSubmit={[Function]}
>
  <Panel
    className="items"
  >
    <PanelHeader>
      Manage your Bazaar
    </PanelHeader>
    <div
      aria-label="Confirmation section"
      aria-level={5}
      className="confirmation"
      role="heading"
    >
      <TornBtn
        className=""
        color="silver"
        disabled={true}
      >
        SAVE CHANGES
      </TornBtn>
      <button
        className="undo"
        onClick={[Function]}
        type="button"
      >
        Undo changes
      </button>
    </div>
    <ul
      className="cellsHeader"
      role="row"
    >
      <li
        aria-level={5}
        className="name"
        role="heading"
      >
        Name
      </li>
      <li
        className="details"
      >
        Details
      </li>
      <li
        className="rrp"
      >
        RRP
      </li>
      <li
        className="remove"
      >
        Remove
      </li>
      <li
        className="price"
      >
        Price (PU)
      </li>
    </ul>
    <sortableList
      axis="y"
      distance={0}
      getHelperDimensions={[Function]}
      hideSortableGhost={true}
      lockOffset="50%"
      lockToContainerEdges={false}
      onSortEnd={[Function]}
      pressDelay={0}
      pressThreshold={5}
      shouldCancelStart={[Function]}
      transitionDuration={300}
      useDragHandle={true}
      useWindowAsScrollContainer={true}
    >
      <WindowScroller
        onResize={[Function]}
        onScroll={[Function]}
        scrollElement={[Window]}
        scrollingResetTimeInterval={500}
        serverHeight={0}
        serverWidth={0}
      >
        <Component />
      </WindowScroller>
    </sortableList>
  </Panel>
</form>
`;

exports[`<Manage /> methods should _unbindListBugFixer method works 1`] = `
[MockFunction] {
  "calls": Array [
    Array [
      105,
    ],
  ],
  "results": Array [
    Object {
      "type": "return",
      "value": undefined,
    },
  ],
}
`;

exports[`<Manage /> methods should _unbindListBugFixer method works 2`] = `
<form
  onSubmit={[Function]}
>
  <Panel
    className="items"
  >
    <PanelHeader>
      Manage your Bazaar
    </PanelHeader>
    <div
      aria-label="Confirmation section"
      aria-level={5}
      className="confirmation"
      role="heading"
    >
      <TornBtn
        className=""
        color="silver"
        disabled={true}
      >
        SAVE CHANGES
      </TornBtn>
      <button
        className="undo"
        onClick={[Function]}
        type="button"
      >
        Undo changes
      </button>
    </div>
    <ul
      className="cellsHeader"
      role="row"
    >
      <li
        aria-level={5}
        className="name"
        role="heading"
      >
        Name
      </li>
      <li
        className="details"
      >
        Details
      </li>
      <li
        className="rrp"
      >
        RRP
      </li>
      <li
        className="remove"
      >
        Remove
      </li>
      <li
        className="price"
      >
        Price (PU)
      </li>
    </ul>
    <sortableList
      axis="y"
      distance={0}
      getHelperDimensions={[Function]}
      hideSortableGhost={true}
      lockOffset="50%"
      lockToContainerEdges={false}
      onSortEnd={[Function]}
      pressDelay={0}
      pressThreshold={5}
      shouldCancelStart={[Function]}
      transitionDuration={300}
      useDragHandle={true}
      useWindowAsScrollContainer={true}
    >
      <WindowScroller
        onResize={[Function]}
        onScroll={[Function]}
        scrollElement={[Window]}
        scrollingResetTimeInterval={500}
        serverHeight={0}
        serverWidth={0}
      >
        <Component />
      </WindowScroller>
    </sortableList>
  </Panel>
</form>
`;

exports[`<Manage /> methods should componentDidMount method works 1`] = `
[MockFunction] {
  "calls": Array [
    Array [],
  ],
  "results": Array [
    Object {
      "type": "return",
      "value": undefined,
    },
  ],
}
`;

exports[`<Manage /> methods should componentDidMount method works 2`] = `
[MockFunction] {
  "calls": Array [
    Array [],
  ],
  "results": Array [
    Object {
      "type": "return",
      "value": undefined,
    },
  ],
}
`;

exports[`<Manage /> methods should componentDidMount method works 3`] = `
<form
  onSubmit={[Function]}
>
  <Panel
    className="items"
  >
    <PanelHeader>
      Manage your Bazaar
    </PanelHeader>
    <div
      aria-label="Confirmation section"
      aria-level={5}
      className="confirmation"
      role="heading"
    >
      <TornBtn
        className=""
        color="silver"
        disabled={true}
      >
        SAVE CHANGES
      </TornBtn>
      <button
        className="undo"
        onClick={[Function]}
        type="button"
      >
        Undo changes
      </button>
    </div>
    <ul
      className="cellsHeader"
      role="row"
    >
      <li
        aria-level={5}
        className="name"
        role="heading"
      >
        Name
      </li>
      <li
        className="details"
      >
        Details
      </li>
      <li
        className="rrp"
      >
        RRP
      </li>
      <li
        className="remove"
      >
        Remove
      </li>
      <li
        className="price"
      >
        Price (PU)
      </li>
    </ul>
    <sortableList
      axis="y"
      distance={0}
      getHelperDimensions={[Function]}
      hideSortableGhost={true}
      lockOffset="50%"
      lockToContainerEdges={false}
      onSortEnd={[Function]}
      pressDelay={0}
      pressThreshold={5}
      shouldCancelStart={[Function]}
      transitionDuration={300}
      useDragHandle={true}
      useWindowAsScrollContainer={true}
    >
      <WindowScroller
        onResize={[Function]}
        onScroll={[Function]}
        scrollElement={[Window]}
        scrollingResetTimeInterval={500}
        serverHeight={0}
        serverWidth={0}
      >
        <Component />
      </WindowScroller>
    </sortableList>
  </Panel>
</form>
`;

exports[`<Manage /> methods should componentDidUpdate handle bug fixer 1`] = `
[MockFunction] {
  "calls": Array [
    Array [
      CustomEvent {
        "isTrusted": false,
      },
    ],
  ],
  "results": Array [
    Object {
      "type": "return",
      "value": undefined,
    },
  ],
}
`;

exports[`<Manage /> methods should componentDidUpdate handle bug fixer 2`] = `
<form
  onSubmit={[Function]}
>
  <Panel
    className="items"
  >
    <PanelHeader>
      Manage your Bazaar
    </PanelHeader>
    <div
      aria-label="Confirmation section"
      aria-level={5}
      className="confirmation"
      role="heading"
    >
      <TornBtn
        className=""
        color="silver"
        disabled={true}
      >
        SAVE CHANGES
      </TornBtn>
      <button
        className="undo"
        onClick={[Function]}
        type="button"
      >
        Undo changes
      </button>
    </div>
    <ul
      className="cellsHeader"
      role="row"
    >
      <li
        aria-level={5}
        className="name"
        role="heading"
      >
        Name
      </li>
      <li
        className="details"
      >
        Details
      </li>
      <li
        className="rrp"
      >
        RRP
      </li>
      <li
        className="remove"
      >
        Remove
      </li>
      <li
        className="price"
      >
        Price (PU)
      </li>
    </ul>
    <sortableList
      axis="y"
      distance={0}
      getHelperDimensions={[Function]}
      hideSortableGhost={true}
      lockOffset="50%"
      lockToContainerEdges={false}
      onSortEnd={[Function]}
      pressDelay={0}
      pressThreshold={5}
      shouldCancelStart={[Function]}
      transitionDuration={300}
      useDragHandle={true}
      useWindowAsScrollContainer={true}
    >
      <WindowScroller
        onResize={[Function]}
        onScroll={[Function]}
        scrollElement={[Window]}
        scrollingResetTimeInterval={500}
        serverHeight={0}
        serverWidth={0}
      >
        <Component />
      </WindowScroller>
    </sortableList>
  </Panel>
</form>
`;

exports[`<Manage /> methods should componentDidUpdate skip bug fixer 1`] = `[MockFunction]`;

exports[`<Manage /> methods should componentDidUpdate skip bug fixer 2`] = `
<form
  onSubmit={[Function]}
>
  <Panel
    className="items"
  >
    <PanelHeader>
      Manage your Bazaar
    </PanelHeader>
    <div
      aria-label="Confirmation section"
      aria-level={5}
      className="confirmation"
      role="heading"
    >
      <TornBtn
        className=""
        color="silver"
        disabled={true}
      >
        SAVE CHANGES
      </TornBtn>
      <button
        className="undo"
        onClick={[Function]}
        type="button"
      >
        Undo changes
      </button>
    </div>
    <ul
      className="cellsHeader"
      role="row"
    >
      <li
        aria-level={5}
        className="name"
        role="heading"
      >
        Name
      </li>
      <li
        className="details"
      >
        Details
      </li>
      <li
        className="rrp"
      >
        RRP
      </li>
      <li
        className="remove"
      >
        Remove
      </li>
      <li
        className="price"
      >
        Price (PU)
      </li>
    </ul>
    <sortableList
      axis="y"
      distance={0}
      getHelperDimensions={[Function]}
      hideSortableGhost={true}
      lockOffset="50%"
      lockToContainerEdges={false}
      onSortEnd={[Function]}
      pressDelay={0}
      pressThreshold={5}
      shouldCancelStart={[Function]}
      transitionDuration={300}
      useDragHandle={true}
      useWindowAsScrollContainer={true}
    >
      <WindowScroller
        onResize={[Function]}
        onScroll={[Function]}
        scrollElement={[Window]}
        scrollingResetTimeInterval={500}
        serverHeight={0}
        serverWidth={0}
      >
        <Component />
      </WindowScroller>
    </sortableList>
  </Panel>
</form>
`;

exports[`<Manage /> methods should componentWillUnmount method works 1`] = `
[MockFunction] {
  "calls": Array [
    Array [],
  ],
  "results": Array [
    Object {
      "type": "return",
      "value": undefined,
    },
  ],
}
`;

exports[`<Manage /> methods should componentWillUnmount method works 2`] = `
<form
  onSubmit={[Function]}
>
  <Panel
    className="items"
  >
    <PanelHeader>
      Manage your Bazaar
    </PanelHeader>
    <div
      aria-label="Confirmation section"
      aria-level={5}
      className="confirmation"
      role="heading"
    >
      <TornBtn
        className=""
        color="silver"
        disabled={true}
      >
        SAVE CHANGES
      </TornBtn>
      <button
        className="undo"
        onClick={[Function]}
        type="button"
      >
        Undo changes
      </button>
    </div>
    <ul
      className="cellsHeader"
      role="row"
    >
      <li
        aria-level={5}
        className="name"
        role="heading"
      >
        Name
      </li>
      <li
        className="details"
      >
        Details
      </li>
      <li
        className="rrp"
      >
        RRP
      </li>
      <li
        className="remove"
      >
        Remove
      </li>
      <li
        className="price"
      >
        Price (PU)
      </li>
    </ul>
    <sortableList
      axis="y"
      distance={0}
      getHelperDimensions={[Function]}
      hideSortableGhost={true}
      lockOffset="50%"
      lockToContainerEdges={false}
      onSortEnd={[Function]}
      pressDelay={0}
      pressThreshold={5}
      shouldCancelStart={[Function]}
      transitionDuration={300}
      useDragHandle={true}
      useWindowAsScrollContainer={true}
    >
      <WindowScroller
        onResize={[Function]}
        onScroll={[Function]}
        scrollElement={[Window]}
        scrollingResetTimeInterval={500}
        serverHeight={0}
        serverWidth={0}
      >
        <Component />
      </WindowScroller>
    </sortableList>
  </Panel>
</form>
`;
