// Jest Snapshot v1, https://goo.gl/fbAQLP

exports[`<InfoBox /> should handle log toggler 1`] = `
<div
  className="wrapper"
>
  <div
    className="info-msg-cont border-round m-top10"
  >
    <div
      className="info-msg border-round messageWrap activeLog"
    >
      <i
        className="infoIcon"
      />
      <div
        className="delimiter"
      >
        <div
          className="msg right-round messageContent"
        >
          <div
            className="change-logger"
          >
            <p>
              Test message
            </p>
            <ul
              className="t-gray-9 p10 log-list"
            >
              <li
                key="0"
              >
                You put Glock 17 in 1st position on your bazaar.
              </li>
              <li
                key="1"
              >
                You put Glock 17 in 2nd position on your bazaar.
              </li>
              <li
                key="2"
              >
                You put Glock 17 in 3rd position on your bazaar.
              </li>
              <li
                key="3"
              >
                You put Glock 17 in 4th position on your bazaar.
              </li>
              <li
                key="4"
              >
                You put Glock 17 in 5th position on your bazaar.
              </li>
            </ul>
            <a
              className="logToggler"
              onClick={[Function]}
            >
              Hide log
            </a>
          </div>
        </div>
      </div>
    </div>
  </div>
  <hr
    className="page-head-delimiter m-top10 m-bottom10"
  />
</div>
`;

exports[`<InfoBox /> should render InfoBox component with DOM message 1`] = `
<div
  className="wrapper"
>
  <div
    dangerouslySetInnerHTML={
      Object {
        "__html": "<div class=\\"msg\\">server <div>hah</div>object message</div>",
      }
    }
  />
  <hr
    className="page-head-delimiter m-top10 m-bottom10"
  />
</div>
`;

exports[`<InfoBox /> should render InfoBox component with object message 1`] = `
<div
  className="wrapper"
>
  <div
    className="info-msg-cont border-round m-top10"
  >
    <div
      className="info-msg border-round messageWrap"
    >
      <i
        className="infoIcon"
      />
      <div
        className="delimiter"
      >
        <div
          className="msg right-round messageContent"
        >
          {"message":"server object message"}
        </div>
      </div>
    </div>
  </div>
  <hr
    className="page-head-delimiter m-top10 m-bottom10"
  />
</div>
`;

exports[`<InfoBox /> should render InfoBox component with server string message 1`] = `
<div
  className="wrapper"
>
  <div
    className="info-msg-cont border-round m-top10"
  >
    <div
      className="info-msg border-round messageWrap"
    >
      <i
        className="infoIcon"
      />
      <div
        className="delimiter"
      >
        <div
          className="msg right-round messageContent"
        >
          server string message
        </div>
      </div>
    </div>
  </div>
  <hr
    className="page-head-delimiter m-top10 m-bottom10"
  />
</div>
`;

exports[`<InfoBox /> should render InfoBox component with string message 1`] = `
<div
  className="wrapper"
>
  <div
    className="info-msg-cont border-round m-top10"
  >
    <div
      className="info-msg border-round messageWrap"
    >
      <i
        className="infoIcon"
      />
      <div
        className="delimiter"
      >
        <div
          className="msg right-round messageContent"
        >
          testError
        </div>
      </div>
    </div>
  </div>
  <hr
    className="page-head-delimiter m-top10 m-bottom10"
  />
</div>
`;

exports[`<InfoBox /> should render loading filled state 1`] = `
<div
  className="wrapper"
>
  <div
    className="info-msg-cont border-round m-top10"
  >
    <div
      className="info-msg border-round messageWrap"
    >
      <i
        className="infoIcon"
      />
      <div
        className="delimiter"
      >
        <div
          className="msg right-round messageContent"
        >
          <LoadingIndicator
            className="loadingIndicator"
          />
        </div>
      </div>
    </div>
  </div>
  <hr
    className="page-head-delimiter m-top10 m-bottom10"
  />
</div>
`;

exports[`<InfoBox /> should render loading filled with html state 1`] = `
<div
  className="wrapper"
>
  <div
    className="info-msg-cont border-round m-top10"
  >
    <div
      className="info-msg border-round messageWrap"
    >
      <i
        className="infoIcon"
      />
      <div
        className="delimiter"
      >
        <div
          className="msg right-round messageContent"
        >
          <LoadingIndicator
            className="loadingIndicator"
          />
        </div>
      </div>
    </div>
  </div>
  <hr
    className="page-head-delimiter m-top10 m-bottom10"
  />
</div>
`;

exports[`<InfoBox /> should render loading state 1`] = `
<div
  className="wrapper"
>
  <div
    className="info-msg-cont border-round m-top10"
  >
    <div
      className="info-msg border-round messageWrap"
    >
      <i
        className="infoIcon"
      />
      <div
        className="delimiter"
      >
        <div
          className="msg right-round messageContent"
        >
          <LoadingIndicator
            className="loadingIndicator"
          />
        </div>
      </div>
    </div>
  </div>
  <hr
    className="page-head-delimiter m-top10 m-bottom10"
  />
</div>
`;

exports[`<InfoBox /> should render with html message and deactivated log 1`] = `
<div
  className="wrapper"
>
  <div
    className="info-msg-cont border-round m-top10"
  >
    <div
      className="info-msg border-round messageWrap"
    >
      <i
        className="infoIcon"
      />
      <div
        className="delimiter"
      >
        <div
          className="msg right-round messageContent"
        >
          <div
            className="change-logger"
          >
            <p>
              Test message
            </p>
            <a
              className="logToggler"
              onClick={[Function]}
            >
              Show log
            </a>
          </div>
        </div>
      </div>
    </div>
  </div>
  <hr
    className="page-head-delimiter m-top10 m-bottom10"
  />
</div>
`;

exports[`<InfoBox /> should render with html message and log 1`] = `
<div
  className="wrapper"
>
  <div
    className="info-msg-cont border-round m-top10"
  >
    <div
      className="info-msg border-round messageWrap activeLog"
    >
      <i
        className="infoIcon"
      />
      <div
        className="delimiter"
      >
        <div
          className="msg right-round messageContent"
        >
          <div
            className="change-logger"
          >
            <div
              dangerouslySetInnerHTML={
                Object {
                  "__html": "<button>Click on me</button>",
                }
              }
            />
            <ul
              className="t-gray-9 p10 log-list"
            >
              <li
                dangerouslySetInnerHTML={
                  Object {
                    "__html": "You put Glock 17 in 1st position on your bazaar.",
                  }
                }
                key="0"
              />
              <li
                dangerouslySetInnerHTML={
                  Object {
                    "__html": "You put Glock 17 in 2nd position on your bazaar.",
                  }
                }
                key="1"
              />
              <li
                dangerouslySetInnerHTML={
                  Object {
                    "__html": "You put Glock 17 in 3rd position on your bazaar.",
                  }
                }
                key="2"
              />
              <li
                dangerouslySetInnerHTML={
                  Object {
                    "__html": "You put Glock 17 in 4th position on your bazaar.",
                  }
                }
                key="3"
              />
              <li
                dangerouslySetInnerHTML={
                  Object {
                    "__html": "You put Glock 17 in 5th position on your bazaar.",
                  }
                }
                key="4"
              />
            </ul>
            <a
              className="logToggler"
              onClick={[Function]}
            >
              Hide log
            </a>
          </div>
        </div>
      </div>
    </div>
  </div>
  <hr
    className="page-head-delimiter m-top10 m-bottom10"
  />
</div>
`;

exports[`<InfoBox /> should render with string message and deactivated log 1`] = `
<div
  className="wrapper"
>
  <div
    className="info-msg-cont border-round m-top10"
  >
    <div
      className="info-msg border-round messageWrap"
    >
      <i
        className="infoIcon"
      />
      <div
        className="delimiter"
      >
        <div
          className="msg right-round messageContent"
        >
          <div
            className="change-logger"
          >
            <p>
              Test message
            </p>
            <a
              className="logToggler"
              onClick={[Function]}
            >
              Show log
            </a>
          </div>
        </div>
      </div>
    </div>
  </div>
  <hr
    className="page-head-delimiter m-top10 m-bottom10"
  />
</div>
`;

exports[`<InfoBox /> should render with string message and log 1`] = `
<div
  className="wrapper"
>
  <div
    className="info-msg-cont border-round m-top10"
  >
    <div
      className="info-msg border-round messageWrap activeLog"
    >
      <i
        className="infoIcon"
      />
      <div
        className="delimiter"
      >
        <div
          className="msg right-round messageContent"
        >
          <div
            className="change-logger"
          >
            <p>
              Test message
            </p>
            <ul
              className="t-gray-9 p10 log-list"
            >
              <li
                key="0"
              >
                You put Glock 17 in 1st position on your bazaar.
              </li>
              <li
                key="1"
              >
                You put Glock 17 in 2nd position on your bazaar.
              </li>
              <li
                key="2"
              >
                You put Glock 17 in 3rd position on your bazaar.
              </li>
              <li
                key="3"
              >
                You put Glock 17 in 4th position on your bazaar.
              </li>
              <li
                key="4"
              >
                You put Glock 17 in 5th position on your bazaar.
              </li>
            </ul>
            <a
              className="logToggler"
              onClick={[Function]}
            >
              Hide log
            </a>
          </div>
        </div>
      </div>
    </div>
  </div>
  <hr
    className="page-head-delimiter m-top10 m-bottom10"
  />
</div>
`;
