// Jest Snapshot v1, https://goo.gl/fbAQLP

exports[`<BoughtInfo /> should focus on render 1`] = `
[MockFunction] {
  "calls": Array [
    Array [],
  ],
  "results": Array [
    Object {
      "type": "return",
      "value": undefined,
    },
  ],
}
`;

exports[`<BoughtInfo /> should focus on render 2`] = `
<div
  aria-label="Success"
  aria-labelledby="bought-msg-7978-798"
  className=""
  onBlur={[Function]}
  tabIndex={0}
>
  <p
    className="description"
    id="bought-msg-7978-798"
    tabIndex={0}
  >
    <span
      className="line"
    >
      You bought 
      1324
       x 
      <span
        className="nowrap"
      >
        Test name
      </span>
    </span>
    <span
      className="line"
    >
       from 
      <span
        className="nowrap"
      >
        love_intent
        's
      </span>
       bazaar
    </span>
    <span
      className="line"
    >
       for a total of 
      <span
        className="nowrap"
      >
        $
        2,083,261,040
      </span>
    </span>
  </p>
  <button
    aria-label="Close"
    className="close"
    onClick={[Function]}
    type="button"
  >
    <SVGIconGenerator
      dimensions={
        Object {
          "height": 11,
          "viewbox": "0 0 14 13",
          "width": 12,
        }
      }
      fill={
        Object {
          "color": "url(#bazaar_cross_gradient)",
          "strokeWidth": "0",
        }
      }
      filter={
        Object {
          "ID": "bazaar_view_shadow",
          "active": true,
          "shadow": Object {
            "active": true,
            "blur": 0.1,
            "color": "#fff",
            "x": 0,
            "y": 1,
          },
        }
      }
      gradient={
        Object {
          "ID": "bazaar_cross_gradient",
          "active": true,
          "scheme": Array [
            Object {
              "color": "#999",
              "step": "0",
            },
            Object {
              "color": "#ccc",
              "step": "1",
            },
          ],
          "transform": "rotate(90)",
        }
      }
      iconName="BazaarCross"
      onHover={
        Object {
          "active": true,
          "fill": Object {
            "color": "url(#bazaar_cross_hover_gradient)",
            "strokeWidth": "0",
          },
          "gradient": Object {
            "ID": "bazaar_cross_hover_gradient",
            "scheme": Array [
              Object {
                "color": "#666",
                "step": "0",
              },
              Object {
                "color": "#999",
                "step": "1",
              },
            ],
            "transform": "rotate(90)",
          },
        }
      }
    />
  </button>
</div>
`;

exports[`<BoughtInfo /> should handle click on close button 1`] = `
[MockFunction] {
  "calls": Array [
    Array [
      Object {},
    ],
  ],
  "results": Array [
    Object {
      "type": "return",
      "value": undefined,
    },
  ],
}
`;

exports[`<BoughtInfo /> should handle click on close button 2`] = `
<div
  aria-label="Success"
  aria-labelledby="bought-msg-7978-798"
  className=""
  onBlur={
    [MockFunction] {
      "calls": Array [
        Array [
          Object {},
        ],
      ],
      "results": Array [
        Object {
          "type": "return",
          "value": undefined,
        },
      ],
    }
  }
  tabIndex={0}
>
  <p
    className="description"
    id="bought-msg-7978-798"
    tabIndex={0}
  >
    <span
      className="line"
    >
      You bought 
      1324
       x 
      <span
        className="nowrap"
      >
        Test name
      </span>
    </span>
    <span
      className="line"
    >
       from 
      <span
        className="nowrap"
      >
        love_intent
        's
      </span>
       bazaar
    </span>
    <span
      className="line"
    >
       for a total of 
      <span
        className="nowrap"
      >
        $
        2,083,261,040
      </span>
    </span>
  </p>
  <button
    aria-label="Close"
    className="close"
    onClick={
      [MockFunction] {
        "calls": Array [
          Array [
            Object {},
          ],
        ],
        "results": Array [
          Object {
            "type": "return",
            "value": undefined,
          },
        ],
      }
    }
    type="button"
  >
    <SVGIconGenerator
      dimensions={
        Object {
          "height": 11,
          "viewbox": "0 0 14 13",
          "width": 12,
        }
      }
      fill={
        Object {
          "color": "url(#bazaar_cross_gradient)",
          "strokeWidth": "0",
        }
      }
      filter={
        Object {
          "ID": "bazaar_view_shadow",
          "active": true,
          "shadow": Object {
            "active": true,
            "blur": 0.1,
            "color": "#fff",
            "x": 0,
            "y": 1,
          },
        }
      }
      gradient={
        Object {
          "ID": "bazaar_cross_gradient",
          "active": true,
          "scheme": Array [
            Object {
              "color": "#999",
              "step": "0",
            },
            Object {
              "color": "#ccc",
              "step": "1",
            },
          ],
          "transform": "rotate(90)",
        }
      }
      iconName="BazaarCross"
      onHover={
        Object {
          "active": true,
          "fill": Object {
            "color": "url(#bazaar_cross_hover_gradient)",
            "strokeWidth": "0",
          },
          "gradient": Object {
            "ID": "bazaar_cross_hover_gradient",
            "scheme": Array [
              Object {
                "color": "#666",
                "step": "0",
              },
              Object {
                "color": "#999",
                "step": "1",
              },
            ],
            "transform": "rotate(90)",
          },
        }
      }
    />
  </button>
</div>
`;

exports[`<BoughtInfo /> should render 1`] = `
<div
  aria-label="Success"
  aria-labelledby="bought-msg-7978-798"
  className=""
  onBlur={[Function]}
  tabIndex={0}
>
  <p
    className="description"
    id="bought-msg-7978-798"
    tabIndex={0}
  >
    <span
      className="line"
    >
      You bought 
      1324
       x 
      <span
        className="nowrap"
      >
        Test name
      </span>
    </span>
    <span
      className="line"
    >
       from 
      <span
        className="nowrap"
      >
        love_intent
        's
      </span>
       bazaar
    </span>
    <span
      className="line"
    >
       for a total of 
      <span
        className="nowrap"
      >
        $
        2,083,261,040
      </span>
    </span>
  </p>
  <button
    aria-label="Close"
    className="close"
    onClick={[Function]}
    type="button"
  >
    <SVGIconGenerator
      dimensions={
        Object {
          "height": 11,
          "viewbox": "0 0 14 13",
          "width": 12,
        }
      }
      fill={
        Object {
          "color": "url(#bazaar_cross_gradient)",
          "strokeWidth": "0",
        }
      }
      filter={
        Object {
          "ID": "bazaar_view_shadow",
          "active": true,
          "shadow": Object {
            "active": true,
            "blur": 0.1,
            "color": "#fff",
            "x": 0,
            "y": 1,
          },
        }
      }
      gradient={
        Object {
          "ID": "bazaar_cross_gradient",
          "active": true,
          "scheme": Array [
            Object {
              "color": "#999",
              "step": "0",
            },
            Object {
              "color": "#ccc",
              "step": "1",
            },
          ],
          "transform": "rotate(90)",
        }
      }
      iconName="BazaarCross"
      onHover={
        Object {
          "active": true,
          "fill": Object {
            "color": "url(#bazaar_cross_hover_gradient)",
            "strokeWidth": "0",
          },
          "gradient": Object {
            "ID": "bazaar_cross_hover_gradient",
            "scheme": Array [
              Object {
                "color": "#666",
                "step": "0",
              },
              Object {
                "color": "#999",
                "step": "1",
              },
            ],
            "transform": "rotate(90)",
          },
        }
      }
    />
  </button>
</div>
`;

exports[`<BoughtInfo /> should render with extra class name 1`] = `
<div
  aria-label="Success"
  aria-labelledby="bought-msg-7978-798"
  className="testClassName"
  onBlur={[Function]}
  tabIndex={0}
>
  <p
    className="description"
    id="bought-msg-7978-798"
    tabIndex={0}
  >
    <span
      className="line"
    >
      You bought 
      1324
       x 
      <span
        className="nowrap"
      >
        Test name
      </span>
    </span>
    <span
      className="line"
    >
       from 
      <span
        className="nowrap"
      >
        love_intent
        's
      </span>
       bazaar
    </span>
    <span
      className="line"
    >
       for a total of 
      <span
        className="nowrap"
      >
        $
        2,083,261,040
      </span>
    </span>
  </p>
  <button
    aria-label="Close"
    className="close"
    onClick={[Function]}
    type="button"
  >
    <SVGIconGenerator
      dimensions={
        Object {
          "height": 11,
          "viewbox": "0 0 14 13",
          "width": 12,
        }
      }
      fill={
        Object {
          "color": "url(#bazaar_cross_gradient)",
          "strokeWidth": "0",
        }
      }
      filter={
        Object {
          "ID": "bazaar_view_shadow",
          "active": true,
          "shadow": Object {
            "active": true,
            "blur": 0.1,
            "color": "#fff",
            "x": 0,
            "y": 1,
          },
        }
      }
      gradient={
        Object {
          "ID": "bazaar_cross_gradient",
          "active": true,
          "scheme": Array [
            Object {
              "color": "#999",
              "step": "0",
            },
            Object {
              "color": "#ccc",
              "step": "1",
            },
          ],
          "transform": "rotate(90)",
        }
      }
      iconName="BazaarCross"
      onHover={
        Object {
          "active": true,
          "fill": Object {
            "color": "url(#bazaar_cross_hover_gradient)",
            "strokeWidth": "0",
          },
          "gradient": Object {
            "ID": "bazaar_cross_hover_gradient",
            "scheme": Array [
              Object {
                "color": "#666",
                "step": "0",
              },
              Object {
                "color": "#999",
                "step": "1",
              },
            ],
            "transform": "rotate(90)",
          },
        }
      }
    />
  </button>
</div>
`;
