// Jest Snapshot v1, https://goo.gl/fbAQLP

exports[`<Label /> should not render Label component in case of empty data 1`] = `""`;

exports[`<Label /> should render Label component 1`] = `
<div
  className="labelContainer greyLineV label-container-Mods"
>
  <span
    className="iconContainer labelIconContainer icon-container-Mods"
  >
    <SVGIconGenerator
      customClass="svgIcon"
      iconName="Mods"
      preset={
        Object {
          "subtype": "Mods",
          "type": "topPageLinks",
        }
      }
    />
  </span>
  <span
    className="labelTitle"
  >
    0 / 25
  </span>
</div>
`;
