// Jest Snapshot v1, https://goo.gl/fbAQLP

exports[`<CrimesList /> should render CrimesList container 1`] = `
<div
  className="main-container"
>
  <div
    className="subcrimes-list"
  >
    <Row1Copy
      action={[Function]}
      additionalInfo={
        Object {
          "CDsLeft": true,
          "blankCDs": 0,
          "currentQueue": null,
          "timeForCD": 0,
          "timeLeftForNextCD": 0,
        }
      }
      attempt={[Function]}
      available={true}
      blankCDs={0}
      blankSelectedCDs={false}
      breakSelectedCDs={[Function]}
      cdSelected={false}
      closeOutcome={[Function]}
      crimeID={0}
      currentRowID={0}
      currentTemplate="BootleggingMakeCD"
      genres={Object {}}
      iconClass=""
      isCurrentRow={false}
      itemId={0}
      lastSubCrimeID={0}
      mediaType="desktop"
      nerve={0}
      outcome={Object {}}
      panelItems={
        Array [
          Object {
            "label": "",
            "removeLink": true,
            "value": "",
          },
        ]
      }
      requirements={
        Object {
          "items": Array [
            Object {
              "available": false,
              "label": "",
              "value": 61,
            },
            Object {
              "available": false,
              "label": "",
              "value": 61,
            },
          ],
        }
      }
      result=""
      showCDsSelector={false}
      showOutcome={false}
      skillLevel={0}
      skillLevelTotal={0}
      state=""
      subID={0}
      title=""
      toggleCDsSelector={[Function]}
      user={
        Object {
          "nerve": 2,
        }
      }
    />
    <Row2Sell
      action={[Function]}
      additionalInfo={null}
      attempt={[Function]}
      available={true}
      closeOutcome={[Function]}
      copiedCDs={12}
      crimeID={1}
      currentRowID={0}
      currentTemplate="BootleggingSellCD"
      iconClass=""
      isCurrentRow={false}
      itemId={0}
      lastSubCrimeID={0}
      mediaType="desktop"
      minCrimeLVL={
        Object {
          "available": true,
        }
      }
      nerve={0}
      outcome={Object {}}
      panelItems={
        Array [
          Object {
            "label": "",
            "removeLink": true,
            "value": "",
          },
        ]
      }
      requirements={
        Object {
          "items": Array [
            Object {
              "available": true,
              "label": "",
              "value": "",
            },
          ],
        }
      }
      result=""
      showOutcome={false}
      skillLevel={0}
      skillLevelTotal={0}
      state=""
      subID={0}
      title=""
      user={
        Object {
          "nerve": 2,
        }
      }
      userNerve={0}
    />
    <div
      className="store--wrap"
    >
      <Row3SetupStore
        action={[Function]}
        additionalInfo={
          Object {
            "lastMoneyCheckStamp": 0,
            "moneyToCollect": 0,
          }
        }
        attempt={[Function]}
        available={true}
        callback={[Function]}
        closeOutcome={[Function]}
        crimeID={2}
        current={0}
        currentRowID={0}
        currentTemplate="BootleggingSellCD"
        iconClass=""
        isCurrentRow={false}
        isShopComplete={false}
        itemId={0}
        lastSubCrimeID={0}
        maxProgress={10}
        mediaType="desktop"
        minCrimeLVL={
          Object {
            "available": true,
          }
        }
        minCrimeLevel={
          Object {
            "value": 12,
          }
        }
        nerve={0}
        outcome={Object {}}
        panelItems={
          Array [
            Object {
              "label": "",
              "removeLink": true,
              "value": "",
            },
          ]
        }
        progress={0}
        requirements={
          Object {
            "minCrimeLevel": Object {
              "available": false,
              "value": 50,
            },
          }
        }
        result=""
        showOutcome={false}
        skillLevel={0}
        skillLevelTotal={0}
        state=""
        subID={0}
        title=""
        user={
          Object {
            "nerve": 2,
          }
        }
      />
    </div>
  </div>
</div>
`;

exports[`<CrimesList /> should render only Copy, Sell and Collect subrimes 1`] = `
<div
  className="main-container"
>
  <div
    className="subcrimes-list"
  >
    <Row1Copy
      action={[Function]}
      additionalInfo={
        Object {
          "CDsLeft": true,
          "blankCDs": 0,
          "currentQueue": null,
          "timeForCD": 0,
          "timeLeftForNextCD": 0,
        }
      }
      attempt={[Function]}
      available={true}
      blankCDs={0}
      blankSelectedCDs={false}
      breakSelectedCDs={[Function]}
      cdSelected={false}
      closeOutcome={[Function]}
      crimeID={0}
      currentRowID={0}
      currentTemplate="BootleggingMakeCD"
      genres={Object {}}
      iconClass=""
      isCurrentRow={false}
      itemId={0}
      lastSubCrimeID={0}
      mediaType="desktop"
      nerve={0}
      outcome={Object {}}
      panelItems={
        Array [
          Object {
            "label": "",
            "removeLink": true,
            "value": "",
          },
        ]
      }
      requirements={
        Object {
          "items": Array [
            Object {
              "available": false,
              "label": "",
              "value": 61,
            },
            Object {
              "available": false,
              "label": "",
              "value": 61,
            },
          ],
        }
      }
      result=""
      showCDsSelector={false}
      showOutcome={false}
      skillLevel={0}
      skillLevelTotal={0}
      state=""
      subID={0}
      title=""
      toggleCDsSelector={[Function]}
      user={
        Object {
          "nerve": 2,
        }
      }
    />
    <Row2Sell
      action={[Function]}
      additionalInfo={null}
      attempt={[Function]}
      available={true}
      closeOutcome={[Function]}
      copiedCDs={12}
      crimeID={1}
      currentRowID={0}
      currentTemplate="BootleggingSellCD"
      iconClass=""
      isCurrentRow={false}
      itemId={0}
      lastSubCrimeID={0}
      mediaType="desktop"
      nerve={0}
      outcome={Object {}}
      panelItems={
        Array [
          Object {
            "label": "",
            "removeLink": true,
            "value": "",
          },
        ]
      }
      requirements={
        Object {
          "items": Array [
            Object {
              "available": true,
              "label": "",
              "value": "",
            },
          ],
        }
      }
      result=""
      showOutcome={false}
      skillLevel={0}
      skillLevelTotal={0}
      state=""
      subID={0}
      title=""
      user={
        Object {
          "nerve": 2,
        }
      }
      userNerve={0}
    />
    <div
      className="funds--wrap"
    >
      <Row4Collect
        action={[Function]}
        additionalInfo={
          Object {
            "CDs": Object {},
            "maxProgress": 10,
            "moneyToCollect": 1,
            "progress": 10,
          }
        }
        attempt={[Function]}
        available={true}
        callback={[Function]}
        closeOutcome={[Function]}
        crimeID={2}
        currentRowID={0}
        currentTemplate="BootleggingCollectFunds"
        iconClass=""
        isCurrentRow={false}
        itemId={0}
        lastSubCrimeID={0}
        mediaType="desktop"
        nerve={0}
        outcome={Object {}}
        panelItems={
          Array [
            Object {
              "label": "",
              "removeLink": true,
              "value": "",
            },
          ]
        }
        requirements={
          Object {
            "items": Array [
              Object {
                "available": true,
                "label": "",
                "value": "",
              },
            ],
          }
        }
        result=""
        showOutcome={false}
        skillLevel={0}
        skillLevelTotal={0}
        startPooling={[Function]}
        state=""
        subID={0}
        title=""
        user={
          Object {
            "nerve": 2,
          }
        }
      />
    </div>
  </div>
</div>
`;

exports[`<CrimesList /> should render only Copy, Sell and SetupStore subrimes 1`] = `
<div
  className="main-container"
>
  <div
    className="subcrimes-list"
  >
    <Row1Copy
      action={[Function]}
      additionalInfo={
        Object {
          "CDsLeft": true,
          "blankCDs": 0,
          "currentQueue": null,
          "timeForCD": 0,
          "timeLeftForNextCD": 0,
        }
      }
      attempt={[Function]}
      available={true}
      blankCDs={0}
      blankSelectedCDs={false}
      breakSelectedCDs={[Function]}
      cdSelected={false}
      closeOutcome={[Function]}
      crimeID={0}
      currentRowID={0}
      currentTemplate="BootleggingMakeCD"
      genres={Object {}}
      iconClass=""
      isCurrentRow={false}
      itemId={0}
      lastSubCrimeID={0}
      mediaType="desktop"
      nerve={0}
      outcome={Object {}}
      panelItems={
        Array [
          Object {
            "label": "",
            "removeLink": true,
            "value": "",
          },
        ]
      }
      requirements={
        Object {
          "items": Array [
            Object {
              "available": false,
              "label": "",
              "value": 61,
            },
            Object {
              "available": false,
              "label": "",
              "value": 61,
            },
          ],
        }
      }
      result=""
      showCDsSelector={false}
      showOutcome={false}
      skillLevel={0}
      skillLevelTotal={0}
      state=""
      subID={0}
      title=""
      toggleCDsSelector={[Function]}
      user={
        Object {
          "nerve": 2,
        }
      }
    />
    <Row2Sell
      action={[Function]}
      additionalInfo={null}
      attempt={[Function]}
      available={true}
      closeOutcome={[Function]}
      copiedCDs={12}
      crimeID={1}
      currentRowID={0}
      currentTemplate="BootleggingSellCD"
      iconClass=""
      isCurrentRow={false}
      itemId={0}
      lastSubCrimeID={0}
      mediaType="desktop"
      minCrimeLVL={
        Object {
          "available": true,
        }
      }
      nerve={0}
      outcome={Object {}}
      panelItems={
        Array [
          Object {
            "label": "",
            "removeLink": true,
            "value": "",
          },
        ]
      }
      requirements={
        Object {
          "items": Array [
            Object {
              "available": true,
              "label": "",
              "value": "",
            },
          ],
        }
      }
      result=""
      showOutcome={false}
      skillLevel={0}
      skillLevelTotal={0}
      state=""
      subID={0}
      title=""
      user={
        Object {
          "nerve": 2,
        }
      }
      userNerve={0}
    />
    <div
      className="store--wrap"
    >
      <Row3SetupStore
        action={[Function]}
        additionalInfo={
          Object {
            "lastMoneyCheckStamp": 0,
            "moneyToCollect": 0,
          }
        }
        attempt={[Function]}
        available={true}
        callback={[Function]}
        closeOutcome={[Function]}
        crimeID={2}
        current={0}
        currentRowID={0}
        currentTemplate="BootleggingSellCD"
        iconClass=""
        isCurrentRow={false}
        isShopComplete={false}
        itemId={0}
        lastSubCrimeID={0}
        maxProgress={10}
        mediaType="desktop"
        minCrimeLVL={
          Object {
            "available": true,
          }
        }
        minCrimeLevel={
          Object {
            "value": 12,
          }
        }
        nerve={0}
        outcome={Object {}}
        panelItems={
          Array [
            Object {
              "label": "",
              "removeLink": true,
              "value": "",
            },
          ]
        }
        progress={0}
        requirements={
          Object {
            "minCrimeLevel": Object {
              "available": false,
              "value": 50,
            },
          }
        }
        result=""
        showOutcome={false}
        skillLevel={0}
        skillLevelTotal={0}
        state=""
        subID={0}
        title=""
        user={
          Object {
            "nerve": 2,
          }
        }
      />
    </div>
  </div>
</div>
`;

exports[`<CrimesList /> should replace SetupStore subrime on Collect subrime once the first one will be completed in real-time play 1`] = `
<CrimesList
  additionalInfo={
    Object {
      "CDs": Object {},
      "maxProgress": 10,
      "moneyToCollect": 1,
      "progress": 10,
    }
  }
  attemptProgress={Object {}}
  blankCDs={0}
  blankCDsCount={0}
  blankSelectedCDs={false}
  callback={[Function]}
  cdSelected={false}
  collectFundsClass="funds--wrap"
  copiedCDs={12}
  crimes={
    Array [
      Object {
        "additionalInfo": Object {
          "CDsLeft": true,
          "blankCDs": 0,
          "currentQueue": null,
          "timeForCD": 0,
          "timeLeftForNextCD": 0,
        },
        "available": true,
        "crimeID": 0,
        "currentTemplate": "BootleggingMakeCD",
        "iconClass": "",
        "panelItems": Array [
          Object {
            "label": "",
            "removeLink": true,
            "value": "",
          },
        ],
        "requirements": Object {
          "items": Array [
            Object {
              "available": false,
              "label": "",
              "value": 61,
            },
            Object {
              "available": false,
              "label": "",
              "value": 61,
            },
          ],
        },
        "result": "",
        "skillLevel": 0,
        "skillLevelTotal": 0,
        "subID": 0,
        "title": "",
        "user": Object {
          "nerve": 2,
        },
      },
      Object {
        "additionalInfo": null,
        "available": true,
        "crimeID": 1,
        "currentTemplate": "BootleggingSellCD",
        "iconClass": "",
        "panelItems": Array [
          Object {
            "label": "",
            "removeLink": true,
            "value": "",
          },
        ],
        "requirements": Object {
          "items": Array [
            Object {
              "available": true,
              "label": "",
              "value": "",
            },
          ],
        },
        "result": "",
        "skillLevel": 0,
        "skillLevelTotal": 0,
        "subID": 0,
        "title": "",
        "user": Object {
          "nerve": 2,
        },
      },
      Object {
        "additionalInfo": Object {
          "lastMoneyCheckStamp": 0,
          "moneyToCollect": 0,
        },
        "available": true,
        "crimeID": 2,
        "currentTemplate": "BootleggingCollectFunds",
        "iconClass": "",
        "panelItems": Array [
          Object {
            "label": "",
            "removeLink": true,
            "value": "",
          },
        ],
        "requirements": Object {
          "items": Array [
            Object {
              "available": true,
              "label": "",
              "value": "",
            },
          ],
        },
        "result": "",
        "skillLevel": 0,
        "skillLevelTotal": 0,
        "subID": 0,
        "title": "",
        "user": Object {
          "nerve": 2,
        },
      },
    ]
  }
  current={0}
  currentRowID={0}
  findRowForOutcome={
    Array [
      Object {
        "isRowHaveOutcome": false,
        "isRowNotInProgress": true,
        "rowState": "locked",
        "showOutcome": false,
      },
      Object {
        "isRowHaveOutcome": false,
        "isRowNotInProgress": true,
        "rowState": "locked",
        "showOutcome": false,
      },
      Object {
        "isRowHaveOutcome": false,
        "isRowNotInProgress": true,
        "rowState": "locked",
        "showOutcome": false,
      },
    ]
  }
  genres={Object {}}
  isCurrentRow={false}
  isSetupOnlineShop={false}
  lastSubCrimeID={0}
  maxProgress={10}
  mediaType="desktop"
  minCrimeLVL={
    Object {
      "available": true,
    }
  }
  onCurrentRow={false}
  outcome={Object {}}
  progress={0}
  pushCurrentRow={[Function]}
  setupOnlineStoreCompleted={false}
  setupStoreClass="store--wrap"
  showCDsSelector={false}
  startAttempt={[Function]}
  startBreakAttempt={[Function]}
  startPooling={[Function]}
  startToggleCDs={[Function]}
  stat={Object {}}
  user={
    Object {
      "nerve": 2,
    }
  }
  userNerve={0}
>
  <div
    className="main-container"
  >
    <div
      className="subcrimes-list"
    >
      <Row1Copy
        action={[Function]}
        additionalInfo={
          Object {
            "CDsLeft": true,
            "blankCDs": 0,
            "currentQueue": null,
            "timeForCD": 0,
            "timeLeftForNextCD": 0,
          }
        }
        attempt={[Function]}
        available={true}
        blankCDs={0}
        blankSelectedCDs={false}
        breakSelectedCDs={[Function]}
        cdSelected={false}
        closeOutcome={[Function]}
        crimeID={0}
        currentRowID={0}
        currentTemplate="BootleggingMakeCD"
        genres={Object {}}
        iconClass=""
        isCurrentRow={false}
        itemId={0}
        lastSubCrimeID={0}
        mediaType="desktop"
        nerve={0}
        outcome={Object {}}
        panelItems={
          Array [
            Object {
              "label": "",
              "removeLink": true,
              "value": "",
            },
          ]
        }
        requirements={
          Object {
            "items": Array [
              Object {
                "available": false,
                "label": "",
                "value": 61,
              },
              Object {
                "available": false,
                "label": "",
                "value": 61,
              },
            ],
          }
        }
        result=""
        showCDsSelector={false}
        showOutcome={false}
        skillLevel={0}
        skillLevelTotal={0}
        state=""
        subID={0}
        title=""
        toggleCDsSelector={[Function]}
        user={
          Object {
            "nerve": 2,
          }
        }
      >
        <CrimeRow
          additionalInfo={
            Object {
              "CDsLeft": true,
              "blankCDs": 0,
              "currentQueue": null,
              "timeForCD": 0,
              "timeLeftForNextCD": 0,
            }
          }
          attemptsTotal={0}
          available={true}
          blankCDs={0}
          button={
            Object {
              "action": [Function],
              "disabled": true,
              "label": "Copy",
            }
          }
          className=""
          click={[Function]}
          closeOutcome={
            Object {
              "callback": [Function],
              "isActive": true,
            }
          }
          crimeID={0}
          currentRowID={0}
          customImage=""
          dlmForTitle={true}
          genre={1}
          getCurrentOutcome={[Function]}
          iconClass=""
          id={0}
          isCDSelected={false}
          isCurrentRow={false}
          isManualLayoutSetted={false}
          isRowActive={false}
          isRowNotInProgress={false}
          itemId={0}
          lastSubCrimeID={0}
          mediaType="desktop"
          moneyToCollect={0}
          nerve={0}
          nonBorder={false}
          outcome={Object {}}
          rowShouldUpdate={[Function]}
          showOutcome={false}
          spraySelected=""
          state=""
          styles={null}
          subTitle=""
          title=""
          underTitle={true}
        >
          <div
            className="crimeRow"
            style={Object {}}
          >
            <div
              className="topSection"
            >
              <div
                className="image"
              >
                <i
                  className=""
                />
              </div>
              <div
                className="title withUnderneath dlm"
                dangerouslySetInnerHTML={
                  Object {
                    "__html": "",
                  }
                }
              />
              <div
                className="inner_cell_1 underTitle dlm"
              >
                <Dropdown
                  name="selected-state"
                  onChange={[Function]}
                  options={Array []}
                  placeholder="Pop"
                  simpleValue={true}
                  value={1}
                >
                  <Select
                    arrowRenderer={[Function]}
                    autosize={true}
                    backspaceRemoves={true}
                    backspaceToRemoveMessage="Press backspace to remove {label}"
                    clearAllText="Clear all"
                    clearRenderer={[Function]}
                    clearValueText="Clear value"
                    clearable={false}
                    closeOnSelect={true}
                    deleteRemoves={true}
                    delimiter=","
                    disabled={false}
                    escapeClearsValue={true}
                    filterOptions={[Function]}
                    ignoreAccents={true}
                    ignoreCase={true}
                    inputProps={Object {}}
                    isLoading={false}
                    joinValues={false}
                    labelKey="label"
                    matchPos="any"
                    matchProp="any"
                    menuBuffer={0}
                    menuRenderer={[Function]}
                    multi={false}
                    name="selected-state"
                    noResultsText="No results found"
                    onBlurResetsInput={true}
                    onChange={[Function]}
                    onCloseResetsInput={true}
                    onSelectResetsInput={true}
                    openOnClick={true}
                    optionComponent={[Function]}
                    options={Array []}
                    pageSize={5}
                    placeholder="Pop"
                    removeSelected={true}
                    required={false}
                    rtl={false}
                    scrollMenuIntoView={true}
                    searchable={true}
                    simpleValue={true}
                    tabSelectsValue={true}
                    trimFilter={true}
                    value={1}
                    valueComponent={[Function]}
                    valueKey="value"
                  >
                    <div
                      className="Select is-searchable Select--single"
                    >
                      <div
                        className="Select-control"
                        onKeyDown={[Function]}
                        onMouseDown={[Function]}
                        onTouchEnd={[Function]}
                        onTouchMove={[Function]}
                        onTouchStart={[Function]}
                      >
                        <div
                          className="Select-multi-value-wrapper"
                          id="react-select-3--value"
                        >
                          <div
                            className="Select-placeholder"
                          >
                            Pop
                          </div>
                          <AutosizeInput
                            aria-activedescendant="react-select-3--value"
                            aria-expanded="false"
                            aria-haspopup="false"
                            aria-owns=""
                            className="Select-input"
                            injectStyles={true}
                            minWidth="5"
                            onBlur={[Function]}
                            onChange={[Function]}
                            onFocus={[Function]}
                            required={false}
                            role="combobox"
                            value=""
                          >
                            <div
                              className="Select-input"
                              style={
                                Object {
                                  "display": "inline-block",
                                }
                              }
                            >
                              <input
                                aria-activedescendant="react-select-3--value"
                                aria-expanded="false"
                                aria-haspopup="false"
                                aria-owns=""
                                onBlur={[Function]}
                                onChange={[Function]}
                                onFocus={[Function]}
                                required={false}
                                role="combobox"
                                style={
                                  Object {
                                    "boxSizing": "content-box",
                                    "width": "5px",
                                  }
                                }
                                value=""
                              />
                              <div
                                style={
                                  Object {
                                    "height": 0,
                                    "left": 0,
                                    "overflow": "scroll",
                                    "position": "absolute",
                                    "top": 0,
                                    "visibility": "hidden",
                                    "whiteSpace": "pre",
                                  }
                                }
                              />
                            </div>
                          </AutosizeInput>
                        </div>
                        <span
                          className="Select-arrow-zone"
                          onMouseDown={[Function]}
                        >
                          <span
                            className="Select-arrow"
                            onMouseDown={[Function]}
                          />
                        </span>
                      </div>
                    </div>
                  </Select>
                </Dropdown>
              </div>
              <div
                className="inner_cell_2 dlm"
              >
                <div
                  className="required-item-1"
                >
                  <div
                    className="imageWrap responsive locked"
                    id="row_copy-undefined"
                    style={
                      Object {
                        "display": "flex",
                      }
                    }
                  >
                    <img
                      alt="computer"
                      src="/images/items/undefined/blank.png"
                    />
                  </div>
                </div>
                <div
                  className="required-item-2"
                >
                  <button
                    className="imageWrap responsive imageWrapForCDs cdsAddButton selector"
                    id="row_copy-cd_pack"
                    onClick={[Function]}
                    type="button"
                  />
                </div>
              </div>
              <div
                className="nerve dlm"
              />
              <div
                className="action"
              >
                <CrimeRowButton
                  action={[Function]}
                  button={
                    Object {
                      "action": [Function],
                      "disabled": true,
                      "label": "Copy",
                    }
                  }
                  crimeID={0}
                  inProgress={false}
                  isButtonDisabled={[Function]}
                  isDesktop={true}
                  isManualDesktop={false}
                  isRowActive={false}
                  mediaType="desktop"
                  special=""
                  styles={null}
                >
                  <button
                    className="torn-btn gold crimeButton"
                    disabled={true}
                    href="#"
                    id={0}
                    onClick={[Function]}
                    type="button"
                  >
                    Copy
                  </button>
                </CrimeRowButton>
              </div>
            </div>
            <div
              className="bottomSection"
            >
              <CSSTransition
                classNames="rowOutcome"
                in={false}
                onExit={[Function]}
                timeout={
                  Object {
                    "enter": 0,
                    "exit": 350,
                  }
                }
                unmountOnExit={true}
              >
                <Transition
                  appear={false}
                  enter={true}
                  exit={true}
                  in={false}
                  mountOnEnter={false}
                  onEnter={[Function]}
                  onEntered={[Function]}
                  onEntering={[Function]}
                  onExit={[Function]}
                  onExited={[Function]}
                  onExiting={[Function]}
                  timeout={
                    Object {
                      "enter": 0,
                      "exit": 350,
                    }
                  }
                  unmountOnExit={true}
                />
              </CSSTransition>
            </div>
          </div>
        </CrimeRow>
      </Row1Copy>
      <Row2Sell
        action={[Function]}
        additionalInfo={null}
        attempt={[Function]}
        available={true}
        closeOutcome={[Function]}
        copiedCDs={12}
        crimeID={1}
        currentRowID={0}
        currentTemplate="BootleggingSellCD"
        iconClass=""
        isCurrentRow={false}
        itemId={0}
        lastSubCrimeID={0}
        mediaType="desktop"
        nerve={0}
        outcome={Object {}}
        panelItems={
          Array [
            Object {
              "label": "",
              "removeLink": true,
              "value": "",
            },
          ]
        }
        requirements={
          Object {
            "items": Array [
              Object {
                "available": true,
                "label": "",
                "value": "",
              },
            ],
          }
        }
        result=""
        showOutcome={false}
        skillLevel={0}
        skillLevelTotal={0}
        state=""
        subID={0}
        title=""
        user={
          Object {
            "nerve": 2,
          }
        }
        userNerve={0}
      >
        <CrimeRow
          additionalInfo={null}
          attemptsTotal={0}
          available={true}
          button={
            Object {
              "action": [Function],
              "disabled": false,
              "label": "Initiate",
            }
          }
          className=""
          click={[Function]}
          closeOutcome={
            Object {
              "callback": [Function],
              "isActive": true,
            }
          }
          copiedCDs={12}
          crimeID={1}
          currentRowID={0}
          customImage=""
          dlmForTitle={true}
          genre={null}
          getCurrentOutcome={[Function]}
          iconClass=""
          id={0}
          isCDSelected={false}
          isCurrentRow={false}
          isManualLayoutSetted={false}
          isRowActive={false}
          isRowNotInProgress={false}
          itemId={0}
          lastSubCrimeID={0}
          mediaType="desktop"
          moneyToCollect={0}
          nerve={0}
          nonBorder={false}
          outcome={Object {}}
          rowShouldUpdate={[Function]}
          showOutcome={false}
          spraySelected=""
          state=""
          styles={null}
          subTitle=""
          title=""
          underTitle={false}
        >
          <div
            className="crimeRow"
            style={Object {}}
          >
            <div
              className="topSection"
            >
              <div
                className="image"
              >
                <i
                  className=""
                />
              </div>
              <div
                className="title dlm"
                dangerouslySetInnerHTML={
                  Object {
                    "__html": "",
                  }
                }
              />
              <div
                className="inner_cell_1 dlm nonBorder"
              />
              <div
                className="inner_cell_2 dlm nonBorder"
              />
              <div
                className="nerve dlm"
              />
              <div
                className="action"
              >
                <CrimeRowButton
                  action={[Function]}
                  button={
                    Object {
                      "action": [Function],
                      "disabled": false,
                      "label": "Initiate",
                    }
                  }
                  crimeID={1}
                  inProgress={false}
                  isButtonDisabled={[Function]}
                  isDesktop={true}
                  isManualDesktop={false}
                  isRowActive={false}
                  mediaType="desktop"
                  special=""
                  styles={null}
                >
                  <button
                    className="torn-btn gold crimeButton"
                    disabled={false}
                    href="#"
                    id={1}
                    onClick={[Function]}
                    type="button"
                  >
                    Initiate
                  </button>
                </CrimeRowButton>
              </div>
            </div>
            <div
              className="bottomSection"
            >
              <CSSTransition
                classNames="rowOutcome"
                in={false}
                onExit={[Function]}
                timeout={
                  Object {
                    "enter": 0,
                    "exit": 350,
                  }
                }
                unmountOnExit={true}
              >
                <Transition
                  appear={false}
                  enter={true}
                  exit={true}
                  in={false}
                  mountOnEnter={false}
                  onEnter={[Function]}
                  onEntered={[Function]}
                  onEntering={[Function]}
                  onExit={[Function]}
                  onExited={[Function]}
                  onExiting={[Function]}
                  timeout={
                    Object {
                      "enter": 0,
                      "exit": 350,
                    }
                  }
                  unmountOnExit={true}
                />
              </CSSTransition>
            </div>
          </div>
        </CrimeRow>
      </Row2Sell>
      <div
        className="funds--wrap"
      >
        <Row4Collect
          action={[Function]}
          additionalInfo={
            Object {
              "CDs": Object {},
              "maxProgress": 10,
              "moneyToCollect": 1,
              "progress": 10,
            }
          }
          attempt={[Function]}
          available={true}
          callback={[Function]}
          closeOutcome={[Function]}
          crimeID={2}
          currentRowID={0}
          currentTemplate="BootleggingCollectFunds"
          iconClass=""
          isCurrentRow={false}
          itemId={0}
          lastSubCrimeID={0}
          mediaType="desktop"
          nerve={0}
          outcome={Object {}}
          panelItems={
            Array [
              Object {
                "label": "",
                "removeLink": true,
                "value": "",
              },
            ]
          }
          requirements={
            Object {
              "items": Array [
                Object {
                  "available": true,
                  "label": "",
                  "value": "",
                },
              ],
            }
          }
          result=""
          showOutcome={false}
          skillLevel={0}
          skillLevelTotal={0}
          startPooling={[Function]}
          state=""
          subID={0}
          title=""
          user={
            Object {
              "nerve": 2,
            }
          }
        >
          <CrimeRow
            additionalInfo={
              Object {
                "CDs": Object {},
                "maxProgress": 10,
                "moneyToCollect": 1,
                "progress": 10,
              }
            }
            attemptsTotal={0}
            available={true}
            button={
              Object {
                "action": [Function],
                "disabled": false,
                "label": "Collect",
              }
            }
            className=""
            click={[Function]}
            closeOutcome={
              Object {
                "callback": [Function],
                "isActive": true,
              }
            }
            crimeID={2}
            currentRowID={0}
            customImage=""
            dlmForTitle={true}
            genre={null}
            getCurrentOutcome={[Function]}
            iconClass=""
            id={0}
            isCDSelected={false}
            isCurrentRow={false}
            isManualLayoutSetted={false}
            isRowActive={false}
            isRowNotInProgress={false}
            itemId={0}
            lastSubCrimeID={0}
            mediaType="desktop"
            moneyToCollect={0}
            nerve={0}
            nonBorder={false}
            outcome={Object {}}
            rowShouldUpdate={[Function]}
            showOutcome={false}
            spraySelected=""
            state=""
            styles={null}
            subTitle=""
            title=""
            underTitle={true}
          >
            <div
              className="crimeRow"
              style={Object {}}
            >
              <div
                className="topSection"
              >
                <div
                  className="image"
                >
                  <i
                    className=""
                  />
                </div>
                <div
                  className="title withUnderneath dlm"
                  dangerouslySetInnerHTML={
                    Object {
                      "__html": "",
                    }
                  }
                />
                <div
                  className="inner_cell_1 underTitle
     dlm center amountWrap"
                >
                  <span
                    className="amount-dollars"
                    key="1"
                  >
                    $
                  </span>
                  <TransitionGroup
                    childFactory={[Function]}
                    className="amount-wrap"
                    component="div"
                  >
                    <div
                      className="amount-wrap"
                    >
                      <CSSTransition
                        classNames="amount"
                        component="div"
                        in={true}
                        key=".$1"
                        onExited={[Function]}
                        style={
                          Object {
                            "width": "9px",
                          }
                        }
                        timeout={
                          Object {
                            "enter": 400,
                            "exit": 1000,
                          }
                        }
                      >
                        <Transition
                          appear={false}
                          component="div"
                          enter={true}
                          exit={true}
                          in={true}
                          mountOnEnter={false}
                          onEnter={[Function]}
                          onEntered={[Function]}
                          onEntering={[Function]}
                          onExit={[Function]}
                          onExited={[Function]}
                          onExiting={[Function]}
                          style={
                            Object {
                              "width": "9px",
                            }
                          }
                          timeout={
                            Object {
                              "enter": 400,
                              "exit": 1000,
                            }
                          }
                          unmountOnExit={false}
                        >
                          <span
                            className="amount"
                            component="div"
                            style={
                              Object {
                                "width": "9px",
                              }
                            }
                          >
                            1
                          </span>
                        </Transition>
                      </CSSTransition>
                    </div>
                  </TransitionGroup>
                </div>
                <div
                  className="nerve dlm"
                />
                <div
                  className="action"
                >
                  <CrimeRowButton
                    action={[Function]}
                    button={
                      Object {
                        "action": [Function],
                        "disabled": false,
                        "label": "Collect",
                      }
                    }
                    crimeID={2}
                    inProgress={false}
                    isButtonDisabled={[Function]}
                    isDesktop={true}
                    isManualDesktop={false}
                    isRowActive={false}
                    mediaType="desktop"
                    special=""
                    styles={null}
                  >
                    <button
                      className="torn-btn gold crimeButton"
                      disabled={false}
                      href="#"
                      id={2}
                      onClick={[Function]}
                      type="button"
                    >
                      Collect
                    </button>
                  </CrimeRowButton>
                </div>
              </div>
              <div
                className="bottomSection"
              >
                <CSSTransition
                  classNames="rowOutcome"
                  in={false}
                  onExit={[Function]}
                  timeout={
                    Object {
                      "enter": 0,
                      "exit": 350,
                    }
                  }
                  unmountOnExit={true}
                >
                  <Transition
                    appear={false}
                    enter={true}
                    exit={true}
                    in={false}
                    mountOnEnter={false}
                    onEnter={[Function]}
                    onEntered={[Function]}
                    onEntering={[Function]}
                    onExit={[Function]}
                    onExited={[Function]}
                    onExiting={[Function]}
                    timeout={
                      Object {
                        "enter": 0,
                        "exit": 350,
                      }
                    }
                    unmountOnExit={true}
                  />
                </CSSTransition>
              </div>
            </div>
          </CrimeRow>
        </Row4Collect>
      </div>
    </div>
  </div>
</CrimesList>
`;
