// Jest Snapshot v1, https://goo.gl/fbAQLP

exports[`<Skeletons /> should render basic skeletons markup 1`] = `
<Memo(RowsSkeleton)>
  <div
    className="rowsSkeletonsWrap"
  >
    <div
      className="rowContainer"
      key="0"
    >
      <div
        className="section sectionSkeleton"
      >
        <span
          className="ammoIcon"
        />
        <span
          className="ammoTitle"
        />
        <span
          className="ammoValue"
        />
      </div>
      <div
        className="section sectionSkeleton"
      />
      <div
        className="section sectionSkeleton"
      />
      <div
        className="section sectionSkeleton"
      />
      <div
        className="section sectionSkeleton"
      />
      <div
        className="section sectionSkeleton"
      />
    </div>
    <div
      className="rowContainer"
      key="1"
    >
      <div
        className="section sectionSkeleton"
      >
        <span
          className="ammoIcon"
        />
        <span
          className="ammoTitle"
        />
        <span
          className="ammoValue"
        />
      </div>
      <div
        className="section sectionSkeleton"
      />
      <div
        className="section sectionSkeleton"
      />
      <div
        className="section sectionSkeleton"
      />
      <div
        className="section sectionSkeleton"
      />
      <div
        className="section sectionSkeleton"
      />
    </div>
    <div
      className="rowContainer"
      key="2"
    >
      <div
        className="section sectionSkeleton"
      >
        <span
          className="ammoIcon"
        />
        <span
          className="ammoTitle"
        />
        <span
          className="ammoValue"
        />
      </div>
      <div
        className="section sectionSkeleton"
      />
      <div
        className="section sectionSkeleton"
      />
      <div
        className="section sectionSkeleton"
      />
      <div
        className="section sectionSkeleton"
      />
      <div
        className="section sectionSkeleton"
      />
    </div>
    <div
      className="rowContainer"
      key="3"
    >
      <div
        className="section sectionSkeleton"
      >
        <span
          className="ammoIcon"
        />
        <span
          className="ammoTitle"
        />
        <span
          className="ammoValue"
        />
      </div>
      <div
        className="section sectionSkeleton"
      />
      <div
        className="section sectionSkeleton"
      />
      <div
        className="section sectionSkeleton"
      />
      <div
        className="section sectionSkeleton"
      />
      <div
        className="section sectionSkeleton"
      />
    </div>
    <div
      className="rowContainer"
      key="4"
    >
      <div
        className="section sectionSkeleton"
      >
        <span
          className="ammoIcon"
        />
        <span
          className="ammoTitle"
        />
        <span
          className="ammoValue"
        />
      </div>
      <div
        className="section sectionSkeleton"
      />
      <div
        className="section sectionSkeleton"
      />
      <div
        className="section sectionSkeleton"
      />
      <div
        className="section sectionSkeleton"
      />
      <div
        className="section sectionSkeleton"
      />
    </div>
    <div
      className="rowContainer"
      key="5"
    >
      <div
        className="section sectionSkeleton"
      >
        <span
          className="ammoIcon"
        />
        <span
          className="ammoTitle"
        />
        <span
          className="ammoValue"
        />
      </div>
      <div
        className="section sectionSkeleton"
      />
      <div
        className="section sectionSkeleton"
      />
      <div
        className="section sectionSkeleton"
      />
      <div
        className="section sectionSkeleton"
      />
      <div
        className="section sectionSkeleton"
      />
    </div>
  </div>
</Memo(RowsSkeleton)>
`;
