// Jest Snapshot v1, https://goo.gl/fbAQLP

exports[`<CrimeRowButton /> should return Gold Star and after 3 sec switch on regular button (rare outcome) 1`] = `
<CrimeRowButton
  action={[Function]}
  button={
    Object {
      "disabled": false,
      "label": "ATTEMPT",
    }
  }
  crimeID={0}
  isButtonDisabled={[Function]}
  isDesktop={false}
  isManualDesktop={false}
  isRowActive={true}
  mediaType="desktop"
  special="rare"
>
  <div
    className="pseudoBtnGoldContainer"
  >
    <CooldownStar
      hide={[Function]}
      isStarShown={false}
    >
      <div
        className="cooldownStarWrap"
      >
        <CooldownStar>
          <div
            className="cooldownWrap"
          >
            <svg
              height="100%"
              preserveAspectRatio="xMidYMid"
              viewBox="0 0 100 100"
              width="100%"
              xmlns="http://www.w3.org/2000/svg"
            >
              <g
                key="3"
                transform="rotate(0 50 50)"
              >
                <rect
                  className="diamondFi"
                  fill="#d9a301"
                  height={17}
                  rx={0}
                  ry={0}
                  style={
                    Object {
                      "animationDelay": "3s",
                    }
                  }
                  width={4}
                  x={48.5}
                  y={0}
                />
              </g>
              <g
                key="17.875"
                transform="rotate(15 50 50)"
              >
                <rect
                  className="diamondFi"
                  fill="#d9a301"
                  height={17}
                  rx={0}
                  ry={0}
                  style={
                    Object {
                      "animationDelay": "2.875s",
                    }
                  }
                  width={4}
                  x={48.5}
                  y={0}
                />
              </g>
              <g
                key="32.75"
                transform="rotate(30 50 50)"
              >
                <rect
                  className="diamondFi"
                  fill="#d9a301"
                  height={17}
                  rx={0}
                  ry={0}
                  style={
                    Object {
                      "animationDelay": "2.75s",
                    }
                  }
                  width={4}
                  x={48.5}
                  y={0}
                />
              </g>
              <g
                key="47.625"
                transform="rotate(45 50 50)"
              >
                <rect
                  className="diamondFi"
                  fill="#d9a301"
                  height={17}
                  rx={0}
                  ry={0}
                  style={
                    Object {
                      "animationDelay": "2.625s",
                    }
                  }
                  width={4}
                  x={48.5}
                  y={0}
                />
              </g>
              <g
                key="62.5"
                transform="rotate(60 50 50)"
              >
                <rect
                  className="diamondFi"
                  fill="#d9a301"
                  height={17}
                  rx={0}
                  ry={0}
                  style={
                    Object {
                      "animationDelay": "2.5s",
                    }
                  }
                  width={4}
                  x={48.5}
                  y={0}
                />
              </g>
              <g
                key="77.375"
                transform="rotate(75 50 50)"
              >
                <rect
                  className="diamondFi"
                  fill="#d9a301"
                  height={17}
                  rx={0}
                  ry={0}
                  style={
                    Object {
                      "animationDelay": "2.375s",
                    }
                  }
                  width={4}
                  x={48.5}
                  y={0}
                />
              </g>
              <g
                key="92.25"
                transform="rotate(90 50 50)"
              >
                <rect
                  className="diamondFi"
                  fill="#d9a301"
                  height={17}
                  rx={0}
                  ry={0}
                  style={
                    Object {
                      "animationDelay": "2.25s",
                    }
                  }
                  width={4}
                  x={48.5}
                  y={0}
                />
              </g>
              <g
                key="107.125"
                transform="rotate(105 50 50)"
              >
                <rect
                  className="diamondFi"
                  fill="#d9a301"
                  height={17}
                  rx={0}
                  ry={0}
                  style={
                    Object {
                      "animationDelay": "2.125s",
                    }
                  }
                  width={4}
                  x={48.5}
                  y={0}
                />
              </g>
              <g
                key="122"
                transform="rotate(120 50 50)"
              >
                <rect
                  className="diamondFi"
                  fill="#d9a301"
                  height={17}
                  rx={0}
                  ry={0}
                  style={
                    Object {
                      "animationDelay": "2s",
                    }
                  }
                  width={4}
                  x={48.5}
                  y={0}
                />
              </g>
              <g
                key="136.875"
                transform="rotate(135 50 50)"
              >
                <rect
                  className="diamondFi"
                  fill="#d9a301"
                  height={17}
                  rx={0}
                  ry={0}
                  style={
                    Object {
                      "animationDelay": "1.875s",
                    }
                  }
                  width={4}
                  x={48.5}
                  y={0}
                />
              </g>
              <g
                key="151.75"
                transform="rotate(150 50 50)"
              >
                <rect
                  className="diamondFi"
                  fill="#d9a301"
                  height={17}
                  rx={0}
                  ry={0}
                  style={
                    Object {
                      "animationDelay": "1.75s",
                    }
                  }
                  width={4}
                  x={48.5}
                  y={0}
                />
              </g>
              <g
                key="166.625"
                transform="rotate(165 50 50)"
              >
                <rect
                  className="diamondFi"
                  fill="#d9a301"
                  height={17}
                  rx={0}
                  ry={0}
                  style={
                    Object {
                      "animationDelay": "1.625s",
                    }
                  }
                  width={4}
                  x={48.5}
                  y={0}
                />
              </g>
              <g
                key="181.5"
                transform="rotate(180 50 50)"
              >
                <rect
                  className="diamondFi"
                  fill="#d9a301"
                  height={17}
                  rx={0}
                  ry={0}
                  style={
                    Object {
                      "animationDelay": "1.5s",
                    }
                  }
                  width={4}
                  x={48.5}
                  y={0}
                />
              </g>
              <g
                key="196.375"
                transform="rotate(195 50 50)"
              >
                <rect
                  className="diamondFi"
                  fill="#d9a301"
                  height={17}
                  rx={0}
                  ry={0}
                  style={
                    Object {
                      "animationDelay": "1.375s",
                    }
                  }
                  width={4}
                  x={48.5}
                  y={0}
                />
              </g>
              <g
                key="211.25"
                transform="rotate(210 50 50)"
              >
                <rect
                  className="diamondFi"
                  fill="#d9a301"
                  height={17}
                  rx={0}
                  ry={0}
                  style={
                    Object {
                      "animationDelay": "1.25s",
                    }
                  }
                  width={4}
                  x={48.5}
                  y={0}
                />
              </g>
              <g
                key="226.125"
                transform="rotate(225 50 50)"
              >
                <rect
                  className="diamondFi"
                  fill="#d9a301"
                  height={17}
                  rx={0}
                  ry={0}
                  style={
                    Object {
                      "animationDelay": "1.125s",
                    }
                  }
                  width={4}
                  x={48.5}
                  y={0}
                />
              </g>
              <g
                key="241"
                transform="rotate(240 50 50)"
              >
                <rect
                  className="diamondFi"
                  fill="#d9a301"
                  height={17}
                  rx={0}
                  ry={0}
                  style={
                    Object {
                      "animationDelay": "1s",
                    }
                  }
                  width={4}
                  x={48.5}
                  y={0}
                />
              </g>
              <g
                key="255.875"
                transform="rotate(255 50 50)"
              >
                <rect
                  className="diamondFi"
                  fill="#d9a301"
                  height={17}
                  rx={0}
                  ry={0}
                  style={
                    Object {
                      "animationDelay": "0.875s",
                    }
                  }
                  width={4}
                  x={48.5}
                  y={0}
                />
              </g>
              <g
                key="270.75"
                transform="rotate(270 50 50)"
              >
                <rect
                  className="diamondFi"
                  fill="#d9a301"
                  height={17}
                  rx={0}
                  ry={0}
                  style={
                    Object {
                      "animationDelay": "0.75s",
                    }
                  }
                  width={4}
                  x={48.5}
                  y={0}
                />
              </g>
              <g
                key="285.625"
                transform="rotate(285 50 50)"
              >
                <rect
                  className="diamondFi"
                  fill="#d9a301"
                  height={17}
                  rx={0}
                  ry={0}
                  style={
                    Object {
                      "animationDelay": "0.625s",
                    }
                  }
                  width={4}
                  x={48.5}
                  y={0}
                />
              </g>
              <g
                key="300.5"
                transform="rotate(300 50 50)"
              >
                <rect
                  className="diamondFi"
                  fill="#d9a301"
                  height={17}
                  rx={0}
                  ry={0}
                  style={
                    Object {
                      "animationDelay": "0.5s",
                    }
                  }
                  width={4}
                  x={48.5}
                  y={0}
                />
              </g>
              <g
                key="315.375"
                transform="rotate(315 50 50)"
              >
                <rect
                  className="diamondFi"
                  fill="#d9a301"
                  height={17}
                  rx={0}
                  ry={0}
                  style={
                    Object {
                      "animationDelay": "0.375s",
                    }
                  }
                  width={4}
                  x={48.5}
                  y={0}
                />
              </g>
              <g
                key="330.25"
                transform="rotate(330 50 50)"
              >
                <rect
                  className="diamondFi"
                  fill="#d9a301"
                  height={17}
                  rx={0}
                  ry={0}
                  style={
                    Object {
                      "animationDelay": "0.25s",
                    }
                  }
                  width={4}
                  x={48.5}
                  y={0}
                />
              </g>
              <g
                key="345.125"
                transform="rotate(345 50 50)"
              >
                <rect
                  className="diamondFi"
                  fill="#d9a301"
                  height={17}
                  rx={0}
                  ry={0}
                  style={
                    Object {
                      "animationDelay": "0.125s",
                    }
                  }
                  width={4}
                  x={48.5}
                  y={0}
                />
              </g>
            </svg>
          </div>
        </CooldownStar>
        <Star>
          <div
            className="starWrap"
          >
            <SVGIconGenerator
              dimensions={
                Object {
                  "height": "100%",
                  "viewbox": "0 0 5 5",
                  "width": "100%",
                }
              }
              fill={
                Object {
                  "color": "url(#cooldownStar)",
                  "stroke": "0",
                  "strokeWidth": "0",
                }
              }
              filter={
                Object {
                  "active": false,
                }
              }
              gradient={
                Object {
                  "ID": "cooldownStar",
                  "active": true,
                  "scheme": Array [
                    Object {
                      "color": "#b28500",
                      "step": "0",
                    },
                    Object {
                      "color": "#ffbf00",
                      "step": "1",
                    },
                  ],
                  "transform": "rotate(90)",
                }
              }
              iconName="Star"
            />
          </div>
        </Star>
      </div>
    </CooldownStar>
  </div>
</CrimeRowButton>
`;

exports[`<CrimeRowButton /> should return Gold Star and after 3 sec switch on regular button (rare outcome) 2`] = `
<CrimeRowButton
  action={[Function]}
  button={
    Object {
      "disabled": false,
      "label": "ATTEMPT",
    }
  }
  crimeID={0}
  isButtonDisabled={[Function]}
  isDesktop={false}
  isManualDesktop={false}
  isRowActive={true}
  mediaType="desktop"
  special="rare"
>
  <button
    className="torn-btn gold crimeButton"
    disabled={false}
    href="#"
    id={0}
    onClick={[Function]}
    type="button"
  >
    ATTEMPT
  </button>
</CrimeRowButton>
`;

exports[`<CrimeRowButton /> should return active main crime row button with onClick action event 1`] = `
<button
  className="torn-btn gold crimeButton"
  disabled={false}
  href="#"
  id={0}
  onClick={[Function]}
  type="button"
>
  ATTEMPT
</button>
`;

exports[`<CrimeRowButton /> should return active main crime row button with onClick action event 2`] = `
<button
  className="torn-btn gold crimeButton"
  disabled={false}
  href="#"
  id={0}
  onClick={[Function]}
  type="button"
>
  ATTEMPT
</button>
`;

exports[`<CrimeRowButton /> should return disabled main crime row button 1`] = `
<button
  className="torn-btn gold crimeButton"
  disabled={true}
  href="#"
  id={0}
  onClick={[Function]}
  type="button"
>
  ATTEMPT
</button>
`;

exports[`<CrimeRowButton /> should return load crime row button animation in case of inProgress === true 1`] = `
<div
  className="pseudoBtnGoldContainer"
>
  <AnimationLoad
    animationDuaration={null}
    dotsColor="black"
    dotsCount={3}
    isAdaptive={true}
  />
</div>
`;
