// Jest Snapshot v1, https://goo.gl/fbAQLP

exports[`<Row2Sell /> attempt button should be active 1`] = `
<CrimeRow
  additionalInfo={Object {}}
  attemptsTotal={0}
  available={true}
  button={
    Object {
      "action": [Function],
      "disabled": false,
      "label": "Initiate",
    }
  }
  className="active"
  click={[Function]}
  closeOutcome={
    Object {
      "callback": undefined,
      "isActive": true,
    }
  }
  copiedCDs={2}
  crimeID={2}
  currentRowID={2}
  customImage=""
  dlmForTitle={true}
  genre={null}
  getCurrentOutcome={[Function]}
  iconClass=""
  id={0}
  isCDSelected={false}
  isCurrentRow={false}
  isManualLayoutSetted={false}
  isRowActive={true}
  isRowNotInProgress={false}
  itemId={0}
  jailed={false}
  lastSubCrimeID={0}
  mediaType="desktop"
  moneyToCollect={0}
  nerve={0}
  nonBorder={false}
  outcome={Object {}}
  rowShouldUpdate={[Function]}
  showOutcome={true}
  spraySelected=""
  state=""
  styles={null}
  subID={null}
  subTitle=""
  title=""
  underTitle={false}
>
  <div
    className="inner_cell_1 dlm nonBorder"
  />
  <div
    className="inner_cell_2 dlm nonBorder"
  />
</CrimeRow>
`;

exports[`<Row2Sell /> attempt button should be disabled 1`] = `
<CrimeRow
  additionalInfo={Object {}}
  attemptsTotal={0}
  available={false}
  button={
    Object {
      "action": [Function],
      "disabled": true,
      "label": "Initiate",
    }
  }
  className=""
  click={[Function]}
  closeOutcome={
    Object {
      "callback": undefined,
      "isActive": true,
    }
  }
  copiedCDs={0}
  crimeID={2}
  currentRowID={2}
  customImage=""
  dlmForTitle={true}
  genre={null}
  getCurrentOutcome={[Function]}
  iconClass=""
  id={0}
  isCDSelected={false}
  isCurrentRow={false}
  isManualLayoutSetted={false}
  isRowActive={false}
  isRowNotInProgress={false}
  itemId={0}
  jailed={false}
  lastSubCrimeID={0}
  mediaType="desktop"
  moneyToCollect={0}
  nerve={0}
  nonBorder={false}
  outcome={Object {}}
  rowShouldUpdate={[Function]}
  showOutcome={true}
  spraySelected=""
  state=""
  styles={null}
  subID={null}
  subTitle=""
  title=""
  underTitle={false}
>
  <div
    className="inner_cell_1 dlm nonBorder"
  />
  <div
    className="inner_cell_2 dlm nonBorder"
  />
</CrimeRow>
`;

exports[`<Row2Sell /> row should have 'active' className if clicked his attempt button 1`] = `
<CrimeRow
  additionalInfo={Object {}}
  attemptsTotal={0}
  available={true}
  button={
    Object {
      "action": [Function],
      "disabled": false,
      "label": "Initiate",
    }
  }
  className="active"
  click={[Function]}
  closeOutcome={
    Object {
      "callback": undefined,
      "isActive": true,
    }
  }
  copiedCDs={2}
  crimeID={2}
  currentRowID={2}
  customImage=""
  dlmForTitle={true}
  genre={null}
  getCurrentOutcome={[Function]}
  iconClass=""
  id={0}
  isCDSelected={false}
  isCurrentRow={false}
  isManualLayoutSetted={false}
  isRowActive={true}
  isRowNotInProgress={false}
  itemId={0}
  jailed={false}
  lastSubCrimeID={0}
  mediaType="desktop"
  moneyToCollect={0}
  nerve={0}
  nonBorder={false}
  outcome={Object {}}
  rowShouldUpdate={[Function]}
  showOutcome={true}
  spraySelected=""
  state=""
  styles={null}
  subID={null}
  subTitle=""
  title=""
  underTitle={false}
>
  <div
    className="inner_cell_1 dlm nonBorder"
  />
  <div
    className="inner_cell_2 dlm nonBorder"
  />
</CrimeRow>
`;

exports[`<Row2Sell /> should render the 1st cell in the desktop mode 1`] = `
<CrimeRow
  additionalInfo={Object {}}
  attemptsTotal={0}
  available={false}
  button={
    Object {
      "action": [Function],
      "disabled": true,
      "label": "Initiate",
    }
  }
  className=""
  click={[Function]}
  closeOutcome={
    Object {
      "callback": undefined,
      "isActive": true,
    }
  }
  copiedCDs={0}
  crimeID={2}
  currentRowID={2}
  customImage=""
  dlmForTitle={true}
  genre={null}
  getCurrentOutcome={[Function]}
  iconClass=""
  id={0}
  isCDSelected={false}
  isCurrentRow={false}
  isManualLayoutSetted={false}
  isRowActive={false}
  isRowNotInProgress={false}
  itemId={0}
  jailed={false}
  lastSubCrimeID={0}
  mediaType="desktop"
  moneyToCollect={0}
  nerve={0}
  nonBorder={false}
  outcome={Object {}}
  rowShouldUpdate={[Function]}
  showOutcome={true}
  spraySelected=""
  state=""
  styles={null}
  subID={null}
  subTitle=""
  title=""
  underTitle={false}
>
  <div
    className="inner_cell_1 dlm nonBorder"
  />
  <div
    className="inner_cell_2 dlm nonBorder"
  />
</CrimeRow>
`;

exports[`<Row2Sell /> should render the row 1`] = `
<CrimeRow
  additionalInfo={Object {}}
  attemptsTotal={0}
  available={false}
  button={
    Object {
      "action": [Function],
      "disabled": true,
      "label": "Initiate",
    }
  }
  className=""
  click={[Function]}
  closeOutcome={
    Object {
      "callback": undefined,
      "isActive": true,
    }
  }
  copiedCDs={0}
  crimeID={2}
  currentRowID={2}
  customImage=""
  dlmForTitle={true}
  genre={null}
  getCurrentOutcome={[Function]}
  iconClass=""
  id={0}
  isCDSelected={false}
  isCurrentRow={false}
  isManualLayoutSetted={false}
  isRowActive={false}
  isRowNotInProgress={false}
  itemId={0}
  jailed={false}
  lastSubCrimeID={0}
  mediaType="desktop"
  moneyToCollect={0}
  nerve={0}
  nonBorder={false}
  outcome={Object {}}
  rowShouldUpdate={[Function]}
  showOutcome={true}
  spraySelected=""
  state=""
  styles={null}
  subID={null}
  subTitle=""
  title=""
  underTitle={false}
>
  <div
    className="inner_cell_1 dlm nonBorder"
  />
  <div
    className="inner_cell_2 dlm nonBorder"
  />
</CrimeRow>
`;
