// Jest Snapshot v1, https://goo.gl/fbAQLP

exports[`<Columns /> should render basic columns markup in desktop mode 1`] = `
<Memo(Columns)
  isManualDesktopMode={false}
  mediaType="desktop"
>
  <div
    className="columnsWrap"
  >
    <Memo(Column)
      key="Ammo"
      title="Ammo"
      tooltip=""
    >
      <span
        className="column"
        id=""
      >
        Ammo
      </span>
    </Memo(Column)>
    <Memo(Column)
      key="Buy"
      title="Buy"
      tooltip=""
    >
      <span
        className="column"
        id=""
      >
        Buy
      </span>
    </Memo(Column)>
    <Memo(Column)
      key="Hollow Point"
      title="Hollow Point"
      tooltip="Increases damage by 50% but decreases penetration by 50%"
    >
      <span
        className="column"
        id="Hollow Point"
      >
        Hollow Point
      </span>
    </Memo(Column)>
    <Memo(Column)
      key="Tracer"
      title="Tracer"
      tooltip="Increases accuracy of shots by +10"
    >
      <span
        className="column"
        id="Tracer"
      >
        Tracer
      </span>
    </Memo(Column)>
    <Memo(Column)
      key="Piercing"
      title="Piercing"
      tooltip="Increases penetration by 50%"
    >
      <span
        className="column"
        id="Piercing"
      >
        Piercing
      </span>
    </Memo(Column)>
    <Memo(Column)
      key="Incendiary"
      title="Incendiary"
      tooltip="Increases damage by 40%"
    >
      <span
        className="column"
        id="Incendiary"
      >
        Incendiary
      </span>
    </Memo(Column)>
  </div>
</Memo(Columns)>
`;

exports[`<Columns /> should render columns in manualDesktop mode 1`] = `
<Memo(Columns)
  isManualDesktopMode={true}
  mediaType="desktop"
>
  <div
    className="columnsWrap"
  >
    <Memo(Column)
      key="Ammo"
      title="Ammo"
      tooltip=""
    >
      <span
        className="column"
        id=""
      >
        Ammo
      </span>
    </Memo(Column)>
    <Memo(Column)
      key="Buy"
      title="Buy"
      tooltip=""
    >
      <span
        className="column"
        id=""
      >
        Buy
      </span>
    </Memo(Column)>
    <Memo(Column)
      key="Hollow Point"
      title="Hollow Point"
      tooltip="Increases damage by 50% but decreases penetration by 50%"
    >
      <span
        className="column"
        id="Hollow Point"
      >
        Hollow Point
      </span>
    </Memo(Column)>
    <Memo(Column)
      key="Tracer"
      title="Tracer"
      tooltip="Increases accuracy of shots by +10"
    >
      <span
        className="column"
        id="Tracer"
      >
        Tracer
      </span>
    </Memo(Column)>
    <Memo(Column)
      key="Piercing"
      title="Piercing"
      tooltip="Increases penetration by 50%"
    >
      <span
        className="column"
        id="Piercing"
      >
        Piercing
      </span>
    </Memo(Column)>
    <Memo(Column)
      key="Incendiary"
      title="Incendiary"
      tooltip="Increases damage by 40%"
    >
      <span
        className="column"
        id="Incendiary"
      >
        Incendiary
      </span>
    </Memo(Column)>
  </div>
</Memo(Columns)>
`;

exports[`<Columns /> should render columns in mobile mode 1`] = `
<Memo(Columns)
  isManualDesktopMode={false}
  mediaType="mobile"
>
  <div
    className="columnsWrap"
  >
    <Memo(Column)
      key="Ammo"
      title="Ammo"
      tooltip=""
    >
      <span
        className="column"
        id=""
      >
        Ammo
      </span>
    </Memo(Column)>
    <Memo(Column)
      key="Buy"
      title="Buy"
      tooltip=""
    >
      <span
        className="column"
        id=""
      >
        Buy
      </span>
    </Memo(Column)>
    <Memo(Column)
      key="Hollow"
      title="Hollow"
      tooltip="Increases damage by 50% but decreases penetration by 50%"
    >
      <span
        className="column"
        id="Hollow"
      >
        Hollow
      </span>
    </Memo(Column)>
    <Memo(Column)
      key="Tracer"
      title="Tracer"
      tooltip="Increases accuracy of shots by +10"
    >
      <span
        className="column"
        id="Tracer"
      >
        Tracer
      </span>
    </Memo(Column)>
    <Memo(Column)
      key="Piercing"
      title="Piercing"
      tooltip="Increases penetration by 50%"
    >
      <span
        className="column"
        id="Piercing"
      >
        Piercing
      </span>
    </Memo(Column)>
    <Memo(Column)
      key="Incendiary"
      title="Incendiary"
      tooltip="Increases damage by 40%"
    >
      <span
        className="column"
        id="Incendiary"
      >
        Incendiary
      </span>
    </Memo(Column)>
  </div>
</Memo(Columns)>
`;

exports[`<Columns /> should render columns in tablet mode 1`] = `
<Memo(Columns)
  isManualDesktopMode={false}
  mediaType="tablet"
>
  <div
    className="columnsWrap"
  >
    <Memo(Column)
      key="Ammo"
      title="Ammo"
      tooltip=""
    >
      <span
        className="column"
        id=""
      >
        Ammo
      </span>
    </Memo(Column)>
    <Memo(Column)
      key="Buy"
      title="Buy"
      tooltip=""
    >
      <span
        className="column"
        id=""
      >
        Buy
      </span>
    </Memo(Column)>
    <Memo(Column)
      key="Hollow"
      title="Hollow"
      tooltip="Increases damage by 50% but decreases penetration by 50%"
    >
      <span
        className="column"
        id="Hollow"
      >
        Hollow
      </span>
    </Memo(Column)>
    <Memo(Column)
      key="Tracer"
      title="Tracer"
      tooltip="Increases accuracy of shots by +10"
    >
      <span
        className="column"
        id="Tracer"
      >
        Tracer
      </span>
    </Memo(Column)>
    <Memo(Column)
      key="Piercing"
      title="Piercing"
      tooltip="Increases penetration by 50%"
    >
      <span
        className="column"
        id="Piercing"
      >
        Piercing
      </span>
    </Memo(Column)>
    <Memo(Column)
      key="Incendiary"
      title="Incendiary"
      tooltip="Increases damage by 40%"
    >
      <span
        className="column"
        id="Incendiary"
      >
        Incendiary
      </span>
    </Memo(Column)>
  </div>
</Memo(Columns)>
`;
