// Jest Snapshot v1, https://goo.gl/fbAQLP

exports[`<CanSelector /> should close PopUp on any other click 1`] = `
<CanSelector
  colorsIDs={
    Object {
      "Black": 857,
      "Green": 857,
      "Red": 857,
    }
  }
  id={0}
  isDesktopLayoutSetted={false}
  items={
    Array [
      Object {
        "available": true,
        "color": "Red",
      },
      Object {
        "available": true,
        "color": "Black",
      },
      Object {
        "available": true,
        "color": "Green",
      },
      Object {
        "available": false,
        "color": "Green",
      },
    ]
  }
  mediaType="desktop"
  outcomeHeight={81}
  outcomeOffestTop={0}
  startIsCanSelectorVisible={[Function]}
  startSelectCan={[Function]}
  usedCrimeID={null}
  visible={true}
>
  <Popup
    closePopUp={[Function]}
    outcomeHeight={81}
    outcomeOffestTop={0}
    pos={
      Object {
        "left": 391,
        "top": 105,
      }
    }
    styleRelative="true"
  >
    <div
      className="popup ui-tooltip ui-widget ui-corner-all ui-widget-content white-tooltip"
      onBlur={[Function]}
      role="button"
      style={
        Object {
          "left": "391px",
          "position": "absolute",
          "top": "186px",
        }
      }
      tabIndex="0"
    >
      <div
        className="sprayCanWrap"
      >
        <button
          className="sprayCan"
          key="0"
          onMouseDown={[Function]}
          type="button"
        >
          <img
            alt="item"
            className="sprayImg"
            data-available={true}
            data-color="Red"
            src="/images/items/857/medium.png"
          />
        </button>
        <button
          className="sprayCan"
          key="1"
          onMouseDown={[Function]}
          type="button"
        >
          <img
            alt="item"
            className="sprayImg"
            data-available={true}
            data-color="Black"
            src="/images/items/857/medium.png"
          />
        </button>
        <button
          className="sprayCan"
          key="2"
          onMouseDown={[Function]}
          type="button"
        >
          <img
            alt="item"
            className="sprayImg"
            data-available={true}
            data-color="Green"
            src="/images/items/857/medium.png"
          />
        </button>
        <button
          className="sprayCan"
          key="3"
          onMouseDown={[Function]}
          type="button"
        >
          <img
            alt="item"
            className="sprayImg"
            data-available={false}
            data-color="Green"
            src="/images/items/857/blank.png"
          />
        </button>
      </div>
      <div
        className="p10 text-a-center"
      >
        Select Spray Color
      </div>
      <div
        className="tooltip-arrow left bottom"
        style={
          Object {
            "top": [Window],
          }
        }
      />
    </div>
  </Popup>
</CanSelector>
`;

exports[`<CanSelector /> should close PopUp on any other click 2`] = `
<CanSelector
  colorsIDs={
    Object {
      "Black": 857,
      "Green": 857,
      "Red": 857,
    }
  }
  id={0}
  isDesktopLayoutSetted={false}
  items={
    Array [
      Object {
        "available": true,
        "color": "Red",
      },
      Object {
        "available": true,
        "color": "Black",
      },
      Object {
        "available": true,
        "color": "Green",
      },
      Object {
        "available": false,
        "color": "Green",
      },
    ]
  }
  mediaType="desktop"
  outcomeHeight={81}
  outcomeOffestTop={0}
  startIsCanSelectorVisible={[Function]}
  startSelectCan={[Function]}
  usedCrimeID={null}
  visible={false}
/>
`;

exports[`<CanSelector /> should not render graffiti Popup 1`] = `""`;

exports[`<CanSelector /> should render desktop graffiti Popup in case of manualDesktopMode activated 1`] = `
<Popup
  closePopUp={[Function]}
  outcomeHeight={81}
  outcomeOffestTop={0}
  pos={
    Object {
      "left": 391,
      "top": 105,
    }
  }
  styleRelative="true"
>
  <div
    className="sprayCanWrap"
  >
    <button
      className="sprayCan"
      key="0"
      onMouseDown={[Function]}
      type="button"
    >
      <img
        alt="item"
        className="sprayImg"
        data-available={true}
        data-color="Red"
        src="/images/items/857/medium.png"
      />
    </button>
    <button
      className="sprayCan"
      key="1"
      onMouseDown={[Function]}
      type="button"
    >
      <img
        alt="item"
        className="sprayImg"
        data-available={true}
        data-color="Black"
        src="/images/items/857/medium.png"
      />
    </button>
    <button
      className="sprayCan"
      key="2"
      onMouseDown={[Function]}
      type="button"
    >
      <img
        alt="item"
        className="sprayImg"
        data-available={true}
        data-color="Green"
        src="/images/items/857/medium.png"
      />
    </button>
    <button
      className="sprayCan"
      key="3"
      onMouseDown={[Function]}
      type="button"
    >
      <img
        alt="item"
        className="sprayImg"
        data-available={false}
        data-color="Green"
        src="/images/items/857/blank.png"
      />
    </button>
  </div>
  <div
    className="p10 text-a-center"
  >
    Select Spray Color
  </div>
  <div
    className="tooltip-arrow left bottom"
    style={
      Object {
        "top": [Window],
      }
    }
  />
</Popup>
`;

exports[`<CanSelector /> should render graffiti Popup on Desktop 1`] = `
<Popup
  closePopUp={[Function]}
  outcomeHeight={81}
  outcomeOffestTop={0}
  pos={
    Object {
      "left": 391,
      "top": 105,
    }
  }
  styleRelative="true"
>
  <div
    className="sprayCanWrap"
  >
    <button
      className="sprayCan"
      key="0"
      onMouseDown={[Function]}
      type="button"
    >
      <img
        alt="item"
        className="sprayImg"
        data-available={true}
        data-color="Red"
        src="/images/items/857/medium.png"
      />
    </button>
    <button
      className="sprayCan"
      key="1"
      onMouseDown={[Function]}
      type="button"
    >
      <img
        alt="item"
        className="sprayImg"
        data-available={true}
        data-color="Black"
        src="/images/items/857/medium.png"
      />
    </button>
    <button
      className="sprayCan"
      key="2"
      onMouseDown={[Function]}
      type="button"
    >
      <img
        alt="item"
        className="sprayImg"
        data-available={true}
        data-color="Green"
        src="/images/items/857/medium.png"
      />
    </button>
    <button
      className="sprayCan"
      key="3"
      onMouseDown={[Function]}
      type="button"
    >
      <img
        alt="item"
        className="sprayImg"
        data-available={false}
        data-color="Green"
        src="/images/items/857/blank.png"
      />
    </button>
  </div>
  <div
    className="p10 text-a-center"
  >
    Select Spray Color
  </div>
  <div
    className="tooltip-arrow left bottom"
    style={
      Object {
        "top": [Window],
      }
    }
  />
</Popup>
`;

exports[`<CanSelector /> should render graffiti Popup on Mobile 1`] = `
<Popup
  closePopUp={[Function]}
  outcomeHeight={81}
  outcomeOffestTop={0}
  pos={
    Object {
      "left": 80,
      "top": 104,
    }
  }
  styleRelative="true"
>
  <div
    className="sprayCanWrap"
  >
    <button
      className="sprayCan"
      key="0"
      onMouseDown={[Function]}
      type="button"
    >
      <img
        alt="item"
        className="sprayImg"
        data-available={true}
        data-color="Red"
        src="/images/items/857/medium.png"
      />
    </button>
    <button
      className="sprayCan"
      key="1"
      onMouseDown={[Function]}
      type="button"
    >
      <img
        alt="item"
        className="sprayImg"
        data-available={true}
        data-color="Black"
        src="/images/items/857/medium.png"
      />
    </button>
    <button
      className="sprayCan"
      key="2"
      onMouseDown={[Function]}
      type="button"
    >
      <img
        alt="item"
        className="sprayImg"
        data-available={true}
        data-color="Green"
        src="/images/items/857/medium.png"
      />
    </button>
    <button
      className="sprayCan"
      key="3"
      onMouseDown={[Function]}
      type="button"
    >
      <img
        alt="item"
        className="sprayImg"
        data-available={false}
        data-color="Green"
        src="/images/items/857/blank.png"
      />
    </button>
  </div>
  <div
    className="p10 text-a-center"
  >
    Select Spray Color
  </div>
  <div
    className="tooltip-arrow left bottom"
    style={
      Object {
        "top": [Window],
      }
    }
  />
</Popup>
`;

exports[`<CanSelector /> should render graffiti Popup on Tablet 1`] = `
<Popup
  closePopUp={[Function]}
  outcomeHeight={81}
  outcomeOffestTop={0}
  pos={
    Object {
      "left": 146,
      "top": 104,
    }
  }
  styleRelative="true"
>
  <div
    className="sprayCanWrap"
  >
    <button
      className="sprayCan"
      key="0"
      onMouseDown={[Function]}
      type="button"
    >
      <img
        alt="item"
        className="sprayImg"
        data-available={true}
        data-color="Red"
        src="/images/items/857/medium.png"
      />
    </button>
    <button
      className="sprayCan"
      key="1"
      onMouseDown={[Function]}
      type="button"
    >
      <img
        alt="item"
        className="sprayImg"
        data-available={true}
        data-color="Black"
        src="/images/items/857/medium.png"
      />
    </button>
    <button
      className="sprayCan"
      key="2"
      onMouseDown={[Function]}
      type="button"
    >
      <img
        alt="item"
        className="sprayImg"
        data-available={true}
        data-color="Green"
        src="/images/items/857/medium.png"
      />
    </button>
    <button
      className="sprayCan"
      key="3"
      onMouseDown={[Function]}
      type="button"
    >
      <img
        alt="item"
        className="sprayImg"
        data-available={false}
        data-color="Green"
        src="/images/items/857/blank.png"
      />
    </button>
  </div>
  <div
    className="p10 text-a-center"
  >
    Select Spray Color
  </div>
  <div
    className="tooltip-arrow left bottom"
    style={
      Object {
        "top": [Window],
      }
    }
  />
</Popup>
`;

exports[`<CanSelector /> should select spray by certain spray click 1`] = `
<CanSelector
  colorsIDs={
    Object {
      "Black": 857,
      "Green": 857,
      "Red": 857,
    }
  }
  id={0}
  isDesktopLayoutSetted={false}
  items={
    Array [
      Object {
        "available": true,
        "color": "Red",
      },
      Object {
        "available": true,
        "color": "Black",
      },
      Object {
        "available": true,
        "color": "Green",
      },
      Object {
        "available": false,
        "color": "Green",
      },
    ]
  }
  mediaType="desktop"
  outcomeHeight={81}
  outcomeOffestTop={0}
  startIsCanSelectorVisible={[Function]}
  startSelectCan={[Function]}
  usedCrimeID={null}
  visible={true}
>
  <Popup
    closePopUp={[Function]}
    outcomeHeight={81}
    outcomeOffestTop={0}
    pos={
      Object {
        "left": 391,
        "top": 105,
      }
    }
    styleRelative="true"
  >
    <div
      className="popup ui-tooltip ui-widget ui-corner-all ui-widget-content white-tooltip"
      onBlur={[Function]}
      role="button"
      style={
        Object {
          "left": "391px",
          "position": "absolute",
          "top": "186px",
        }
      }
      tabIndex="0"
    >
      <div
        className="sprayCanWrap"
      >
        <button
          className="sprayCan"
          key="0"
          onMouseDown={[Function]}
          type="button"
        >
          <img
            alt="item"
            className="sprayImg"
            data-available={true}
            data-color="Red"
            src="/images/items/857/medium.png"
          />
        </button>
        <button
          className="sprayCan"
          key="1"
          onMouseDown={[Function]}
          type="button"
        >
          <img
            alt="item"
            className="sprayImg"
            data-available={true}
            data-color="Black"
            src="/images/items/857/medium.png"
          />
        </button>
        <button
          className="sprayCan"
          key="2"
          onMouseDown={[Function]}
          type="button"
        >
          <img
            alt="item"
            className="sprayImg"
            data-available={true}
            data-color="Green"
            src="/images/items/857/medium.png"
          />
        </button>
        <button
          className="sprayCan"
          key="3"
          onMouseDown={[Function]}
          type="button"
        >
          <img
            alt="item"
            className="sprayImg"
            data-available={false}
            data-color="Green"
            src="/images/items/857/blank.png"
          />
        </button>
      </div>
      <div
        className="p10 text-a-center"
      >
        Select Spray Color
      </div>
      <div
        className="tooltip-arrow left bottom"
        style={
          Object {
            "top": [Window],
          }
        }
      />
    </div>
  </Popup>
</CanSelector>
`;
