// Jest Snapshot v1, https://goo.gl/fbAQLP

exports[`<Segment /> should render 1`] = `
<div
  className="segment"
>
  Test content
</div>
`;

exports[`<Segment /> should render with children component 1`] = `
<div
  className="segment"
>
  <Children />
</div>
`;

exports[`<Segment /> should render with extra class name 1`] = `
<div
  className="segment testClassName"
>
  <Children />
</div>
`;

exports[`<Segment /> should render with no padding 1`] = `
<div
  className="segment noPadding"
>
  <Children />
</div>
`;

exports[`<Segment /> should render with no padding class name extends 1`] = `
<div
  className="segment noPadding testClassName"
>
  <Children />
</div>
`;
