// Jest Snapshot v1, https://goo.gl/fbAQLP

exports[`<Close /> should not render component 1`] = `""`;

exports[`<Close /> should render basic component 1`] = `
<button
  className="close customCloseClass"
  onClick={[Function]}
  onKeyDown={[Function]}
  type="button"
>
  <SVGIconGenerator
    dimensions={
      Object {
        "height": 11,
        "viewbox": "0 0 14 13",
        "width": 12,
      }
    }
    fill={
      Object {
        "color": "url(#bazaar_cross_gradient)",
        "strokeWidth": "0",
      }
    }
    filter={
      Object {
        "ID": "bazaar_view_shadow",
        "active": true,
        "shadow": Object {
          "active": true,
          "blur": 0.1,
          "color": "#fff",
          "x": 0,
          "y": 1,
        },
      }
    }
    gradient={
      Object {
        "ID": "bazaar_cross_gradient",
        "active": true,
        "scheme": Array [
          Object {
            "color": "#999",
            "step": "0",
          },
          Object {
            "color": "#ccc",
            "step": "1",
          },
        ],
        "transform": "rotate(90)",
      }
    }
    iconName="BazaarCross"
    iconsHolder={
      Object {
        "BazaarBuy": Object {
          "shape": Object {
            "default": <g>
              <path
                d="
            M4,14.5A1.47,1.47,0,1,0,5.5,13,1.47,1.47,0,0,0,4,14.5Zm8,0A1.47,1.47,
            0,1,0,13.5,13,1.47,1.47,0,0,0,12,14.5ZM6,10l9.66-2.94A.49.49,0,0,0,16,
            6.61V3H3V1.38A.36.36,0,0,0,2.64,1L.36,1A.36.36,0,0,0,0,1.36V3H2L4,
            9v3H16V11H6C5,11,5.14,10.25,6,10Z
          "
              />
              <path
                d="
            M4,13.5A1.47,1.47,0,1,0,5.5,12,1.47,1.47,0,0,0,4,13.5Zm8,0A1.47,1.47,0,
            1,0,13.5,12,1.47,1.47,0,0,0,12,13.5ZM6,9l9.66-2.94A.49.49,0,0,0,16,
            5.61V2H3V.38A.36.36,0,0,0,2.64,0L.36,0A.36.36,0,0,0,0,.36V2H2L4,
            8v3H16V10H6C5,10,5.14,9.25,6,9Z
          "
              />
            </g>,
          },
        },
        "BazaarClosed": Object {
          "shape": Object {
            "default": <path
              d="M11.25,4.5A1.54,1.54,0,0,0,12.75,6a1.47,1.47,0,0,0,1.5-1.42V3.75L12,0H10.55l.7,3.68Z
        M3,4.55V3.73L5.17,0H3.66L0,3.73v.82a1.5,1.5,0,0,0,3,0ZM9,6a1.54,1.54,0,0,0,1.5-1.5
        V3.67L9.71,0H8.29L7.5,3.68V4.5A1.54,1.54,0,0,0,9,6ZM3.75,4.55a1.5,1.5,0,0,0,3,0V3.73
        L7.45,0H6L3.75,3.73ZM14.35,0H12.83L15,3.68V4.5A1.54,1.54,0,0,0,16.5,6,1.49,1.49,0,0,0,18,4.55
        V3.73ZM.75,18h16.5V7.5H.75ZM6.67,9l2.42,2.4L11.49,9l1.08,1.08-2.39,2.41,2.42,2.4
        L11.52,16l-2.41-2.4L6.7,16,5.64,14.93,8,12.51,5.6,10.1Z
        "
            />,
          },
        },
        "BazaarCross": Object {
          "shape": Object {
            "default": <g>
              <polygon
                points="0 0 5.25 6 0 12 3.5 12 7 8.28 10.5 12 14 12 8.75 6 14 0 10.5 0 7 3.72 3.5 0 0 0"
              />
            </g>,
          },
        },
        "BazaarOpen": Object {
          "shape": Object {
            "default": <path
              d="
        M9,6a1.54,1.54,0,0,0,1.5-1.5V3.67L9.71,0H8.29L7.5,3.68V4.5A1.54,1.54,0,0,0,9,6Z
        M3.75,4.55a1.5,1.5,0,0,0,3,0V3.73L7.45,0H6L3.75,3.73ZM3,4.55V3.73L5.17,0H3.66
        L0,3.73v.82a1.5,1.5,0,0,0,3,0Zm8.25,0A1.54,1.54,0,0,0,12.75,6a1.47,1.47,0,0,0,1.5-1.42
        V3.75L12,0H10.55l.7,3.68ZM.75,18h16.5V7.5H.75Zm1.5-9h13.5v7.25H2.25Zm12.1-9H12.83L15
        ,3.68V4.5A1.54,1.54,0,0,0,16.5,6,1.49,1.49,0,0,0,18,4.55V3.73ZM8.23,13.37,6.69,11.91,
        5.6,13l2.63,2.54,4.37-4.46L11.52,10Z
      "
            />,
          },
        },
        "BazaarView": Object {
          "shape": Object {
            "default": <g>
              <path
                d="
            M9,1C3.1,1,0,5.32,0,6s3.1,5,9,5,9-4.32,9-5S14.9,1,9,1ZM9,9.85A3.93,
            3.93,0,0,1,5,6,3.93,3.93,0,0,1,9,2.15,3.93,3.93,0,0,1,13,6,3.93,3.93,
            0,0,1,9,9.85ZM9,6c-.37-.4.6-1.92,0-1.92A2,2,0,0,0,7,6a2,2,0,0,0,4,
            0C11,5.51,9.31,6.34,9,6Z
          "
              />
              <path
                d="
            M9,0C3.1,0,0,4.32,0,5s3.1,5,9,5,9-4.32,9-5S14.9,0,9,0ZM9,8.85A3.93,
            3.93,0,0,1,5,5,3.93,3.93,0,0,1,9,1.15,3.93,3.93,0,0,1,13,5,3.93,3.93,
            0,0,1,9,8.85ZM9,5c-.37-.4.6-1.92,0-1.92A2,2,0,0,0,7,5a2,2,0,0,0,4,
            0C11,4.51,9.31,5.34,9,5Z
          "
              />
            </g>,
          },
        },
        "Lock": Object {
          "shape": Object {
            "default": <path
              d="M18,10V6A6,6,0,0,0,6,6v4H3V24H21V10ZM8,10V6a4,4,0,0,1,8,0v4Z"
            />,
          },
        },
      }
    }
    onHover={
      Object {
        "active": true,
        "fill": Object {
          "color": "url(#bazaar_cross_hover_gradient)",
          "strokeWidth": "0",
        },
        "gradient": Object {
          "ID": "bazaar_cross_hover_gradient",
          "scheme": Array [
            Object {
              "color": "#666",
              "step": "0",
            },
            Object {
              "color": "#999",
              "step": "1",
            },
          ],
          "transform": "rotate(90)",
        },
      }
    }
  />
</button>
`;
