// Jest Snapshot v1, https://goo.gl/fbAQLP

exports[`selectors should return 1st row class 1`] = `"pb-icon--6-1"`;

exports[`selectors should return all selectors 1`] = `
Object {
  "additionalInfo": Object {
    "barValue": 53,
    "progressIconState": null,
    "title": "SearchForCash",
  },
  "available": false,
  "button": Object {
    "action": [Function],
    "disabled": true,
    "label": "Attempt",
  },
  "className": "",
  "closeOutcome": Object {
    "callback": undefined,
    "isActive": true,
  },
  "crimeID": 6,
  "crimeInfo": undefined,
  "currentRowID": 0,
  "iconClass": "search-cash-image-search-trash",
  "isCurrentRow": false,
  "isManualLayoutSetted": undefined,
  "isRowActive": false,
  "isRowHaveOutcome": undefined,
  "isRowNotInProgress": undefined,
  "itemId": 0,
  "jailed": false,
  "lastSubCrimeID": 0,
  "mediaType": "desktop",
  "nerve": 0,
  "outcome": Object {
    "story": Array [
      "story",
    ],
  },
  "showOutcome": false,
  "state": undefined,
  "styles": null,
  "subID": undefined,
  "title": "Crime",
}
`;

exports[`selectors should return correct progressTitle 1`] = `"SearchForCash"`;

exports[`selectors should return desktop styleMediaType 1`] = `""`;

exports[`selectors should return progress barValue to 53% 1`] = `53`;
