// Jest Snapshot v1, https://goo.gl/fbAQLP

exports[`<MoneyInput /> should render MoneyInput component and input basic values 1`] = `
<div
  className="input-money-group inputBlock"
>
  <button
    aria-label="Set maximum bet amount equal to: 1000000"
    className="signButton input-money-symbol"
    id="moneyInput"
    onClick={[Function]}
    onKeyDown={[Function]}
    type="button"
  >
    $
  </button>
  <input
    aria-label="Type bet amount:  or use shortcuts like 5k, 1.5m, max, half, quarter, 1/2, 1/3, 1/4, 25%"
    className="input-money input"
    data-lpignore="true"
    onBlur={[Function]}
    onChange={[Function]}
    onKeyDown={[Function]}
    placeholder=""
    readOnly={false}
    type="text"
    value=""
  />
</div>
`;

exports[`<MoneyInput /> should render MoneyInput component and input fraction values 1`] = `
<div
  className="input-money-group inputBlock"
>
  <button
    aria-label="Set maximum bet amount equal to: 1000000"
    className="signButton input-money-symbol"
    id="moneyInput"
    onClick={[Function]}
    onKeyDown={[Function]}
    type="button"
  >
    $
  </button>
  <input
    aria-label="Type bet amount: 111111 or use shortcuts like 5k, 1.5m, max, half, quarter, 1/2, 1/3, 1/4, 25%"
    className="input-money input"
    data-lpignore="true"
    onBlur={[Function]}
    onChange={[Function]}
    onKeyDown={[Function]}
    placeholder=""
    readOnly={false}
    type="text"
    value="111,111"
  />
</div>
`;

exports[`<MoneyInput /> should render MoneyInput component and input percentage values 1`] = `
<div
  className="input-money-group inputBlock"
>
  <button
    aria-label="Set maximum bet amount equal to: 1000000"
    className="signButton input-money-symbol"
    id="moneyInput"
    onClick={[Function]}
    onKeyDown={[Function]}
    type="button"
  >
    $
  </button>
  <input
    aria-label="Type bet amount: 1000000 or use shortcuts like 5k, 1.5m, max, half, quarter, 1/2, 1/3, 1/4, 25%"
    className="input-money input"
    data-lpignore="true"
    onBlur={[Function]}
    onChange={[Function]}
    onKeyDown={[Function]}
    placeholder=""
    readOnly={false}
    type="text"
    value="1,000,000"
  />
</div>
`;

exports[`<MoneyInput /> should render MoneyInput component and input words values 1`] = `
<div
  className="input-money-group inputBlock inputError"
>
  <TransitionGroup
    childFactory={[Function]}
    component="div"
  >
    <CSSTransition
      appear={true}
      classNames="inputTooltip"
      key="2"
      timeout={
        Object {
          "enter": 1000,
          "exit": 300,
        }
      }
      unmountOnExit={true}
    >
      <div
        className="warningTooltip"
      >
        Only valid numbers or shortcuts allowed
      </div>
    </CSSTransition>
  </TransitionGroup>
  <button
    aria-label="Set maximum bet amount equal to: 1000000"
    className="signButton input-money-symbol"
    id="moneyInput"
    onClick={[Function]}
    onKeyDown={[Function]}
    type="button"
  >
    $
  </button>
  <input
    aria-label="Type bet amount: h or use shortcuts like 5k, 1.5m, max, half, quarter, 1/2, 1/3, 1/4, 25%"
    className="input-money input"
    data-lpignore="true"
    onBlur={[Function]}
    onChange={[Function]}
    onKeyDown={[Function]}
    placeholder=""
    readOnly={false}
    type="text"
    value="h"
  />
</div>
`;

exports[`<MoneyInput /> should render MoneyInput component and only max value 1`] = `
<div
  className="input-money-group inputBlock"
>
  <button
    aria-label="Set maximum bet amount equal to: 1000"
    className="signButton input-money-symbol"
    id="moneyInput"
    onClick={[Function]}
    onKeyDown={[Function]}
    type="button"
  >
    $
  </button>
  <input
    aria-label="Type bet amount: 1000 or use shortcuts like 5k, 1.5m, max, half, quarter, 1/2, 1/3, 1/4, 25%"
    className="input-money input"
    data-lpignore="true"
    onBlur={[Function]}
    onChange={[Function]}
    onKeyDown={[Function]}
    placeholder=""
    readOnly={false}
    type="text"
    value="1,000"
  />
</div>
`;

exports[`<MoneyInput /> should render MoneyInput component and outer value 1`] = `
<div
  className="input-money-group inputBlock"
>
  <button
    aria-label="Set maximum bet amount equal to: 1000000"
    className="signButton input-money-symbol"
    id="moneyInput"
    onClick={[Function]}
    onKeyDown={[Function]}
    type="button"
  >
    $
  </button>
  <input
    aria-label="Type bet amount: 100000 or use shortcuts like 5k, 1.5m, max, half, quarter, 1/2, 1/3, 1/4, 25%"
    className="input-money input"
    data-lpignore="true"
    onBlur={[Function]}
    onChange={[Function]}
    onKeyDown={[Function]}
    placeholder=""
    readOnly={false}
    type="text"
    value="100,000"
  />
</div>
`;

exports[`<MoneyInput /> should render with float value 1`] = `
<div
  className="input-money-group inputBlock"
>
  <button
    aria-label="Set maximum bet amount equal to: 1000000"
    className="signButton input-money-symbol"
    id="moneyInput"
    onClick={[Function]}
    onKeyDown={[Function]}
    type="button"
  >
    $
  </button>
  <input
    aria-label="Type bet amount: 12200 or use shortcuts like 5k, 1.5m, max, half, quarter, 1/2, 1/3, 1/4, 25%"
    className="input-money input"
    data-lpignore="true"
    onBlur={[Function]}
    onChange={[Function]}
    onKeyDown={[Function]}
    placeholder=""
    readOnly={false}
    type="text"
    value="12,200"
  />
</div>
`;
